root://lyoeos.in2p3.fr//eos/lyoeos.in2p3.fr/grid/cms/store/data/Run2018D/MET/NANOAOD/UL2018_MiniAODv2_NanoAODv9_GT36-v1/40000/00EEC3B7-AB12-8148-94A6-54B21E164A45.root
root://lyoeos.in2p3.fr//eos/lyoeos.in2p3.fr/grid/cms/store/data/Run2018D/MET/NANOAOD/UL2018_MiniAODv2_NanoAODv9_GT36-v1/40000/040F4249-B529-BA47-993C-293311FFFBA5.root
root://lyoeos.in2p3.fr//eos/lyoeos.in2p3.fr/grid/cms/store/data/Run2018D/MET/NANOAOD/UL2018_MiniAODv2_NanoAODv9_GT36-v1/40000/097EB349-F43A-7C44-96DD-B2C8E113251E.root
root://lyoeos.in2p3.fr//eos/lyoeos.in2p3.fr/grid/cms/store/data/Run2018D/MET/NANOAOD/UL2018_MiniAODv2_NanoAODv9_GT36-v1/40000/0F7AC963-1890-8A41-BEB9-96387E818144.root
root://lyoeos.in2p3.fr//eos/lyoeos.in2p3.fr/grid/cms/store/data/Run2018D/MET/NANOAOD/UL2018_MiniAODv2_NanoAODv9_GT36-v1/40000/10300212-09C4-474E-A0E9-A12403B74855.root
root://lyoeos.in2p3.fr//eos/lyoeos.in2p3.fr/grid/cms/store/data/Run2018D/MET/NANOAOD/UL2018_MiniAODv2_NanoAODv9_GT36-v1/40000/1699EA6B-F09D-E844-94DF-92D39E98F8C5.root
root://lyoeos.in2p3.fr//eos/lyoeos.in2p3.fr/grid/cms/store/data/Run2018D/MET/NANOAOD/UL2018_MiniAODv2_NanoAODv9_GT36-v1/40000/172A80BF-859F-1945-BFAB-42B799713237.root
root://lyoeos.in2p3.fr//eos/lyoeos.in2p3.fr/grid/cms/store/data/Run2018D/MET/NANOAOD/UL2018_MiniAODv2_NanoAODv9_GT36-v1/40000/1CAF7DF0-D753-624E-8BD8-C2B26E638BE6.root
root://lyoeos.in2p3.fr//eos/lyoeos.in2p3.fr/grid/cms/store/data/Run2018D/MET/NANOAOD/UL2018_MiniAODv2_NanoAODv9_GT36-v1/40000/1EF1FF15-ABD4-6C4A-94C9-FA6AE6677074.root
root://lyoeos.in2p3.fr//eos/lyoeos.in2p3.fr/grid/cms/store/data/Run2018D/MET/NANOAOD/UL2018_MiniAODv2_NanoAODv9_GT36-v1/40000/25F826DC-7AC1-334D-853A-D4C4ABF7BA80.root
root://lyoeos.in2p3.fr//eos/lyoeos.in2p3.fr/grid/cms/store/data/Run2018D/MET/NANOAOD/UL2018_MiniAODv2_NanoAODv9_GT36-v1/40000/26BA8435-0957-FE40-897F-1278D5F132B1.root
root://lyoeos.in2p3.fr//eos/lyoeos.in2p3.fr/grid/cms/store/data/Run2018D/MET/NANOAOD/UL2018_MiniAODv2_NanoAODv9_GT36-v1/40000/2A491B32-2F3E-954B-9648-08A4291A6774.root
root://lyoeos.in2p3.fr//eos/lyoeos.in2p3.fr/grid/cms/store/data/Run2018D/MET/NANOAOD/UL2018_MiniAODv2_NanoAODv9_GT36-v1/40000/2A6BD3E0-DD3C-5F4D-925C-6F79B7E40FBC.root
root://lyoeos.in2p3.fr//eos/lyoeos.in2p3.fr/grid/cms/store/data/Run2018D/MET/NANOAOD/UL2018_MiniAODv2_NanoAODv9_GT36-v1/40000/2C2E66D0-4285-4246-8DD6-36BCEF7E983E.root
root://lyoeos.in2p3.fr//eos/lyoeos.in2p3.fr/grid/cms/store/data/Run2018D/MET/NANOAOD/UL2018_MiniAODv2_NanoAODv9_GT36-v1/40000/30685676-E741-2C41-B345-992F8F42678C.root
root://lyoeos.in2p3.fr//eos/lyoeos.in2p3.fr/grid/cms/store/data/Run2018D/MET/NANOAOD/UL2018_MiniAODv2_NanoAODv9_GT36-v1/40000/341171B1-E0CF-5440-968A-AEBC89C4EF21.root
root://lyoeos.in2p3.fr//eos/lyoeos.in2p3.fr/grid/cms/store/data/Run2018D/MET/NANOAOD/UL2018_MiniAODv2_NanoAODv9_GT36-v1/40000/36E5BD2F-B183-694F-B7C1-3E836114FF73.root
root://lyoeos.in2p3.fr//eos/lyoeos.in2p3.fr/grid/cms/store/data/Run2018D/MET/NANOAOD/UL2018_MiniAODv2_NanoAODv9_GT36-v1/40000/4421D8E0-D240-A94E-A424-101D3EF14824.root
root://lyoeos.in2p3.fr//eos/lyoeos.in2p3.fr/grid/cms/store/data/Run2018D/MET/NANOAOD/UL2018_MiniAODv2_NanoAODv9_GT36-v1/40000/46524094-908B-7142-ADB5-9D63A5BAD965.root
root://lyoeos.in2p3.fr//eos/lyoeos.in2p3.fr/grid/cms/store/data/Run2018D/MET/NANOAOD/UL2018_MiniAODv2_NanoAODv9_GT36-v1/40000/4DF52B59-4C53-0A4A-AD27-C4F5E5AAEBBE.root
root://lyoeos.in2p3.fr//eos/lyoeos.in2p3.fr/grid/cms/store/data/Run2018D/MET/NANOAOD/UL2018_MiniAODv2_NanoAODv9_GT36-v1/40000/5315BD6D-EB2C-D148-983B-BDA8BACAAC4C.root
root://lyoeos.in2p3.fr//eos/lyoeos.in2p3.fr/grid/cms/store/data/Run2018D/MET/NANOAOD/UL2018_MiniAODv2_NanoAODv9_GT36-v1/40000/55252CDB-5259-A34C-946D-55A8CC637D49.root
root://lyoeos.in2p3.fr//eos/lyoeos.in2p3.fr/grid/cms/store/data/Run2018D/MET/NANOAOD/UL2018_MiniAODv2_NanoAODv9_GT36-v1/40000/5542CDD8-610B-FA4F-BF93-F33D0A790A3C.root
root://lyoeos.in2p3.fr//eos/lyoeos.in2p3.fr/grid/cms/store/data/Run2018D/MET/NANOAOD/UL2018_MiniAODv2_NanoAODv9_GT36-v1/40000/56E91A34-01FE-9148-94F3-931861BA123E.root
root://lyoeos.in2p3.fr//eos/lyoeos.in2p3.fr/grid/cms/store/data/Run2018D/MET/NANOAOD/UL2018_MiniAODv2_NanoAODv9_GT36-v1/40000/5D121C65-8876-444F-BBF2-E9A0BFC62F1C.root
root://lyoeos.in2p3.fr//eos/lyoeos.in2p3.fr/grid/cms/store/data/Run2018D/MET/NANOAOD/UL2018_MiniAODv2_NanoAODv9_GT36-v1/40000/5DB678F1-9E75-F942-81F5-9AA9B6AA53C8.root
root://lyoeos.in2p3.fr//eos/lyoeos.in2p3.fr/grid/cms/store/data/Run2018D/MET/NANOAOD/UL2018_MiniAODv2_NanoAODv9_GT36-v1/40000/5E5623FB-0C85-FD47-9D49-D916F21F30F2.root
root://lyoeos.in2p3.fr//eos/lyoeos.in2p3.fr/grid/cms/store/data/Run2018D/MET/NANOAOD/UL2018_MiniAODv2_NanoAODv9_GT36-v1/40000/5EA96892-0F1D-5641-919F-6483DCC6C09D.root
root://lyoeos.in2p3.fr//eos/lyoeos.in2p3.fr/grid/cms/store/data/Run2018D/MET/NANOAOD/UL2018_MiniAODv2_NanoAODv9_GT36-v1/40000/5FABDB77-9B2E-1B45-BA25-B9FFAAA45C3F.root
root://lyoeos.in2p3.fr//eos/lyoeos.in2p3.fr/grid/cms/store/data/Run2018D/MET/NANOAOD/UL2018_MiniAODv2_NanoAODv9_GT36-v1/40000/600107C5-1BD0-3B47-8989-69F9657616A1.root
root://lyoeos.in2p3.fr//eos/lyoeos.in2p3.fr/grid/cms/store/data/Run2018D/MET/NANOAOD/UL2018_MiniAODv2_NanoAODv9_GT36-v1/40000/61D8EC78-1809-1249-A2B1-F12E1A61EEA1.root
root://lyoeos.in2p3.fr//eos/lyoeos.in2p3.fr/grid/cms/store/data/Run2018D/MET/NANOAOD/UL2018_MiniAODv2_NanoAODv9_GT36-v1/40000/6A59EDD6-0673-6542-91C7-C1307CB8AFF4.root
root://lyoeos.in2p3.fr//eos/lyoeos.in2p3.fr/grid/cms/store/data/Run2018D/MET/NANOAOD/UL2018_MiniAODv2_NanoAODv9_GT36-v1/40000/6E566515-87BA-DC45-9030-2C593F2D4530.root
root://lyoeos.in2p3.fr//eos/lyoeos.in2p3.fr/grid/cms/store/data/Run2018D/MET/NANOAOD/UL2018_MiniAODv2_NanoAODv9_GT36-v1/40000/75F650B8-0215-8A4B-B9D5-DC72423DED1C.root
root://lyoeos.in2p3.fr//eos/lyoeos.in2p3.fr/grid/cms/store/data/Run2018D/MET/NANOAOD/UL2018_MiniAODv2_NanoAODv9_GT36-v1/40000/76CAE5D0-520D-3844-B9D4-9DEDA7F2C792.root
root://lyoeos.in2p3.fr//eos/lyoeos.in2p3.fr/grid/cms/store/data/Run2018D/MET/NANOAOD/UL2018_MiniAODv2_NanoAODv9_GT36-v1/40000/789A9589-4637-EA41-86BD-5462B96D2C70.root
root://lyoeos.in2p3.fr//eos/lyoeos.in2p3.fr/grid/cms/store/data/Run2018D/MET/NANOAOD/UL2018_MiniAODv2_NanoAODv9_GT36-v1/40000/79C7C098-BAE8-6546-9824-78F4B09AFBFF.root
root://lyoeos.in2p3.fr//eos/lyoeos.in2p3.fr/grid/cms/store/data/Run2018D/MET/NANOAOD/UL2018_MiniAODv2_NanoAODv9_GT36-v1/40000/91A076F2-CCA7-5E43-9285-7158CB99C7AE.root
root://lyoeos.in2p3.fr//eos/lyoeos.in2p3.fr/grid/cms/store/data/Run2018D/MET/NANOAOD/UL2018_MiniAODv2_NanoAODv9_GT36-v1/40000/92A83B6B-9408-C346-AF75-A1AE0B41FB70.root
root://lyoeos.in2p3.fr//eos/lyoeos.in2p3.fr/grid/cms/store/data/Run2018D/MET/NANOAOD/UL2018_MiniAODv2_NanoAODv9_GT36-v1/40000/92CE72C9-A9CA-CD44-B671-FA0C45257155.root
root://lyoeos.in2p3.fr//eos/lyoeos.in2p3.fr/grid/cms/store/data/Run2018D/MET/NANOAOD/UL2018_MiniAODv2_NanoAODv9_GT36-v1/40000/948523D4-DF58-D04D-8736-3EEA57AD477C.root
root://lyoeos.in2p3.fr//eos/lyoeos.in2p3.fr/grid/cms/store/data/Run2018D/MET/NANOAOD/UL2018_MiniAODv2_NanoAODv9_GT36-v1/40000/951AB7D1-A5EB-7345-A3EB-BF4D57A56741.root
root://lyoeos.in2p3.fr//eos/lyoeos.in2p3.fr/grid/cms/store/data/Run2018D/MET/NANOAOD/UL2018_MiniAODv2_NanoAODv9_GT36-v1/40000/95DE4E99-206C-6142-9B84-CE47562DA9C8.root
root://lyoeos.in2p3.fr//eos/lyoeos.in2p3.fr/grid/cms/store/data/Run2018D/MET/NANOAOD/UL2018_MiniAODv2_NanoAODv9_GT36-v1/40000/96F8510A-3FF2-7447-B77C-931603359B4C.root
root://lyoeos.in2p3.fr//eos/lyoeos.in2p3.fr/grid/cms/store/data/Run2018D/MET/NANOAOD/UL2018_MiniAODv2_NanoAODv9_GT36-v1/40000/9D6AD413-F2FF-6D42-9159-C86074FDF594.root
root://lyoeos.in2p3.fr//eos/lyoeos.in2p3.fr/grid/cms/store/data/Run2018D/MET/NANOAOD/UL2018_MiniAODv2_NanoAODv9_GT36-v1/40000/9EE9A849-9C0D-734B-852C-7843D413EE16.root
root://lyoeos.in2p3.fr//eos/lyoeos.in2p3.fr/grid/cms/store/data/Run2018D/MET/NANOAOD/UL2018_MiniAODv2_NanoAODv9_GT36-v1/40000/9FA97E13-75A5-EC42-94CC-25DCF837A50B.root
root://lyoeos.in2p3.fr//eos/lyoeos.in2p3.fr/grid/cms/store/data/Run2018D/MET/NANOAOD/UL2018_MiniAODv2_NanoAODv9_GT36-v1/40000/A153EA6F-6CF4-7345-9BDD-01226DCA8860.root
root://lyoeos.in2p3.fr//eos/lyoeos.in2p3.fr/grid/cms/store/data/Run2018D/MET/NANOAOD/UL2018_MiniAODv2_NanoAODv9_GT36-v1/40000/A2793D2B-4595-3044-91E7-C5B5725B2A9E.root
root://lyoeos.in2p3.fr//eos/lyoeos.in2p3.fr/grid/cms/store/data/Run2018D/MET/NANOAOD/UL2018_MiniAODv2_NanoAODv9_GT36-v1/40000/A4F238EF-A5F0-5049-A223-C626CA19DBB7.root
root://lyoeos.in2p3.fr//eos/lyoeos.in2p3.fr/grid/cms/store/data/Run2018D/MET/NANOAOD/UL2018_MiniAODv2_NanoAODv9_GT36-v1/40000/A5839FBD-3A93-E547-9E25-16469D22F98B.root
root://lyoeos.in2p3.fr//eos/lyoeos.in2p3.fr/grid/cms/store/data/Run2018D/MET/NANOAOD/UL2018_MiniAODv2_NanoAODv9_GT36-v1/40000/ADC3DA04-46A6-F54C-9404-A580107C2036.root
root://lyoeos.in2p3.fr//eos/lyoeos.in2p3.fr/grid/cms/store/data/Run2018D/MET/NANOAOD/UL2018_MiniAODv2_NanoAODv9_GT36-v1/40000/AEC03429-1236-494E-BDDB-D6BB0CD4493A.root
root://lyoeos.in2p3.fr//eos/lyoeos.in2p3.fr/grid/cms/store/data/Run2018D/MET/NANOAOD/UL2018_MiniAODv2_NanoAODv9_GT36-v1/40000/B71B0027-350E-8B40-B980-807591392F4D.root
root://lyoeos.in2p3.fr//eos/lyoeos.in2p3.fr/grid/cms/store/data/Run2018D/MET/NANOAOD/UL2018_MiniAODv2_NanoAODv9_GT36-v1/40000/B88C2008-583B-6D43-B82F-6AE078E3925F.root
root://lyoeos.in2p3.fr//eos/lyoeos.in2p3.fr/grid/cms/store/data/Run2018D/MET/NANOAOD/UL2018_MiniAODv2_NanoAODv9_GT36-v1/40000/BB77D46B-0734-5E40-9D18-D077197611DD.root
root://lyoeos.in2p3.fr//eos/lyoeos.in2p3.fr/grid/cms/store/data/Run2018D/MET/NANOAOD/UL2018_MiniAODv2_NanoAODv9_GT36-v1/40000/BCE4718B-5AA5-5F42-9EF3-3B6A63B71886.root
root://lyoeos.in2p3.fr//eos/lyoeos.in2p3.fr/grid/cms/store/data/Run2018D/MET/NANOAOD/UL2018_MiniAODv2_NanoAODv9_GT36-v1/40000/C0684411-6CC4-5749-A681-938D6697BBE3.root
root://lyoeos.in2p3.fr//eos/lyoeos.in2p3.fr/grid/cms/store/data/Run2018D/MET/NANOAOD/UL2018_MiniAODv2_NanoAODv9_GT36-v1/40000/C93A991A-E12C-6249-89CA-9DF135ADAEB7.root
root://lyoeos.in2p3.fr//eos/lyoeos.in2p3.fr/grid/cms/store/data/Run2018D/MET/NANOAOD/UL2018_MiniAODv2_NanoAODv9_GT36-v1/40000/CA004190-FF03-6841-B53E-5628DD4C057E.root
root://lyoeos.in2p3.fr//eos/lyoeos.in2p3.fr/grid/cms/store/data/Run2018D/MET/NANOAOD/UL2018_MiniAODv2_NanoAODv9_GT36-v1/40000/CE208851-0CB9-C742-A750-21477790B35F.root
root://lyoeos.in2p3.fr//eos/lyoeos.in2p3.fr/grid/cms/store/data/Run2018D/MET/NANOAOD/UL2018_MiniAODv2_NanoAODv9_GT36-v1/40000/D950A97E-51E9-8448-BF3F-F6FCB78B5938.root
root://lyoeos.in2p3.fr//eos/lyoeos.in2p3.fr/grid/cms/store/data/Run2018D/MET/NANOAOD/UL2018_MiniAODv2_NanoAODv9_GT36-v1/40000/DAB95D4A-7B26-2647-9D12-CFE0288ED97B.root
root://lyoeos.in2p3.fr//eos/lyoeos.in2p3.fr/grid/cms/store/data/Run2018D/MET/NANOAOD/UL2018_MiniAODv2_NanoAODv9_GT36-v1/40000/DD880309-FDAA-9445-B6D9-7CA3852992AC.root
root://lyoeos.in2p3.fr//eos/lyoeos.in2p3.fr/grid/cms/store/data/Run2018D/MET/NANOAOD/UL2018_MiniAODv2_NanoAODv9_GT36-v1/40000/E788FA0A-3AE3-B446-870D-482EE1022593.root
root://lyoeos.in2p3.fr//eos/lyoeos.in2p3.fr/grid/cms/store/data/Run2018D/MET/NANOAOD/UL2018_MiniAODv2_NanoAODv9_GT36-v1/40000/E7B52795-6C9F-5C4B-9A28-56E1FBEB4460.root
root://lyoeos.in2p3.fr//eos/lyoeos.in2p3.fr/grid/cms/store/data/Run2018D/MET/NANOAOD/UL2018_MiniAODv2_NanoAODv9_GT36-v1/40000/ECBD9B6F-46E2-E248-9EE0-66763C3F3ADC.root
root://lyoeos.in2p3.fr//eos/lyoeos.in2p3.fr/grid/cms/store/data/Run2018D/MET/NANOAOD/UL2018_MiniAODv2_NanoAODv9_GT36-v1/40000/F1FEEAFA-3B6F-CA4E-A739-7E201BAAA0ED.root
root://lyoeos.in2p3.fr//eos/lyoeos.in2p3.fr/grid/cms/store/data/Run2018D/MET/NANOAOD/UL2018_MiniAODv2_NanoAODv9_GT36-v1/40000/F761432D-0287-ED44-A33D-FF79E4CD94CC.root
root://lyoeos.in2p3.fr//eos/lyoeos.in2p3.fr/grid/cms/store/data/Run2018D/MET/NANOAOD/UL2018_MiniAODv2_NanoAODv9_GT36-v1/40000/FE31C2B8-315E-3145-8E12-A3708286E46B.root
root://lyoeos.in2p3.fr//eos/lyoeos.in2p3.fr/grid/cms/store/data/Run2018D/MET/NANOAOD/UL2018_MiniAODv2_NanoAODv9_GT36-v1/50000/00DDFA79-EC22-3145-A74A-BE27F0B9914F.root
root://lyoeos.in2p3.fr//eos/lyoeos.in2p3.fr/grid/cms/store/data/Run2018D/MET/NANOAOD/UL2018_MiniAODv2_NanoAODv9_GT36-v1/50000/AA2328C2-FB98-6043-8A06-61D7C7FDED6A.root
root://lyoeos.in2p3.fr//eos/lyoeos.in2p3.fr/grid/cms/store/data/Run2018D/MET/NANOAOD/UL2018_MiniAODv2_NanoAODv9_GT36-v1/50000/AF074D1E-5932-5D46-A1A9-3EC9EAD45899.root
root://lyoeos.in2p3.fr//eos/lyoeos.in2p3.fr/grid/cms/store/data/Run2018D/MET/NANOAOD/UL2018_MiniAODv2_NanoAODv9_GT36-v1/50000/BE507198-B298-FB47-8A99-A3FA4CFAA776.root
root://lyoeos.in2p3.fr//eos/lyoeos.in2p3.fr/grid/cms/store/data/Run2018D/MET/NANOAOD/UL2018_MiniAODv2_NanoAODv9_GT36-v1/50000/DD10B5B5-D59B-7E43-97A3-F4CEF7F67AE1.root
root://lyoeos.in2p3.fr//eos/lyoeos.in2p3.fr/grid/cms/store/data/Run2018D/MET/NANOAOD/UL2018_MiniAODv2_NanoAODv9_GT36-v1/50000/F6E28A04-19F7-C34A-AD65-B3E06A15F5E9.root