root://lyoeos.in2p3.fr//eos/lyoeos.in2p3.fr/grid/cms/store/data/Run2018C/SingleMuon/NANOAOD/UL2018_MiniAODv2_NanoAODv9_GT36-v1/2520000/0144EC47-BFA3-EA43-BF05-BD4248ED6031.root
root://lyoeos.in2p3.fr//eos/lyoeos.in2p3.fr/grid/cms/store/data/Run2018C/SingleMuon/NANOAOD/UL2018_MiniAODv2_NanoAODv9_GT36-v1/2520000/0C9615C1-7EE6-CD44-8FC0-04F63B2C16FD.root
root://lyoeos.in2p3.fr//eos/lyoeos.in2p3.fr/grid/cms/store/data/Run2018C/SingleMuon/NANOAOD/UL2018_MiniAODv2_NanoAODv9_GT36-v1/2520000/12FAE9F1-7139-924C-A8DE-9699A00FC994.root
root://lyoeos.in2p3.fr//eos/lyoeos.in2p3.fr/grid/cms/store/data/Run2018C/SingleMuon/NANOAOD/UL2018_MiniAODv2_NanoAODv9_GT36-v1/2520000/152C304A-97AD-1649-BCB6-3EA0CCD0DD33.root
root://lyoeos.in2p3.fr//eos/lyoeos.in2p3.fr/grid/cms/store/data/Run2018C/SingleMuon/NANOAOD/UL2018_MiniAODv2_NanoAODv9_GT36-v1/2520000/1CEB718A-7DC1-C74A-A7BE-A3C8D9FA785A.root
root://lyoeos.in2p3.fr//eos/lyoeos.in2p3.fr/grid/cms/store/data/Run2018C/SingleMuon/NANOAOD/UL2018_MiniAODv2_NanoAODv9_GT36-v1/2520000/1DD0FAC6-3087-E44E-ABCB-8AF812C1310D.root
root://lyoeos.in2p3.fr//eos/lyoeos.in2p3.fr/grid/cms/store/data/Run2018C/SingleMuon/NANOAOD/UL2018_MiniAODv2_NanoAODv9_GT36-v1/2520000/26FC8C40-EA29-804C-B17D-84FB1C6BC505.root
root://lyoeos.in2p3.fr//eos/lyoeos.in2p3.fr/grid/cms/store/data/Run2018C/SingleMuon/NANOAOD/UL2018_MiniAODv2_NanoAODv9_GT36-v1/2520000/2747DEFE-A247-1F42-B0EF-E7B7F1D3FCD6.root
root://lyoeos.in2p3.fr//eos/lyoeos.in2p3.fr/grid/cms/store/data/Run2018C/SingleMuon/NANOAOD/UL2018_MiniAODv2_NanoAODv9_GT36-v1/2520000/2D58C3FE-512A-1F48-9AEB-6F80379B8F4A.root
root://lyoeos.in2p3.fr//eos/lyoeos.in2p3.fr/grid/cms/store/data/Run2018C/SingleMuon/NANOAOD/UL2018_MiniAODv2_NanoAODv9_GT36-v1/2520000/2DA9130E-8423-304C-9902-1E42CD72E658.root
root://lyoeos.in2p3.fr//eos/lyoeos.in2p3.fr/grid/cms/store/data/Run2018C/SingleMuon/NANOAOD/UL2018_MiniAODv2_NanoAODv9_GT36-v1/2520000/30A3A1AB-2F27-C84E-9437-6BB3881F6856.root
root://lyoeos.in2p3.fr//eos/lyoeos.in2p3.fr/grid/cms/store/data/Run2018C/SingleMuon/NANOAOD/UL2018_MiniAODv2_NanoAODv9_GT36-v1/2520000/365F32F6-F971-1B4D-8E9D-C0ACD74FFB03.root
root://lyoeos.in2p3.fr//eos/lyoeos.in2p3.fr/grid/cms/store/data/Run2018C/SingleMuon/NANOAOD/UL2018_MiniAODv2_NanoAODv9_GT36-v1/2520000/37312354-59AB-E44B-BC94-CF424D4B7DDB.root
root://lyoeos.in2p3.fr//eos/lyoeos.in2p3.fr/grid/cms/store/data/Run2018C/SingleMuon/NANOAOD/UL2018_MiniAODv2_NanoAODv9_GT36-v1/2520000/39D52C69-2035-A24B-A413-40976993651D.root
root://lyoeos.in2p3.fr//eos/lyoeos.in2p3.fr/grid/cms/store/data/Run2018C/SingleMuon/NANOAOD/UL2018_MiniAODv2_NanoAODv9_GT36-v1/2520000/3FE5B677-9AB3-0245-A1CF-4B320592F18F.root
root://lyoeos.in2p3.fr//eos/lyoeos.in2p3.fr/grid/cms/store/data/Run2018C/SingleMuon/NANOAOD/UL2018_MiniAODv2_NanoAODv9_GT36-v1/2520000/410C32AB-DEB5-404F-BC6B-92E8F560563F.root
root://lyoeos.in2p3.fr//eos/lyoeos.in2p3.fr/grid/cms/store/data/Run2018C/SingleMuon/NANOAOD/UL2018_MiniAODv2_NanoAODv9_GT36-v1/2520000/42DC0F42-82E8-BE47-B04D-544B67274829.root
root://lyoeos.in2p3.fr//eos/lyoeos.in2p3.fr/grid/cms/store/data/Run2018C/SingleMuon/NANOAOD/UL2018_MiniAODv2_NanoAODv9_GT36-v1/2520000/459261DD-4441-6047-9FF2-1EDE468452C9.root
root://lyoeos.in2p3.fr//eos/lyoeos.in2p3.fr/grid/cms/store/data/Run2018C/SingleMuon/NANOAOD/UL2018_MiniAODv2_NanoAODv9_GT36-v1/2520000/51515E3C-C640-3A4C-A16C-DC267FD142BF.root
root://lyoeos.in2p3.fr//eos/lyoeos.in2p3.fr/grid/cms/store/data/Run2018C/SingleMuon/NANOAOD/UL2018_MiniAODv2_NanoAODv9_GT36-v1/2520000/59DA0585-BD57-CE49-A15E-CDBAC5473EDE.root
root://lyoeos.in2p3.fr//eos/lyoeos.in2p3.fr/grid/cms/store/data/Run2018C/SingleMuon/NANOAOD/UL2018_MiniAODv2_NanoAODv9_GT36-v1/2520000/62789325-3C0B-FC4D-B578-B41A396399E4.root
root://lyoeos.in2p3.fr//eos/lyoeos.in2p3.fr/grid/cms/store/data/Run2018C/SingleMuon/NANOAOD/UL2018_MiniAODv2_NanoAODv9_GT36-v1/2520000/63047CC0-38C6-F74C-9A00-0DF9050F7CF1.root
root://lyoeos.in2p3.fr//eos/lyoeos.in2p3.fr/grid/cms/store/data/Run2018C/SingleMuon/NANOAOD/UL2018_MiniAODv2_NanoAODv9_GT36-v1/2520000/648ECD9C-8AAA-BB46-8683-C8987CCC73B9.root
root://lyoeos.in2p3.fr//eos/lyoeos.in2p3.fr/grid/cms/store/data/Run2018C/SingleMuon/NANOAOD/UL2018_MiniAODv2_NanoAODv9_GT36-v1/2520000/6809B5E3-6DE6-1541-AE4C-E1804C877EDE.root
root://lyoeos.in2p3.fr//eos/lyoeos.in2p3.fr/grid/cms/store/data/Run2018C/SingleMuon/NANOAOD/UL2018_MiniAODv2_NanoAODv9_GT36-v1/2520000/69ABD79C-C684-8244-9F0D-153C6B8C2D9C.root
root://lyoeos.in2p3.fr//eos/lyoeos.in2p3.fr/grid/cms/store/data/Run2018C/SingleMuon/NANOAOD/UL2018_MiniAODv2_NanoAODv9_GT36-v1/2520000/6DDF448B-4605-5C41-9711-1C73EC5F01D3.root
root://lyoeos.in2p3.fr//eos/lyoeos.in2p3.fr/grid/cms/store/data/Run2018C/SingleMuon/NANOAOD/UL2018_MiniAODv2_NanoAODv9_GT36-v1/2520000/6EAA5EDB-0DB3-6E40-87DC-7AB582295D29.root
root://lyoeos.in2p3.fr//eos/lyoeos.in2p3.fr/grid/cms/store/data/Run2018C/SingleMuon/NANOAOD/UL2018_MiniAODv2_NanoAODv9_GT36-v1/2520000/74A75B73-E5B8-C942-BBC9-1DDDD7F752FB.root
root://lyoeos.in2p3.fr//eos/lyoeos.in2p3.fr/grid/cms/store/data/Run2018C/SingleMuon/NANOAOD/UL2018_MiniAODv2_NanoAODv9_GT36-v1/2520000/78AC6A39-C303-EB44-9264-71819CC70FCC.root
root://lyoeos.in2p3.fr//eos/lyoeos.in2p3.fr/grid/cms/store/data/Run2018C/SingleMuon/NANOAOD/UL2018_MiniAODv2_NanoAODv9_GT36-v1/2520000/7B14228A-5331-DF4E-B677-7B8AA281D460.root
root://lyoeos.in2p3.fr//eos/lyoeos.in2p3.fr/grid/cms/store/data/Run2018C/SingleMuon/NANOAOD/UL2018_MiniAODv2_NanoAODv9_GT36-v1/2520000/7B181B92-AA2C-1E44-86FE-B074D359BBB3.root
root://lyoeos.in2p3.fr//eos/lyoeos.in2p3.fr/grid/cms/store/data/Run2018C/SingleMuon/NANOAOD/UL2018_MiniAODv2_NanoAODv9_GT36-v1/2520000/7CCCB2C3-F210-2C42-85DF-AA00293FACFB.root
root://lyoeos.in2p3.fr//eos/lyoeos.in2p3.fr/grid/cms/store/data/Run2018C/SingleMuon/NANOAOD/UL2018_MiniAODv2_NanoAODv9_GT36-v1/2520000/7DEA3718-B7BC-EE42-A8BE-11C62BB8536D.root
root://lyoeos.in2p3.fr//eos/lyoeos.in2p3.fr/grid/cms/store/data/Run2018C/SingleMuon/NANOAOD/UL2018_MiniAODv2_NanoAODv9_GT36-v1/2520000/81CEA7BA-9E66-BC4F-A96F-32642D59B653.root
root://lyoeos.in2p3.fr//eos/lyoeos.in2p3.fr/grid/cms/store/data/Run2018C/SingleMuon/NANOAOD/UL2018_MiniAODv2_NanoAODv9_GT36-v1/2520000/8223C4A3-D4BD-6A4B-A513-54B6668C7122.root
root://lyoeos.in2p3.fr//eos/lyoeos.in2p3.fr/grid/cms/store/data/Run2018C/SingleMuon/NANOAOD/UL2018_MiniAODv2_NanoAODv9_GT36-v1/2520000/8369B0EA-E4CC-AC4D-BD3F-0679B3310E09.root
root://lyoeos.in2p3.fr//eos/lyoeos.in2p3.fr/grid/cms/store/data/Run2018C/SingleMuon/NANOAOD/UL2018_MiniAODv2_NanoAODv9_GT36-v1/2520000/8C8690F8-4FEE-1047-85F4-29E414B3D12C.root
root://lyoeos.in2p3.fr//eos/lyoeos.in2p3.fr/grid/cms/store/data/Run2018C/SingleMuon/NANOAOD/UL2018_MiniAODv2_NanoAODv9_GT36-v1/2520000/A350E2E4-705C-2C4D-9B11-3436056EEBE7.root
root://lyoeos.in2p3.fr//eos/lyoeos.in2p3.fr/grid/cms/store/data/Run2018C/SingleMuon/NANOAOD/UL2018_MiniAODv2_NanoAODv9_GT36-v1/2520000/A59D511A-A419-714F-8EE1-8B8BAFEC04D5.root
root://lyoeos.in2p3.fr//eos/lyoeos.in2p3.fr/grid/cms/store/data/Run2018C/SingleMuon/NANOAOD/UL2018_MiniAODv2_NanoAODv9_GT36-v1/2520000/A74EFE57-BAD2-C143-B8DC-817CE4F96FD7.root
root://lyoeos.in2p3.fr//eos/lyoeos.in2p3.fr/grid/cms/store/data/Run2018C/SingleMuon/NANOAOD/UL2018_MiniAODv2_NanoAODv9_GT36-v1/2520000/AB8DD69D-A522-D44C-BB9C-209623F7D41A.root
root://lyoeos.in2p3.fr//eos/lyoeos.in2p3.fr/grid/cms/store/data/Run2018C/SingleMuon/NANOAOD/UL2018_MiniAODv2_NanoAODv9_GT36-v1/2520000/AE014F55-84BE-E84E-B447-0B614070CD17.root
root://lyoeos.in2p3.fr//eos/lyoeos.in2p3.fr/grid/cms/store/data/Run2018C/SingleMuon/NANOAOD/UL2018_MiniAODv2_NanoAODv9_GT36-v1/2520000/B1B449CE-5952-8347-A9A7-35FE231D0C72.root
root://lyoeos.in2p3.fr//eos/lyoeos.in2p3.fr/grid/cms/store/data/Run2018C/SingleMuon/NANOAOD/UL2018_MiniAODv2_NanoAODv9_GT36-v1/2520000/B3487FE0-B172-AD47-A13A-388C0A9BF93F.root
root://lyoeos.in2p3.fr//eos/lyoeos.in2p3.fr/grid/cms/store/data/Run2018C/SingleMuon/NANOAOD/UL2018_MiniAODv2_NanoAODv9_GT36-v1/2520000/B78A9B75-3B32-CF4E-A144-375189CF48AE.root
root://lyoeos.in2p3.fr//eos/lyoeos.in2p3.fr/grid/cms/store/data/Run2018C/SingleMuon/NANOAOD/UL2018_MiniAODv2_NanoAODv9_GT36-v1/2520000/B9E9087C-255C-C24D-A733-FB9291DC7C3C.root
root://lyoeos.in2p3.fr//eos/lyoeos.in2p3.fr/grid/cms/store/data/Run2018C/SingleMuon/NANOAOD/UL2018_MiniAODv2_NanoAODv9_GT36-v1/2520000/BA02D468-A8CE-4F49-884F-F836BB481AD5.root
root://lyoeos.in2p3.fr//eos/lyoeos.in2p3.fr/grid/cms/store/data/Run2018C/SingleMuon/NANOAOD/UL2018_MiniAODv2_NanoAODv9_GT36-v1/2520000/BAAA6E00-7AC3-9947-9262-D9833D3A8B19.root
root://lyoeos.in2p3.fr//eos/lyoeos.in2p3.fr/grid/cms/store/data/Run2018C/SingleMuon/NANOAOD/UL2018_MiniAODv2_NanoAODv9_GT36-v1/2520000/BCBF89A2-329C-744B-A38F-139EA8F94007.root
root://lyoeos.in2p3.fr//eos/lyoeos.in2p3.fr/grid/cms/store/data/Run2018C/SingleMuon/NANOAOD/UL2018_MiniAODv2_NanoAODv9_GT36-v1/2520000/C4F476DA-3D00-334B-867C-7E12F94EE3AB.root
root://lyoeos.in2p3.fr//eos/lyoeos.in2p3.fr/grid/cms/store/data/Run2018C/SingleMuon/NANOAOD/UL2018_MiniAODv2_NanoAODv9_GT36-v1/2520000/CBD43A1E-AE2F-0B4D-A642-29FB2E9EB33B.root
root://lyoeos.in2p3.fr//eos/lyoeos.in2p3.fr/grid/cms/store/data/Run2018C/SingleMuon/NANOAOD/UL2018_MiniAODv2_NanoAODv9_GT36-v1/2520000/CDD2CDF9-72D0-4045-B28F-89002077FB89.root
root://lyoeos.in2p3.fr//eos/lyoeos.in2p3.fr/grid/cms/store/data/Run2018C/SingleMuon/NANOAOD/UL2018_MiniAODv2_NanoAODv9_GT36-v1/2520000/D40D1285-B075-D446-B1BF-86A463EF6993.root
root://lyoeos.in2p3.fr//eos/lyoeos.in2p3.fr/grid/cms/store/data/Run2018C/SingleMuon/NANOAOD/UL2018_MiniAODv2_NanoAODv9_GT36-v1/2520000/D7875684-9F26-084E-9B2B-5E9BB5D353E8.root
root://lyoeos.in2p3.fr//eos/lyoeos.in2p3.fr/grid/cms/store/data/Run2018C/SingleMuon/NANOAOD/UL2018_MiniAODv2_NanoAODv9_GT36-v1/2520000/D8D41BBC-D514-D342-A514-CCF48575D184.root
root://lyoeos.in2p3.fr//eos/lyoeos.in2p3.fr/grid/cms/store/data/Run2018C/SingleMuon/NANOAOD/UL2018_MiniAODv2_NanoAODv9_GT36-v1/2520000/DA47C0B6-BCAB-C54C-A6BF-B0A64E88E3D4.root
root://lyoeos.in2p3.fr//eos/lyoeos.in2p3.fr/grid/cms/store/data/Run2018C/SingleMuon/NANOAOD/UL2018_MiniAODv2_NanoAODv9_GT36-v1/2520000/ECD4877E-707B-EA43-A38B-D1B700FBDE79.root
root://lyoeos.in2p3.fr//eos/lyoeos.in2p3.fr/grid/cms/store/data/Run2018C/SingleMuon/NANOAOD/UL2018_MiniAODv2_NanoAODv9_GT36-v1/2520000/ED95384D-9D3D-AE45-8425-C4C080E691C5.root
root://lyoeos.in2p3.fr//eos/lyoeos.in2p3.fr/grid/cms/store/data/Run2018C/SingleMuon/NANOAOD/UL2018_MiniAODv2_NanoAODv9_GT36-v1/2520000/F09135D8-FCBE-AF40-BCE8-03A529C5C87F.root
root://lyoeos.in2p3.fr//eos/lyoeos.in2p3.fr/grid/cms/store/data/Run2018C/SingleMuon/NANOAOD/UL2018_MiniAODv2_NanoAODv9_GT36-v1/2520000/F16A9138-7563-E540-B6AD-8A8A688B3830.root
root://lyoeos.in2p3.fr//eos/lyoeos.in2p3.fr/grid/cms/store/data/Run2018C/SingleMuon/NANOAOD/UL2018_MiniAODv2_NanoAODv9_GT36-v1/2520000/F1B3977A-E777-EC4D-8FC7-981FE4ED5E0C.root
root://lyoeos.in2p3.fr//eos/lyoeos.in2p3.fr/grid/cms/store/data/Run2018C/SingleMuon/NANOAOD/UL2018_MiniAODv2_NanoAODv9_GT36-v1/2520000/F34F4F00-3370-EF4D-AF44-39E474E6530F.root
root://lyoeos.in2p3.fr//eos/lyoeos.in2p3.fr/grid/cms/store/data/Run2018C/SingleMuon/NANOAOD/UL2018_MiniAODv2_NanoAODv9_GT36-v1/2520000/F6E44EA5-F4C6-E746-AD43-7A263F1E316E.root
root://lyoeos.in2p3.fr//eos/lyoeos.in2p3.fr/grid/cms/store/data/Run2018C/SingleMuon/NANOAOD/UL2018_MiniAODv2_NanoAODv9_GT36-v1/2520000/FAF0C67B-A8B4-8A4F-83B1-E43675CE9630.root
root://lyoeos.in2p3.fr//eos/lyoeos.in2p3.fr/grid/cms/store/data/Run2018C/SingleMuon/NANOAOD/UL2018_MiniAODv2_NanoAODv9_GT36-v1/2520000/FCAF4145-8E3F-2142-BDCB-5E276523B592.root
root://lyoeos.in2p3.fr//eos/lyoeos.in2p3.fr/grid/cms/store/data/Run2018C/SingleMuon/NANOAOD/UL2018_MiniAODv2_NanoAODv9_GT36-v1/2520000/FE3D79A6-27D4-8948-A89B-2F966C5B29D4.root
root://lyoeos.in2p3.fr//eos/lyoeos.in2p3.fr/grid/cms/store/data/Run2018C/SingleMuon/NANOAOD/UL2018_MiniAODv2_NanoAODv9_GT36-v1/2520000/FE5EEFA5-C07A-5C44-B66D-5B31BE02C7D3.root