root://lyoeos.in2p3.fr//eos/lyoeos.in2p3.fr/grid/cms/store/data/Run2018B/MuonEG/NANOAOD/UL2018_MiniAODv2_NanoAODv9_GT36-v1/2520000/285B4F72-FADD-814A-BE6B-DD338AE4F2E1.root
root://lyoeos.in2p3.fr//eos/lyoeos.in2p3.fr/grid/cms/store/data/Run2018B/MuonEG/NANOAOD/UL2018_MiniAODv2_NanoAODv9_GT36-v1/2520000/4F4ADFC1-4AF4-DF41-9CF0-F56B973F10A0.root
root://lyoeos.in2p3.fr//eos/lyoeos.in2p3.fr/grid/cms/store/data/Run2018B/MuonEG/NANOAOD/UL2018_MiniAODv2_NanoAODv9_GT36-v1/2520000/54B18DC0-5BA1-B74E-AD57-19BEFCF952A8.root
root://lyoeos.in2p3.fr//eos/lyoeos.in2p3.fr/grid/cms/store/data/Run2018B/MuonEG/NANOAOD/UL2018_MiniAODv2_NanoAODv9_GT36-v1/2520000/5DA65BE7-FB44-CC4D-8A83-E8897FC19A4D.root
root://lyoeos.in2p3.fr//eos/lyoeos.in2p3.fr/grid/cms/store/data/Run2018B/MuonEG/NANOAOD/UL2018_MiniAODv2_NanoAODv9_GT36-v1/2520000/8CC7C91A-1E1E-AA4C-81FD-1B19450D1A60.root
root://lyoeos.in2p3.fr//eos/lyoeos.in2p3.fr/grid/cms/store/data/Run2018B/MuonEG/NANOAOD/UL2018_MiniAODv2_NanoAODv9_GT36-v1/2520000/B10F4529-3FF8-6242-917C-C50F2E2B8BD4.root
root://lyoeos.in2p3.fr//eos/lyoeos.in2p3.fr/grid/cms/store/data/Run2018B/MuonEG/NANOAOD/UL2018_MiniAODv2_NanoAODv9_GT36-v1/2520000/B605364E-BAE6-AF45-99F7-CB63A5D990E7.root
root://lyoeos.in2p3.fr//eos/lyoeos.in2p3.fr/grid/cms/store/data/Run2018B/MuonEG/NANOAOD/UL2018_MiniAODv2_NanoAODv9_GT36-v1/2520000/B7F25E89-7E7E-4941-A1BA-F69C7EE730DE.root
root://lyoeos.in2p3.fr//eos/lyoeos.in2p3.fr/grid/cms/store/data/Run2018B/MuonEG/NANOAOD/UL2018_MiniAODv2_NanoAODv9_GT36-v1/2520000/BD34AA44-7DB9-8C49-906A-DD76AED3932F.root
root://lyoeos.in2p3.fr//eos/lyoeos.in2p3.fr/grid/cms/store/data/Run2018B/MuonEG/NANOAOD/UL2018_MiniAODv2_NanoAODv9_GT36-v1/2520000/BDBF10E4-7442-A348-933C-67C91F3F62E0.root
root://lyoeos.in2p3.fr//eos/lyoeos.in2p3.fr/grid/cms/store/data/Run2018B/MuonEG/NANOAOD/UL2018_MiniAODv2_NanoAODv9_GT36-v1/2520000/DB339E8E-49E3-7443-BA03-85A186714631.root
root://lyoeos.in2p3.fr//eos/lyoeos.in2p3.fr/grid/cms/store/data/Run2018B/MuonEG/NANOAOD/UL2018_MiniAODv2_NanoAODv9_GT36-v1/2520000/E0C0F586-4F82-5145-B1DD-3508B693AAF5.root