root://lyoeos.in2p3.fr//eos/lyoeos.in2p3.fr/grid/cms/store/data/Run2018B/SingleMuon/NANOAOD/UL2018_MiniAODv2_NanoAODv9_GT36-v1/2430000/02D63562-5C95-7842-AAD8-A60629F3638B.root
root://lyoeos.in2p3.fr//eos/lyoeos.in2p3.fr/grid/cms/store/data/Run2018B/SingleMuon/NANOAOD/UL2018_MiniAODv2_NanoAODv9_GT36-v1/2430000/0936F628-EDF5-314A-8EC4-26057425A49B.root
root://lyoeos.in2p3.fr//eos/lyoeos.in2p3.fr/grid/cms/store/data/Run2018B/SingleMuon/NANOAOD/UL2018_MiniAODv2_NanoAODv9_GT36-v1/2430000/121A7E51-6C2E-6D4D-8A44-15CCDA2C0198.root
root://lyoeos.in2p3.fr//eos/lyoeos.in2p3.fr/grid/cms/store/data/Run2018B/SingleMuon/NANOAOD/UL2018_MiniAODv2_NanoAODv9_GT36-v1/2430000/1317F724-9E5F-C148-AE0A-0DF4FF33F10D.root
root://lyoeos.in2p3.fr//eos/lyoeos.in2p3.fr/grid/cms/store/data/Run2018B/SingleMuon/NANOAOD/UL2018_MiniAODv2_NanoAODv9_GT36-v1/2430000/177CE513-C17D-7F4B-9195-82C33D56ABE9.root
root://lyoeos.in2p3.fr//eos/lyoeos.in2p3.fr/grid/cms/store/data/Run2018B/SingleMuon/NANOAOD/UL2018_MiniAODv2_NanoAODv9_GT36-v1/2430000/19CFB933-2612-2241-A6E2-6DA1462F1D5D.root
root://lyoeos.in2p3.fr//eos/lyoeos.in2p3.fr/grid/cms/store/data/Run2018B/SingleMuon/NANOAOD/UL2018_MiniAODv2_NanoAODv9_GT36-v1/2430000/1D60AFE4-4701-B848-B692-6EA853A771A8.root
root://lyoeos.in2p3.fr//eos/lyoeos.in2p3.fr/grid/cms/store/data/Run2018B/SingleMuon/NANOAOD/UL2018_MiniAODv2_NanoAODv9_GT36-v1/2430000/238FAA4B-71AB-BA46-B634-EECEBFCAFC3E.root
root://lyoeos.in2p3.fr//eos/lyoeos.in2p3.fr/grid/cms/store/data/Run2018B/SingleMuon/NANOAOD/UL2018_MiniAODv2_NanoAODv9_GT36-v1/2430000/2755415C-8FC5-A945-BCBC-402F3910C82E.root
root://lyoeos.in2p3.fr//eos/lyoeos.in2p3.fr/grid/cms/store/data/Run2018B/SingleMuon/NANOAOD/UL2018_MiniAODv2_NanoAODv9_GT36-v1/2430000/28690F6F-D4B5-5D4B-A557-5AC1EE5D5DD8.root
root://lyoeos.in2p3.fr//eos/lyoeos.in2p3.fr/grid/cms/store/data/Run2018B/SingleMuon/NANOAOD/UL2018_MiniAODv2_NanoAODv9_GT36-v1/2430000/333071A2-4043-B340-BBDC-395EBF78EA33.root
root://lyoeos.in2p3.fr//eos/lyoeos.in2p3.fr/grid/cms/store/data/Run2018B/SingleMuon/NANOAOD/UL2018_MiniAODv2_NanoAODv9_GT36-v1/2430000/367D99E5-2F33-D441-96FA-796B98D6730F.root
root://lyoeos.in2p3.fr//eos/lyoeos.in2p3.fr/grid/cms/store/data/Run2018B/SingleMuon/NANOAOD/UL2018_MiniAODv2_NanoAODv9_GT36-v1/2430000/3A73C517-081B-3946-A3B6-F9D9A6C080BD.root
root://lyoeos.in2p3.fr//eos/lyoeos.in2p3.fr/grid/cms/store/data/Run2018B/SingleMuon/NANOAOD/UL2018_MiniAODv2_NanoAODv9_GT36-v1/2430000/421785AD-F3AF-0745-8F0C-992C3E98F71A.root
root://lyoeos.in2p3.fr//eos/lyoeos.in2p3.fr/grid/cms/store/data/Run2018B/SingleMuon/NANOAOD/UL2018_MiniAODv2_NanoAODv9_GT36-v1/2430000/4A6140C2-7ECE-574B-BF1A-B2BC8BA62FE4.root
root://lyoeos.in2p3.fr//eos/lyoeos.in2p3.fr/grid/cms/store/data/Run2018B/SingleMuon/NANOAOD/UL2018_MiniAODv2_NanoAODv9_GT36-v1/2430000/4E537C92-C306-064A-BE65-1B554DB84F41.root
root://lyoeos.in2p3.fr//eos/lyoeos.in2p3.fr/grid/cms/store/data/Run2018B/SingleMuon/NANOAOD/UL2018_MiniAODv2_NanoAODv9_GT36-v1/2430000/5A5919AE-CE8C-F843-A4F7-8926761C89A0.root
root://lyoeos.in2p3.fr//eos/lyoeos.in2p3.fr/grid/cms/store/data/Run2018B/SingleMuon/NANOAOD/UL2018_MiniAODv2_NanoAODv9_GT36-v1/2430000/5D67BAFB-18D0-C84B-B12C-25D564FABBB3.root
root://lyoeos.in2p3.fr//eos/lyoeos.in2p3.fr/grid/cms/store/data/Run2018B/SingleMuon/NANOAOD/UL2018_MiniAODv2_NanoAODv9_GT36-v1/2430000/5F4D776A-BEF4-614A-AC18-D1CE731C28B0.root
root://lyoeos.in2p3.fr//eos/lyoeos.in2p3.fr/grid/cms/store/data/Run2018B/SingleMuon/NANOAOD/UL2018_MiniAODv2_NanoAODv9_GT36-v1/2430000/64C17758-DA71-044C-B03F-870A7D35447B.root
root://lyoeos.in2p3.fr//eos/lyoeos.in2p3.fr/grid/cms/store/data/Run2018B/SingleMuon/NANOAOD/UL2018_MiniAODv2_NanoAODv9_GT36-v1/2430000/64D03076-0061-194D-8A6F-6F7DBFF8D45A.root
root://lyoeos.in2p3.fr//eos/lyoeos.in2p3.fr/grid/cms/store/data/Run2018B/SingleMuon/NANOAOD/UL2018_MiniAODv2_NanoAODv9_GT36-v1/2430000/6BDF0D64-4A5C-A64C-A8EC-88295E21A700.root
root://lyoeos.in2p3.fr//eos/lyoeos.in2p3.fr/grid/cms/store/data/Run2018B/SingleMuon/NANOAOD/UL2018_MiniAODv2_NanoAODv9_GT36-v1/2430000/70AEC0D8-186F-1F42-906C-2002BD7D1009.root
root://lyoeos.in2p3.fr//eos/lyoeos.in2p3.fr/grid/cms/store/data/Run2018B/SingleMuon/NANOAOD/UL2018_MiniAODv2_NanoAODv9_GT36-v1/2430000/735D7010-98C7-194E-BCEB-67B75628692F.root
root://lyoeos.in2p3.fr//eos/lyoeos.in2p3.fr/grid/cms/store/data/Run2018B/SingleMuon/NANOAOD/UL2018_MiniAODv2_NanoAODv9_GT36-v1/2430000/73841283-E504-D34B-B7F1-631F8EB92D38.root
root://lyoeos.in2p3.fr//eos/lyoeos.in2p3.fr/grid/cms/store/data/Run2018B/SingleMuon/NANOAOD/UL2018_MiniAODv2_NanoAODv9_GT36-v1/2430000/78030326-041C-354F-89B4-60314D6919C0.root
root://lyoeos.in2p3.fr//eos/lyoeos.in2p3.fr/grid/cms/store/data/Run2018B/SingleMuon/NANOAOD/UL2018_MiniAODv2_NanoAODv9_GT36-v1/2430000/7B48C521-1C6E-1D46-ADD0-3FF2281827E7.root
root://lyoeos.in2p3.fr//eos/lyoeos.in2p3.fr/grid/cms/store/data/Run2018B/SingleMuon/NANOAOD/UL2018_MiniAODv2_NanoAODv9_GT36-v1/2430000/7FF56B0D-E932-7441-BBE8-6A9A8355620B.root
root://lyoeos.in2p3.fr//eos/lyoeos.in2p3.fr/grid/cms/store/data/Run2018B/SingleMuon/NANOAOD/UL2018_MiniAODv2_NanoAODv9_GT36-v1/2430000/807249F1-923A-CA49-8281-A9406F43E6C1.root
root://lyoeos.in2p3.fr//eos/lyoeos.in2p3.fr/grid/cms/store/data/Run2018B/SingleMuon/NANOAOD/UL2018_MiniAODv2_NanoAODv9_GT36-v1/2430000/8289E2B7-C09D-E04D-958D-18BD5D6CB0C4.root
root://lyoeos.in2p3.fr//eos/lyoeos.in2p3.fr/grid/cms/store/data/Run2018B/SingleMuon/NANOAOD/UL2018_MiniAODv2_NanoAODv9_GT36-v1/2430000/87FA9714-D8D3-1345-BFF5-3B417B1ADC64.root
root://lyoeos.in2p3.fr//eos/lyoeos.in2p3.fr/grid/cms/store/data/Run2018B/SingleMuon/NANOAOD/UL2018_MiniAODv2_NanoAODv9_GT36-v1/2430000/8ED18FD9-EE3D-8F42-A1CF-CEE98CDAEA84.root
root://lyoeos.in2p3.fr//eos/lyoeos.in2p3.fr/grid/cms/store/data/Run2018B/SingleMuon/NANOAOD/UL2018_MiniAODv2_NanoAODv9_GT36-v1/2430000/93ED6580-75EE-F54E-8F4F-6E989334A1B7.root
root://lyoeos.in2p3.fr//eos/lyoeos.in2p3.fr/grid/cms/store/data/Run2018B/SingleMuon/NANOAOD/UL2018_MiniAODv2_NanoAODv9_GT36-v1/2430000/9DBA82BF-88B6-684B-AFA9-337177235305.root
root://lyoeos.in2p3.fr//eos/lyoeos.in2p3.fr/grid/cms/store/data/Run2018B/SingleMuon/NANOAOD/UL2018_MiniAODv2_NanoAODv9_GT36-v1/2430000/A0DFC7EB-562E-3C44-8F91-8357A7284BB5.root
root://lyoeos.in2p3.fr//eos/lyoeos.in2p3.fr/grid/cms/store/data/Run2018B/SingleMuon/NANOAOD/UL2018_MiniAODv2_NanoAODv9_GT36-v1/2430000/A626EABF-9871-7442-87DD-6E3E1EBE1CF9.root
root://lyoeos.in2p3.fr//eos/lyoeos.in2p3.fr/grid/cms/store/data/Run2018B/SingleMuon/NANOAOD/UL2018_MiniAODv2_NanoAODv9_GT36-v1/2430000/A63CD16B-3454-C547-813F-B2FF1295173B.root
root://lyoeos.in2p3.fr//eos/lyoeos.in2p3.fr/grid/cms/store/data/Run2018B/SingleMuon/NANOAOD/UL2018_MiniAODv2_NanoAODv9_GT36-v1/2430000/C2D63920-C718-EF4F-AE44-7135CFAB8028.root
root://lyoeos.in2p3.fr//eos/lyoeos.in2p3.fr/grid/cms/store/data/Run2018B/SingleMuon/NANOAOD/UL2018_MiniAODv2_NanoAODv9_GT36-v1/2430000/D060300E-1717-F649-AF2A-58E991190915.root
root://lyoeos.in2p3.fr//eos/lyoeos.in2p3.fr/grid/cms/store/data/Run2018B/SingleMuon/NANOAOD/UL2018_MiniAODv2_NanoAODv9_GT36-v1/2430000/D1CE8870-9D1D-434A-8B77-AA7EC5746E3E.root
root://lyoeos.in2p3.fr//eos/lyoeos.in2p3.fr/grid/cms/store/data/Run2018B/SingleMuon/NANOAOD/UL2018_MiniAODv2_NanoAODv9_GT36-v1/2430000/D277BB1D-71C9-DE45-AD0B-23E11AE2A0B1.root
root://lyoeos.in2p3.fr//eos/lyoeos.in2p3.fr/grid/cms/store/data/Run2018B/SingleMuon/NANOAOD/UL2018_MiniAODv2_NanoAODv9_GT36-v1/2430000/D42A1752-E4AC-CE46-A93A-0F1E8602C891.root
root://lyoeos.in2p3.fr//eos/lyoeos.in2p3.fr/grid/cms/store/data/Run2018B/SingleMuon/NANOAOD/UL2018_MiniAODv2_NanoAODv9_GT36-v1/2430000/D71FB85E-7226-1143-8300-F6B220C1CED4.root
root://lyoeos.in2p3.fr//eos/lyoeos.in2p3.fr/grid/cms/store/data/Run2018B/SingleMuon/NANOAOD/UL2018_MiniAODv2_NanoAODv9_GT36-v1/2430000/E0189273-57A3-F446-9B43-41879B24098E.root
root://lyoeos.in2p3.fr//eos/lyoeos.in2p3.fr/grid/cms/store/data/Run2018B/SingleMuon/NANOAOD/UL2018_MiniAODv2_NanoAODv9_GT36-v1/2430000/E29C82BE-4F24-4D49-9E52-D7BFBF632D1C.root
root://lyoeos.in2p3.fr//eos/lyoeos.in2p3.fr/grid/cms/store/data/Run2018B/SingleMuon/NANOAOD/UL2018_MiniAODv2_NanoAODv9_GT36-v1/2430000/E5C24AF2-2321-4E46-AE68-E60A2AE52661.root
root://lyoeos.in2p3.fr//eos/lyoeos.in2p3.fr/grid/cms/store/data/Run2018B/SingleMuon/NANOAOD/UL2018_MiniAODv2_NanoAODv9_GT36-v1/2430000/EA73EBB5-A273-3D49-A078-45311AA12753.root
root://lyoeos.in2p3.fr//eos/lyoeos.in2p3.fr/grid/cms/store/data/Run2018B/SingleMuon/NANOAOD/UL2018_MiniAODv2_NanoAODv9_GT36-v1/2430000/F54B404E-E3AD-EE4E-AB7C-69C1CAD2AC0A.root
root://lyoeos.in2p3.fr//eos/lyoeos.in2p3.fr/grid/cms/store/data/Run2018B/SingleMuon/NANOAOD/UL2018_MiniAODv2_NanoAODv9_GT36-v1/2430000/F75EF750-7059-2E4C-951D-B8341A48F55D.root
root://lyoeos.in2p3.fr//eos/lyoeos.in2p3.fr/grid/cms/store/data/Run2018B/SingleMuon/NANOAOD/UL2018_MiniAODv2_NanoAODv9_GT36-v1/2430000/F8FAD1F6-1D68-9344-9A57-4F77B0E4EA9E.root
root://lyoeos.in2p3.fr//eos/lyoeos.in2p3.fr/grid/cms/store/data/Run2018B/SingleMuon/NANOAOD/UL2018_MiniAODv2_NanoAODv9_GT36-v1/2430000/FCC90ED8-6A9D-7348-9052-7C6E207CDFEA.root
root://lyoeos.in2p3.fr//eos/lyoeos.in2p3.fr/grid/cms/store/data/Run2018B/SingleMuon/NANOAOD/UL2018_MiniAODv2_NanoAODv9_GT36-v1/2430000/FF1ED2B3-B150-714C-A087-0F07C49617C3.root