root://lyoeos.in2p3.fr//eos/lyoeos.in2p3.fr/grid/cms/store/data/Run2016B/DoubleMuon/NANOAOD/ver2_HIPM_UL2016_MiniAODv2_NanoAODv9-v2/2520000/09FEA6A4-6936-E047-B125-3ABF886E2950.root
root://lyoeos.in2p3.fr//eos/lyoeos.in2p3.fr/grid/cms/store/data/Run2016B/DoubleMuon/NANOAOD/ver2_HIPM_UL2016_MiniAODv2_NanoAODv9-v2/2520000/0ED59926-E04D-9B42-8B59-23AC978CAC19.root
root://lyoeos.in2p3.fr//eos/lyoeos.in2p3.fr/grid/cms/store/data/Run2016B/DoubleMuon/NANOAOD/ver2_HIPM_UL2016_MiniAODv2_NanoAODv9-v2/2520000/140110FA-D914-D24C-851D-A959D131435B.root
root://lyoeos.in2p3.fr//eos/lyoeos.in2p3.fr/grid/cms/store/data/Run2016B/DoubleMuon/NANOAOD/ver2_HIPM_UL2016_MiniAODv2_NanoAODv9-v2/2520000/33677CD4-84B4-E140-8A02-872DC56BD8E1.root
root://lyoeos.in2p3.fr//eos/lyoeos.in2p3.fr/grid/cms/store/data/Run2016B/DoubleMuon/NANOAOD/ver2_HIPM_UL2016_MiniAODv2_NanoAODv9-v2/2520000/33828CFE-4AB3-FC43-8B6E-A27707F8FC34.root
root://lyoeos.in2p3.fr//eos/lyoeos.in2p3.fr/grid/cms/store/data/Run2016B/DoubleMuon/NANOAOD/ver2_HIPM_UL2016_MiniAODv2_NanoAODv9-v2/2520000/508F9609-CEFD-5F41-9992-9362EBB6F5EC.root
root://lyoeos.in2p3.fr//eos/lyoeos.in2p3.fr/grid/cms/store/data/Run2016B/DoubleMuon/NANOAOD/ver2_HIPM_UL2016_MiniAODv2_NanoAODv9-v2/2520000/5244FF6C-3976-3041-9570-A582B2EBC168.root
root://lyoeos.in2p3.fr//eos/lyoeos.in2p3.fr/grid/cms/store/data/Run2016B/DoubleMuon/NANOAOD/ver2_HIPM_UL2016_MiniAODv2_NanoAODv9-v2/2520000/5BBF345B-0A71-D743-B48E-2A7BFE5BBFBC.root
root://lyoeos.in2p3.fr//eos/lyoeos.in2p3.fr/grid/cms/store/data/Run2016B/DoubleMuon/NANOAOD/ver2_HIPM_UL2016_MiniAODv2_NanoAODv9-v2/2520000/67401ECD-8012-0E41-B712-D2DCB9999E81.root
root://lyoeos.in2p3.fr//eos/lyoeos.in2p3.fr/grid/cms/store/data/Run2016B/DoubleMuon/NANOAOD/ver2_HIPM_UL2016_MiniAODv2_NanoAODv9-v2/2520000/70EDB875-E62B-8540-8236-84BDBB2A05F0.root
root://lyoeos.in2p3.fr//eos/lyoeos.in2p3.fr/grid/cms/store/data/Run2016B/DoubleMuon/NANOAOD/ver2_HIPM_UL2016_MiniAODv2_NanoAODv9-v2/2520000/728B9E8B-EDE6-844A-A15C-D2B53850F1AD.root
root://lyoeos.in2p3.fr//eos/lyoeos.in2p3.fr/grid/cms/store/data/Run2016B/DoubleMuon/NANOAOD/ver2_HIPM_UL2016_MiniAODv2_NanoAODv9-v2/2520000/73D1D48D-4321-214B-A77A-F901C3204B96.root
root://lyoeos.in2p3.fr//eos/lyoeos.in2p3.fr/grid/cms/store/data/Run2016B/DoubleMuon/NANOAOD/ver2_HIPM_UL2016_MiniAODv2_NanoAODv9-v2/2520000/8D779891-43A0-E24E-AE8F-AF9ACB60D182.root
root://lyoeos.in2p3.fr//eos/lyoeos.in2p3.fr/grid/cms/store/data/Run2016B/DoubleMuon/NANOAOD/ver2_HIPM_UL2016_MiniAODv2_NanoAODv9-v2/2520000/90D8019D-0B15-E242-9562-47D98041BF28.root
root://lyoeos.in2p3.fr//eos/lyoeos.in2p3.fr/grid/cms/store/data/Run2016B/DoubleMuon/NANOAOD/ver2_HIPM_UL2016_MiniAODv2_NanoAODv9-v2/2520000/9B23C837-83A1-7546-87D6-648F8A32B5EF.root
root://lyoeos.in2p3.fr//eos/lyoeos.in2p3.fr/grid/cms/store/data/Run2016B/DoubleMuon/NANOAOD/ver2_HIPM_UL2016_MiniAODv2_NanoAODv9-v2/2520000/A378181E-DD53-0442-9C41-CD54B8C71DC5.root
root://lyoeos.in2p3.fr//eos/lyoeos.in2p3.fr/grid/cms/store/data/Run2016B/DoubleMuon/NANOAOD/ver2_HIPM_UL2016_MiniAODv2_NanoAODv9-v2/2520000/A9388DE6-AFFC-4C4C-821B-C9D397F04DCD.root
root://lyoeos.in2p3.fr//eos/lyoeos.in2p3.fr/grid/cms/store/data/Run2016B/DoubleMuon/NANOAOD/ver2_HIPM_UL2016_MiniAODv2_NanoAODv9-v2/2520000/AEA317CB-C949-D84A-A0DC-028C2ECFBB0F.root
root://lyoeos.in2p3.fr//eos/lyoeos.in2p3.fr/grid/cms/store/data/Run2016B/DoubleMuon/NANOAOD/ver2_HIPM_UL2016_MiniAODv2_NanoAODv9-v2/2520000/B255632A-FF88-EF46-9B05-DBB93424ECC0.root
root://lyoeos.in2p3.fr//eos/lyoeos.in2p3.fr/grid/cms/store/data/Run2016B/DoubleMuon/NANOAOD/ver2_HIPM_UL2016_MiniAODv2_NanoAODv9-v2/2520000/B5090545-DEE5-D440-8731-E5F9CC8B3FEC.root
root://lyoeos.in2p3.fr//eos/lyoeos.in2p3.fr/grid/cms/store/data/Run2016B/DoubleMuon/NANOAOD/ver2_HIPM_UL2016_MiniAODv2_NanoAODv9-v2/2520000/C370569D-940B-9744-BFFD-4015AB3B9332.root
root://lyoeos.in2p3.fr//eos/lyoeos.in2p3.fr/grid/cms/store/data/Run2016B/DoubleMuon/NANOAOD/ver2_HIPM_UL2016_MiniAODv2_NanoAODv9-v2/2520000/C80D3AC7-5DEC-3547-AEE3-3654738010A6.root
root://lyoeos.in2p3.fr//eos/lyoeos.in2p3.fr/grid/cms/store/data/Run2016B/DoubleMuon/NANOAOD/ver2_HIPM_UL2016_MiniAODv2_NanoAODv9-v2/2520000/F92C970B-5DEC-9245-A549-8FBF3E29F030.root
root://lyoeos.in2p3.fr//eos/lyoeos.in2p3.fr/grid/cms/store/data/Run2016B/DoubleMuon/NANOAOD/ver2_HIPM_UL2016_MiniAODv2_NanoAODv9-v2/2520000/F95CB20E-A359-D744-9DA9-09EA588DCF94.root
root://lyoeos.in2p3.fr//eos/lyoeos.in2p3.fr/grid/cms/store/data/Run2016B/DoubleMuon/NANOAOD/ver2_HIPM_UL2016_MiniAODv2_NanoAODv9-v2/2530000/24D2ED8C-D2A1-C244-B29F-FCB7ABA7EFBD.root
root://lyoeos.in2p3.fr//eos/lyoeos.in2p3.fr/grid/cms/store/data/Run2016B/DoubleMuon/NANOAOD/ver2_HIPM_UL2016_MiniAODv2_NanoAODv9-v2/2530000/2B9F6C44-1CBA-E243-AEF8-76DFE043C634.root
root://lyoeos.in2p3.fr//eos/lyoeos.in2p3.fr/grid/cms/store/data/Run2016B/DoubleMuon/NANOAOD/ver2_HIPM_UL2016_MiniAODv2_NanoAODv9-v2/2530000/4D8FF418-5EBA-E047-A187-903414009EE6.root
root://lyoeos.in2p3.fr//eos/lyoeos.in2p3.fr/grid/cms/store/data/Run2016B/DoubleMuon/NANOAOD/ver2_HIPM_UL2016_MiniAODv2_NanoAODv9-v2/2530000/7820C0F5-8255-424F-9420-6324D77864EE.root
root://lyoeos.in2p3.fr//eos/lyoeos.in2p3.fr/grid/cms/store/data/Run2016B/DoubleMuon/NANOAOD/ver2_HIPM_UL2016_MiniAODv2_NanoAODv9-v2/2530000/94297C95-5327-014D-8B6D-88B3211A3E89.root
root://lyoeos.in2p3.fr//eos/lyoeos.in2p3.fr/grid/cms/store/data/Run2016B/DoubleMuon/NANOAOD/ver2_HIPM_UL2016_MiniAODv2_NanoAODv9-v2/2530000/9A2538BB-E1C3-1845-9BB4-78B64BFA70D2.root
root://lyoeos.in2p3.fr//eos/lyoeos.in2p3.fr/grid/cms/store/data/Run2016B/DoubleMuon/NANOAOD/ver2_HIPM_UL2016_MiniAODv2_NanoAODv9-v2/2530000/C3D914B9-73EA-8844-9EB0-38CA16A76A85.root
root://lyoeos.in2p3.fr//eos/lyoeos.in2p3.fr/grid/cms/store/data/Run2016B/DoubleMuon/NANOAOD/ver2_HIPM_UL2016_MiniAODv2_NanoAODv9-v2/40000/21DEB31D-FC28-7E46-98AD-4D01D8C1B9B8.root
root://lyoeos.in2p3.fr//eos/lyoeos.in2p3.fr/grid/cms/store/data/Run2016B/DoubleMuon/NANOAOD/ver2_HIPM_UL2016_MiniAODv2_NanoAODv9-v2/40000/292E059E-EBD9-F14D-A926-79B2A5E22111.root
root://lyoeos.in2p3.fr//eos/lyoeos.in2p3.fr/grid/cms/store/data/Run2016B/DoubleMuon/NANOAOD/ver2_HIPM_UL2016_MiniAODv2_NanoAODv9-v2/40000/2F4878E7-54DF-3E4D-8550-37AB6E93ADDE.root
root://lyoeos.in2p3.fr//eos/lyoeos.in2p3.fr/grid/cms/store/data/Run2016B/DoubleMuon/NANOAOD/ver2_HIPM_UL2016_MiniAODv2_NanoAODv9-v2/40000/3B0FD468-A234-CB47-A805-4D80ACF46A63.root
root://lyoeos.in2p3.fr//eos/lyoeos.in2p3.fr/grid/cms/store/data/Run2016B/DoubleMuon/NANOAOD/ver2_HIPM_UL2016_MiniAODv2_NanoAODv9-v2/40000/75473295-6562-F44D-86AF-4CE5A3382D72.root
root://lyoeos.in2p3.fr//eos/lyoeos.in2p3.fr/grid/cms/store/data/Run2016B/DoubleMuon/NANOAOD/ver2_HIPM_UL2016_MiniAODv2_NanoAODv9-v2/40000/82B4CE1A-94E8-4741-B48A-39C0D7721015.root
root://lyoeos.in2p3.fr//eos/lyoeos.in2p3.fr/grid/cms/store/data/Run2016B/DoubleMuon/NANOAOD/ver2_HIPM_UL2016_MiniAODv2_NanoAODv9-v2/40000/DD427455-685E-C341-84C5-407027025958.root
root://lyoeos.in2p3.fr//eos/lyoeos.in2p3.fr/grid/cms/store/data/Run2016B/DoubleMuon/NANOAOD/ver2_HIPM_UL2016_MiniAODv2_NanoAODv9-v2/40000/EE08091D-954A-8740-ABF5-5BD72D1D602B.root