root://lyoeos.in2p3.fr//eos/lyoeos.in2p3.fr/grid/cms/store/data/Run2016E/MuonEG/NANOAOD/HIPM_UL2016_MiniAODv2_NanoAODv9-v2/2430000/0C215C18-5FB5-5B47-A4F8-BD0180B20173.root
root://lyoeos.in2p3.fr//eos/lyoeos.in2p3.fr/grid/cms/store/data/Run2016E/MuonEG/NANOAOD/HIPM_UL2016_MiniAODv2_NanoAODv9-v2/2430000/14E8EC46-A0A3-834E-BAC0-B9B306F89CD3.root
root://lyoeos.in2p3.fr//eos/lyoeos.in2p3.fr/grid/cms/store/data/Run2016E/MuonEG/NANOAOD/HIPM_UL2016_MiniAODv2_NanoAODv9-v2/2430000/1F73B760-94BB-754F-9DCD-EF604BF827F4.root
root://lyoeos.in2p3.fr//eos/lyoeos.in2p3.fr/grid/cms/store/data/Run2016E/MuonEG/NANOAOD/HIPM_UL2016_MiniAODv2_NanoAODv9-v2/2430000/20636604-98C8-794F-872B-5A91626961D4.root
root://lyoeos.in2p3.fr//eos/lyoeos.in2p3.fr/grid/cms/store/data/Run2016E/MuonEG/NANOAOD/HIPM_UL2016_MiniAODv2_NanoAODv9-v2/2430000/237369EF-E83C-9546-B807-68EE82686976.root
root://lyoeos.in2p3.fr//eos/lyoeos.in2p3.fr/grid/cms/store/data/Run2016E/MuonEG/NANOAOD/HIPM_UL2016_MiniAODv2_NanoAODv9-v2/2430000/23BBED17-D1C8-A045-85D5-DC0C3E199156.root
root://lyoeos.in2p3.fr//eos/lyoeos.in2p3.fr/grid/cms/store/data/Run2016E/MuonEG/NANOAOD/HIPM_UL2016_MiniAODv2_NanoAODv9-v2/2430000/3C51057E-B783-3F44-A674-04E652C607CE.root
root://lyoeos.in2p3.fr//eos/lyoeos.in2p3.fr/grid/cms/store/data/Run2016E/MuonEG/NANOAOD/HIPM_UL2016_MiniAODv2_NanoAODv9-v2/2430000/3F481F52-098D-C847-95B4-48071F5A4D27.root
root://lyoeos.in2p3.fr//eos/lyoeos.in2p3.fr/grid/cms/store/data/Run2016E/MuonEG/NANOAOD/HIPM_UL2016_MiniAODv2_NanoAODv9-v2/2430000/52E2C5C1-384B-A645-B2CB-97C202579623.root
root://lyoeos.in2p3.fr//eos/lyoeos.in2p3.fr/grid/cms/store/data/Run2016E/MuonEG/NANOAOD/HIPM_UL2016_MiniAODv2_NanoAODv9-v2/2430000/630FC2F8-1CA0-864E-8331-F4CFA4DB9CCF.root
root://lyoeos.in2p3.fr//eos/lyoeos.in2p3.fr/grid/cms/store/data/Run2016E/MuonEG/NANOAOD/HIPM_UL2016_MiniAODv2_NanoAODv9-v2/2430000/8AE96F5D-011D-584F-88AB-5F914AF90E51.root
root://lyoeos.in2p3.fr//eos/lyoeos.in2p3.fr/grid/cms/store/data/Run2016E/MuonEG/NANOAOD/HIPM_UL2016_MiniAODv2_NanoAODv9-v2/2430000/8DC4D5E1-45B3-A54A-A961-53D2F5EE1895.root
root://lyoeos.in2p3.fr//eos/lyoeos.in2p3.fr/grid/cms/store/data/Run2016E/MuonEG/NANOAOD/HIPM_UL2016_MiniAODv2_NanoAODv9-v2/2430000/A769E26E-DA49-EB4B-9CC4-A1B0E480E736.root
root://lyoeos.in2p3.fr//eos/lyoeos.in2p3.fr/grid/cms/store/data/Run2016E/MuonEG/NANOAOD/HIPM_UL2016_MiniAODv2_NanoAODv9-v2/2430000/AB702FB8-D762-3A45-B3A8-518F5E584133.root
root://lyoeos.in2p3.fr//eos/lyoeos.in2p3.fr/grid/cms/store/data/Run2016E/MuonEG/NANOAOD/HIPM_UL2016_MiniAODv2_NanoAODv9-v2/2430000/DFC3FD27-6604-2949-A235-1BA13DDB738E.root
root://lyoeos.in2p3.fr//eos/lyoeos.in2p3.fr/grid/cms/store/data/Run2016E/MuonEG/NANOAOD/HIPM_UL2016_MiniAODv2_NanoAODv9-v2/2520000/5DD8C7CC-0C4A-F146-8422-74177344AD83.root