root://lyoeos.in2p3.fr//eos/lyoeos.in2p3.fr/grid/cms/store/data/Run2016B/DoubleEG/NANOAOD/ver1_HIPM_UL2016_MiniAODv2_NanoAODv9-v2/2530000/04907C5D-C034-F24F-9D9C-EF91B8BDDB0E.root
root://lyoeos.in2p3.fr//eos/lyoeos.in2p3.fr/grid/cms/store/data/Run2016B/DoubleEG/NANOAOD/ver1_HIPM_UL2016_MiniAODv2_NanoAODv9-v2/2530000/1CC6C632-118F-F143-AC73-11F44059F893.root
root://lyoeos.in2p3.fr//eos/lyoeos.in2p3.fr/grid/cms/store/data/Run2016B/DoubleEG/NANOAOD/ver1_HIPM_UL2016_MiniAODv2_NanoAODv9-v2/2530000/85D94340-EFD9-854F-A504-322659ADECB2.root
root://lyoeos.in2p3.fr//eos/lyoeos.in2p3.fr/grid/cms/store/data/Run2016B/DoubleEG/NANOAOD/ver1_HIPM_UL2016_MiniAODv2_NanoAODv9-v2/2530000/913BED0A-3B67-7942-838A-A94D8507767D.root
root://lyoeos.in2p3.fr//eos/lyoeos.in2p3.fr/grid/cms/store/data/Run2016B/DoubleEG/NANOAOD/ver1_HIPM_UL2016_MiniAODv2_NanoAODv9-v2/2530000/9C3FDCCF-5F53-174D-9A18-ECAB8DE69F3C.root
root://lyoeos.in2p3.fr//eos/lyoeos.in2p3.fr/grid/cms/store/data/Run2016B/DoubleEG/NANOAOD/ver1_HIPM_UL2016_MiniAODv2_NanoAODv9-v2/2530000/BD01422E-8128-834F-93FE-07E8F922A3D9.root
root://lyoeos.in2p3.fr//eos/lyoeos.in2p3.fr/grid/cms/store/data/Run2016B/DoubleEG/NANOAOD/ver1_HIPM_UL2016_MiniAODv2_NanoAODv9-v2/2530000/ECCD67BD-4FD8-AC49-96D7-ADA3546056D4.root