root://lyoeos.in2p3.fr//eos/lyoeos.in2p3.fr/grid/cms/store/data/Run2016C/DoubleEG/NANOAOD/HIPM_UL2016_MiniAODv2_NanoAODv9-v2/2520000/089229A2-5847-514B-9B1F-B78D87AF0064.root
root://lyoeos.in2p3.fr//eos/lyoeos.in2p3.fr/grid/cms/store/data/Run2016C/DoubleEG/NANOAOD/HIPM_UL2016_MiniAODv2_NanoAODv9-v2/2520000/090EE7E1-B881-3146-B421-4EEBF2B458AC.root
root://lyoeos.in2p3.fr//eos/lyoeos.in2p3.fr/grid/cms/store/data/Run2016C/DoubleEG/NANOAOD/HIPM_UL2016_MiniAODv2_NanoAODv9-v2/2520000/4848AA84-B4A9-524F-B410-098630447D71.root
root://lyoeos.in2p3.fr//eos/lyoeos.in2p3.fr/grid/cms/store/data/Run2016C/DoubleEG/NANOAOD/HIPM_UL2016_MiniAODv2_NanoAODv9-v2/2520000/56CF29D7-A2A5-894A-A1C8-6A6B3BAB541A.root
root://lyoeos.in2p3.fr//eos/lyoeos.in2p3.fr/grid/cms/store/data/Run2016C/DoubleEG/NANOAOD/HIPM_UL2016_MiniAODv2_NanoAODv9-v2/2520000/76B1BE71-74F2-C54A-B44B-CC9B1F3FC4D3.root
root://lyoeos.in2p3.fr//eos/lyoeos.in2p3.fr/grid/cms/store/data/Run2016C/DoubleEG/NANOAOD/HIPM_UL2016_MiniAODv2_NanoAODv9-v2/2520000/80FC5762-54BB-B643-8759-62A525A6544C.root
root://lyoeos.in2p3.fr//eos/lyoeos.in2p3.fr/grid/cms/store/data/Run2016C/DoubleEG/NANOAOD/HIPM_UL2016_MiniAODv2_NanoAODv9-v2/2520000/86480C52-03FE-924A-9DB0-9E87ED6B31E2.root
root://lyoeos.in2p3.fr//eos/lyoeos.in2p3.fr/grid/cms/store/data/Run2016C/DoubleEG/NANOAOD/HIPM_UL2016_MiniAODv2_NanoAODv9-v2/2520000/A956A1FF-76A4-F044-8CE3-3F01882DE20D.root
root://lyoeos.in2p3.fr//eos/lyoeos.in2p3.fr/grid/cms/store/data/Run2016C/DoubleEG/NANOAOD/HIPM_UL2016_MiniAODv2_NanoAODv9-v2/2520000/EE81224D-55D0-A94A-8FB8-DA3D6911C27E.root
root://lyoeos.in2p3.fr//eos/lyoeos.in2p3.fr/grid/cms/store/data/Run2016C/DoubleEG/NANOAOD/HIPM_UL2016_MiniAODv2_NanoAODv9-v2/50000/0228E916-B88B-4A46-94A7-FE17C9A173D8.root
root://lyoeos.in2p3.fr//eos/lyoeos.in2p3.fr/grid/cms/store/data/Run2016C/DoubleEG/NANOAOD/HIPM_UL2016_MiniAODv2_NanoAODv9-v2/50000/3BE1C065-E760-294E-AF22-5874AF0A6422.root
root://lyoeos.in2p3.fr//eos/lyoeos.in2p3.fr/grid/cms/store/data/Run2016C/DoubleEG/NANOAOD/HIPM_UL2016_MiniAODv2_NanoAODv9-v2/50000/480CEF97-D785-4A44-AD15-4D73BD14A75B.root
root://lyoeos.in2p3.fr//eos/lyoeos.in2p3.fr/grid/cms/store/data/Run2016C/DoubleEG/NANOAOD/HIPM_UL2016_MiniAODv2_NanoAODv9-v2/50000/4E680F50-8556-EA4C-B70F-28480FB2DCE3.root
root://lyoeos.in2p3.fr//eos/lyoeos.in2p3.fr/grid/cms/store/data/Run2016C/DoubleEG/NANOAOD/HIPM_UL2016_MiniAODv2_NanoAODv9-v2/50000/4EBAE9C5-2A51-EE49-AB58-4AB985230828.root
root://lyoeos.in2p3.fr//eos/lyoeos.in2p3.fr/grid/cms/store/data/Run2016C/DoubleEG/NANOAOD/HIPM_UL2016_MiniAODv2_NanoAODv9-v2/50000/50AC5C65-C125-E845-B359-C1D59CF5B9A4.root
root://lyoeos.in2p3.fr//eos/lyoeos.in2p3.fr/grid/cms/store/data/Run2016C/DoubleEG/NANOAOD/HIPM_UL2016_MiniAODv2_NanoAODv9-v2/50000/57B21C10-CE05-3748-A8FD-F449FFB7C569.root
root://lyoeos.in2p3.fr//eos/lyoeos.in2p3.fr/grid/cms/store/data/Run2016C/DoubleEG/NANOAOD/HIPM_UL2016_MiniAODv2_NanoAODv9-v2/50000/59B27CBA-0503-EA48-88DE-2139BB2D711E.root
root://lyoeos.in2p3.fr//eos/lyoeos.in2p3.fr/grid/cms/store/data/Run2016C/DoubleEG/NANOAOD/HIPM_UL2016_MiniAODv2_NanoAODv9-v2/50000/6DA944E7-2BA2-594F-B2CB-5766F9DDE0B0.root
root://lyoeos.in2p3.fr//eos/lyoeos.in2p3.fr/grid/cms/store/data/Run2016C/DoubleEG/NANOAOD/HIPM_UL2016_MiniAODv2_NanoAODv9-v2/50000/71B499C5-EB22-3745-A8C8-59B568B02D26.root
root://lyoeos.in2p3.fr//eos/lyoeos.in2p3.fr/grid/cms/store/data/Run2016C/DoubleEG/NANOAOD/HIPM_UL2016_MiniAODv2_NanoAODv9-v2/50000/7278EBED-A1FE-1243-ACCB-770393C211C5.root
root://lyoeos.in2p3.fr//eos/lyoeos.in2p3.fr/grid/cms/store/data/Run2016C/DoubleEG/NANOAOD/HIPM_UL2016_MiniAODv2_NanoAODv9-v2/50000/740CB80A-B67E-8A48-8A41-C9835B1B84DA.root
root://lyoeos.in2p3.fr//eos/lyoeos.in2p3.fr/grid/cms/store/data/Run2016C/DoubleEG/NANOAOD/HIPM_UL2016_MiniAODv2_NanoAODv9-v2/50000/776CB6D9-86F3-4D40-9639-66BC025EAE4E.root
root://lyoeos.in2p3.fr//eos/lyoeos.in2p3.fr/grid/cms/store/data/Run2016C/DoubleEG/NANOAOD/HIPM_UL2016_MiniAODv2_NanoAODv9-v2/50000/7F782958-941F-9643-9B68-935BC2DEE266.root
root://lyoeos.in2p3.fr//eos/lyoeos.in2p3.fr/grid/cms/store/data/Run2016C/DoubleEG/NANOAOD/HIPM_UL2016_MiniAODv2_NanoAODv9-v2/50000/8693C446-EF08-8248-B763-A7FB2C901E15.root
root://lyoeos.in2p3.fr//eos/lyoeos.in2p3.fr/grid/cms/store/data/Run2016C/DoubleEG/NANOAOD/HIPM_UL2016_MiniAODv2_NanoAODv9-v2/50000/8A556D53-A563-0D4D-83D9-04E2885F0E94.root
root://lyoeos.in2p3.fr//eos/lyoeos.in2p3.fr/grid/cms/store/data/Run2016C/DoubleEG/NANOAOD/HIPM_UL2016_MiniAODv2_NanoAODv9-v2/50000/8C974CA5-E9D9-0D41-9EB3-01B6F2BD2454.root
root://lyoeos.in2p3.fr//eos/lyoeos.in2p3.fr/grid/cms/store/data/Run2016C/DoubleEG/NANOAOD/HIPM_UL2016_MiniAODv2_NanoAODv9-v2/50000/9220500A-A49F-5B4D-B6B6-F2745FCB684E.root
root://lyoeos.in2p3.fr//eos/lyoeos.in2p3.fr/grid/cms/store/data/Run2016C/DoubleEG/NANOAOD/HIPM_UL2016_MiniAODv2_NanoAODv9-v2/50000/A1D885F9-AA91-F84D-837F-8389A1D181E4.root
root://lyoeos.in2p3.fr//eos/lyoeos.in2p3.fr/grid/cms/store/data/Run2016C/DoubleEG/NANOAOD/HIPM_UL2016_MiniAODv2_NanoAODv9-v2/50000/AAA7DB9B-0722-7E49-A865-9CC4D45C1723.root
root://lyoeos.in2p3.fr//eos/lyoeos.in2p3.fr/grid/cms/store/data/Run2016C/DoubleEG/NANOAOD/HIPM_UL2016_MiniAODv2_NanoAODv9-v2/50000/C981852D-9076-D44E-BCC9-8197CADF2DA0.root
root://lyoeos.in2p3.fr//eos/lyoeos.in2p3.fr/grid/cms/store/data/Run2016C/DoubleEG/NANOAOD/HIPM_UL2016_MiniAODv2_NanoAODv9-v2/50000/E9A106E4-AB8F-CA4D-BD09-F5750AC74504.root
root://lyoeos.in2p3.fr//eos/lyoeos.in2p3.fr/grid/cms/store/data/Run2016C/DoubleEG/NANOAOD/HIPM_UL2016_MiniAODv2_NanoAODv9-v2/50000/EDAD9035-EFD6-DC47-B395-BB78A2488D52.root
root://lyoeos.in2p3.fr//eos/lyoeos.in2p3.fr/grid/cms/store/data/Run2016C/DoubleEG/NANOAOD/HIPM_UL2016_MiniAODv2_NanoAODv9-v2/50000/F18A5BA2-3D69-B941-A110-13160A9B6A3B.root