root://lyoeos.in2p3.fr//eos/lyoeos.in2p3.fr/grid/cms/store/data/Run2016E/SingleMuon/NANOAOD/HIPM_UL2016_MiniAODv2_NanoAODv9-v2/24310000/84EF0031-60C5-4D40-B7C6-6430AF85BF2F.root
root://lyoeos.in2p3.fr//eos/lyoeos.in2p3.fr/grid/cms/store/data/Run2016E/SingleMuon/NANOAOD/HIPM_UL2016_MiniAODv2_NanoAODv9-v2/2520000/18350498-5B86-E24E-8818-9A0889EB7930.root
root://lyoeos.in2p3.fr//eos/lyoeos.in2p3.fr/grid/cms/store/data/Run2016E/SingleMuon/NANOAOD/HIPM_UL2016_MiniAODv2_NanoAODv9-v2/2520000/320BD4DD-FB07-954B-8324-2AE62874B497.root
root://lyoeos.in2p3.fr//eos/lyoeos.in2p3.fr/grid/cms/store/data/Run2016E/SingleMuon/NANOAOD/HIPM_UL2016_MiniAODv2_NanoAODv9-v2/2520000/34A54A6F-0785-C945-BA6C-E3FDE4BD0A3C.root
root://lyoeos.in2p3.fr//eos/lyoeos.in2p3.fr/grid/cms/store/data/Run2016E/SingleMuon/NANOAOD/HIPM_UL2016_MiniAODv2_NanoAODv9-v2/2520000/455D69F4-32F0-F248-8B53-BBCA00A9E2D9.root
root://lyoeos.in2p3.fr//eos/lyoeos.in2p3.fr/grid/cms/store/data/Run2016E/SingleMuon/NANOAOD/HIPM_UL2016_MiniAODv2_NanoAODv9-v2/2520000/50E83812-3387-4244-8C1A-9FEE3E20AC4B.root
root://lyoeos.in2p3.fr//eos/lyoeos.in2p3.fr/grid/cms/store/data/Run2016E/SingleMuon/NANOAOD/HIPM_UL2016_MiniAODv2_NanoAODv9-v2/2520000/50F96CA8-5246-8848-AF61-C16974379893.root
root://lyoeos.in2p3.fr//eos/lyoeos.in2p3.fr/grid/cms/store/data/Run2016E/SingleMuon/NANOAOD/HIPM_UL2016_MiniAODv2_NanoAODv9-v2/2520000/5317DAA2-54FA-B34A-B801-E9B9A2B660F9.root
root://lyoeos.in2p3.fr//eos/lyoeos.in2p3.fr/grid/cms/store/data/Run2016E/SingleMuon/NANOAOD/HIPM_UL2016_MiniAODv2_NanoAODv9-v2/2520000/5B5218F8-7E7D-BF48-B18D-60803FB5DE21.root
root://lyoeos.in2p3.fr//eos/lyoeos.in2p3.fr/grid/cms/store/data/Run2016E/SingleMuon/NANOAOD/HIPM_UL2016_MiniAODv2_NanoAODv9-v2/2520000/5DA4640C-8869-4440-82DA-AADDEE16142F.root
root://lyoeos.in2p3.fr//eos/lyoeos.in2p3.fr/grid/cms/store/data/Run2016E/SingleMuon/NANOAOD/HIPM_UL2016_MiniAODv2_NanoAODv9-v2/2520000/670157A2-4CDB-E940-93FA-739F0C931240.root
root://lyoeos.in2p3.fr//eos/lyoeos.in2p3.fr/grid/cms/store/data/Run2016E/SingleMuon/NANOAOD/HIPM_UL2016_MiniAODv2_NanoAODv9-v2/2520000/69C7101C-512F-C846-9926-31CB23360175.root
root://lyoeos.in2p3.fr//eos/lyoeos.in2p3.fr/grid/cms/store/data/Run2016E/SingleMuon/NANOAOD/HIPM_UL2016_MiniAODv2_NanoAODv9-v2/2520000/7BD2EA46-8C5C-F043-8288-EEEDA99CFA15.root
root://lyoeos.in2p3.fr//eos/lyoeos.in2p3.fr/grid/cms/store/data/Run2016E/SingleMuon/NANOAOD/HIPM_UL2016_MiniAODv2_NanoAODv9-v2/2520000/7CAA8159-17EB-0443-AA13-59449D7CC0F1.root
root://lyoeos.in2p3.fr//eos/lyoeos.in2p3.fr/grid/cms/store/data/Run2016E/SingleMuon/NANOAOD/HIPM_UL2016_MiniAODv2_NanoAODv9-v2/2520000/8A026C0F-66B1-A94E-97B7-46B868BBB40B.root
root://lyoeos.in2p3.fr//eos/lyoeos.in2p3.fr/grid/cms/store/data/Run2016E/SingleMuon/NANOAOD/HIPM_UL2016_MiniAODv2_NanoAODv9-v2/2520000/9BCCB9B1-B389-E147-8ED8-F49E480617F3.root
root://lyoeos.in2p3.fr//eos/lyoeos.in2p3.fr/grid/cms/store/data/Run2016E/SingleMuon/NANOAOD/HIPM_UL2016_MiniAODv2_NanoAODv9-v2/2520000/A15F073D-B3DA-294F-8138-7B816FA7970E.root
root://lyoeos.in2p3.fr//eos/lyoeos.in2p3.fr/grid/cms/store/data/Run2016E/SingleMuon/NANOAOD/HIPM_UL2016_MiniAODv2_NanoAODv9-v2/2520000/A38B57B7-8336-0747-80FB-6232DEDB6E83.root
root://lyoeos.in2p3.fr//eos/lyoeos.in2p3.fr/grid/cms/store/data/Run2016E/SingleMuon/NANOAOD/HIPM_UL2016_MiniAODv2_NanoAODv9-v2/2520000/A70653A6-D25A-F543-999F-A5BC65E04DAE.root
root://lyoeos.in2p3.fr//eos/lyoeos.in2p3.fr/grid/cms/store/data/Run2016E/SingleMuon/NANOAOD/HIPM_UL2016_MiniAODv2_NanoAODv9-v2/2520000/AB982DF8-B7D4-9443-9970-2431A505C0B2.root
root://lyoeos.in2p3.fr//eos/lyoeos.in2p3.fr/grid/cms/store/data/Run2016E/SingleMuon/NANOAOD/HIPM_UL2016_MiniAODv2_NanoAODv9-v2/2520000/ADD25C08-8DBD-014B-97BB-060F42C9575F.root
root://lyoeos.in2p3.fr//eos/lyoeos.in2p3.fr/grid/cms/store/data/Run2016E/SingleMuon/NANOAOD/HIPM_UL2016_MiniAODv2_NanoAODv9-v2/2520000/AEFF366D-4EE6-B146-9D5B-2A5CE163D2D3.root
root://lyoeos.in2p3.fr//eos/lyoeos.in2p3.fr/grid/cms/store/data/Run2016E/SingleMuon/NANOAOD/HIPM_UL2016_MiniAODv2_NanoAODv9-v2/2520000/B7C7B4CB-1F7C-6045-A30F-35F584F7196B.root
root://lyoeos.in2p3.fr//eos/lyoeos.in2p3.fr/grid/cms/store/data/Run2016E/SingleMuon/NANOAOD/HIPM_UL2016_MiniAODv2_NanoAODv9-v2/2520000/BBE23CE5-D4B7-4F42-BEBD-A854462A050F.root
root://lyoeos.in2p3.fr//eos/lyoeos.in2p3.fr/grid/cms/store/data/Run2016E/SingleMuon/NANOAOD/HIPM_UL2016_MiniAODv2_NanoAODv9-v2/2520000/BE6F29CE-752A-7648-8C4A-50CF425836E0.root
root://lyoeos.in2p3.fr//eos/lyoeos.in2p3.fr/grid/cms/store/data/Run2016E/SingleMuon/NANOAOD/HIPM_UL2016_MiniAODv2_NanoAODv9-v2/2520000/C6214A7E-62A0-E947-AF42-056D7D54581C.root
root://lyoeos.in2p3.fr//eos/lyoeos.in2p3.fr/grid/cms/store/data/Run2016E/SingleMuon/NANOAOD/HIPM_UL2016_MiniAODv2_NanoAODv9-v2/2520000/CAA72E5A-E17C-A048-8F40-3E5C937D9752.root
root://lyoeos.in2p3.fr//eos/lyoeos.in2p3.fr/grid/cms/store/data/Run2016E/SingleMuon/NANOAOD/HIPM_UL2016_MiniAODv2_NanoAODv9-v2/2520000/CD7AEE84-C687-D643-A3DD-65540A4E39B1.root
root://lyoeos.in2p3.fr//eos/lyoeos.in2p3.fr/grid/cms/store/data/Run2016E/SingleMuon/NANOAOD/HIPM_UL2016_MiniAODv2_NanoAODv9-v2/2520000/D16B0DBC-7E98-184C-9F9C-EC044F3946C4.root
root://lyoeos.in2p3.fr//eos/lyoeos.in2p3.fr/grid/cms/store/data/Run2016E/SingleMuon/NANOAOD/HIPM_UL2016_MiniAODv2_NanoAODv9-v2/2520000/DE929380-0B89-A447-BDB3-BFB77A3B1712.root
root://lyoeos.in2p3.fr//eos/lyoeos.in2p3.fr/grid/cms/store/data/Run2016E/SingleMuon/NANOAOD/HIPM_UL2016_MiniAODv2_NanoAODv9-v2/2520000/EBDF998C-8725-3C40-AEFE-3E90E07BB9AE.root
root://lyoeos.in2p3.fr//eos/lyoeos.in2p3.fr/grid/cms/store/data/Run2016E/SingleMuon/NANOAOD/HIPM_UL2016_MiniAODv2_NanoAODv9-v2/2520000/F01E9F83-765D-2946-B628-280A313E474C.root
root://lyoeos.in2p3.fr//eos/lyoeos.in2p3.fr/grid/cms/store/data/Run2016E/SingleMuon/NANOAOD/HIPM_UL2016_MiniAODv2_NanoAODv9-v2/2520000/F2229636-F59E-E841-9911-13DD8632976F.root
root://lyoeos.in2p3.fr//eos/lyoeos.in2p3.fr/grid/cms/store/data/Run2016E/SingleMuon/NANOAOD/HIPM_UL2016_MiniAODv2_NanoAODv9-v2/40000/13B0B7DB-7521-FE48-8735-8BCEE6F07246.root
root://lyoeos.in2p3.fr//eos/lyoeos.in2p3.fr/grid/cms/store/data/Run2016E/SingleMuon/NANOAOD/HIPM_UL2016_MiniAODv2_NanoAODv9-v2/40000/1C745460-C581-FE42-A213-B279A03443E8.root
root://lyoeos.in2p3.fr//eos/lyoeos.in2p3.fr/grid/cms/store/data/Run2016E/SingleMuon/NANOAOD/HIPM_UL2016_MiniAODv2_NanoAODv9-v2/40000/506FBDD8-A159-5B4A-9FFA-B6598C0104FA.root
root://lyoeos.in2p3.fr//eos/lyoeos.in2p3.fr/grid/cms/store/data/Run2016E/SingleMuon/NANOAOD/HIPM_UL2016_MiniAODv2_NanoAODv9-v2/40000/51B69D8E-91E8-AC45-A76A-426507AFA41D.root
root://lyoeos.in2p3.fr//eos/lyoeos.in2p3.fr/grid/cms/store/data/Run2016E/SingleMuon/NANOAOD/HIPM_UL2016_MiniAODv2_NanoAODv9-v2/40000/566C466D-6314-2142-A249-B62146F29684.root
root://lyoeos.in2p3.fr//eos/lyoeos.in2p3.fr/grid/cms/store/data/Run2016E/SingleMuon/NANOAOD/HIPM_UL2016_MiniAODv2_NanoAODv9-v2/40000/5B872437-8991-A54D-A5C5-4324443E4735.root
root://lyoeos.in2p3.fr//eos/lyoeos.in2p3.fr/grid/cms/store/data/Run2016E/SingleMuon/NANOAOD/HIPM_UL2016_MiniAODv2_NanoAODv9-v2/40000/67743093-CFB8-C74A-A4B8-5EA735763D0B.root
root://lyoeos.in2p3.fr//eos/lyoeos.in2p3.fr/grid/cms/store/data/Run2016E/SingleMuon/NANOAOD/HIPM_UL2016_MiniAODv2_NanoAODv9-v2/40000/84E08FF6-A113-5541-A0AF-190331A2AA3F.root
root://lyoeos.in2p3.fr//eos/lyoeos.in2p3.fr/grid/cms/store/data/Run2016E/SingleMuon/NANOAOD/HIPM_UL2016_MiniAODv2_NanoAODv9-v2/40000/A4BB5C1D-16E2-8540-B3C8-8E3E832C1976.root
root://lyoeos.in2p3.fr//eos/lyoeos.in2p3.fr/grid/cms/store/data/Run2016E/SingleMuon/NANOAOD/HIPM_UL2016_MiniAODv2_NanoAODv9-v2/40000/A5907B76-B9CA-D648-BE93-4C0489B489BD.root
root://lyoeos.in2p3.fr//eos/lyoeos.in2p3.fr/grid/cms/store/data/Run2016E/SingleMuon/NANOAOD/HIPM_UL2016_MiniAODv2_NanoAODv9-v2/40000/B0B99479-8AB8-B747-A117-ECBB5A52C349.root
root://lyoeos.in2p3.fr//eos/lyoeos.in2p3.fr/grid/cms/store/data/Run2016E/SingleMuon/NANOAOD/HIPM_UL2016_MiniAODv2_NanoAODv9-v2/40000/BA651E0D-8438-E047-8294-26FF8E972D3B.root
root://lyoeos.in2p3.fr//eos/lyoeos.in2p3.fr/grid/cms/store/data/Run2016E/SingleMuon/NANOAOD/HIPM_UL2016_MiniAODv2_NanoAODv9-v2/40000/D36DF2E0-999E-4B48-A682-D8029D7305E9.root
root://lyoeos.in2p3.fr//eos/lyoeos.in2p3.fr/grid/cms/store/data/Run2016E/SingleMuon/NANOAOD/HIPM_UL2016_MiniAODv2_NanoAODv9-v2/40000/F939C809-771C-664B-A1D5-A5E2A67465E8.root