root://lyoeos.in2p3.fr//eos/lyoeos.in2p3.fr/grid/cms/store/data/Run2016C/SingleElectron/NANOAOD/HIPM_UL2016_MiniAODv2_NanoAODv9-v2/2520000/14B7E729-7F70-194C-8432-E8BD728BD390.root
root://lyoeos.in2p3.fr//eos/lyoeos.in2p3.fr/grid/cms/store/data/Run2016C/SingleElectron/NANOAOD/HIPM_UL2016_MiniAODv2_NanoAODv9-v2/2520000/25C63D54-F9E0-124A-8B29-8D942975DD07.root
root://lyoeos.in2p3.fr//eos/lyoeos.in2p3.fr/grid/cms/store/data/Run2016C/SingleElectron/NANOAOD/HIPM_UL2016_MiniAODv2_NanoAODv9-v2/2520000/2B127460-D69B-9F49-B901-7AD9A97B3DEC.root
root://lyoeos.in2p3.fr//eos/lyoeos.in2p3.fr/grid/cms/store/data/Run2016C/SingleElectron/NANOAOD/HIPM_UL2016_MiniAODv2_NanoAODv9-v2/2520000/2E950ACD-2174-3649-9E3F-E53CA087E50F.root
root://lyoeos.in2p3.fr//eos/lyoeos.in2p3.fr/grid/cms/store/data/Run2016C/SingleElectron/NANOAOD/HIPM_UL2016_MiniAODv2_NanoAODv9-v2/2520000/2F5E7E44-8638-5C49-9D5D-8241DB64EFA9.root
root://lyoeos.in2p3.fr//eos/lyoeos.in2p3.fr/grid/cms/store/data/Run2016C/SingleElectron/NANOAOD/HIPM_UL2016_MiniAODv2_NanoAODv9-v2/2520000/3316AD85-024D-984C-92A0-B37E2F1B8199.root
root://lyoeos.in2p3.fr//eos/lyoeos.in2p3.fr/grid/cms/store/data/Run2016C/SingleElectron/NANOAOD/HIPM_UL2016_MiniAODv2_NanoAODv9-v2/2520000/3824692C-DDD6-1946-8D61-20A2C1463819.root
root://lyoeos.in2p3.fr//eos/lyoeos.in2p3.fr/grid/cms/store/data/Run2016C/SingleElectron/NANOAOD/HIPM_UL2016_MiniAODv2_NanoAODv9-v2/2520000/3ACA7CA4-5327-154C-928D-F866F3C7F7CF.root
root://lyoeos.in2p3.fr//eos/lyoeos.in2p3.fr/grid/cms/store/data/Run2016C/SingleElectron/NANOAOD/HIPM_UL2016_MiniAODv2_NanoAODv9-v2/2520000/45BCD4F7-7E67-3F42-85EE-7FF4CFF4671D.root
root://lyoeos.in2p3.fr//eos/lyoeos.in2p3.fr/grid/cms/store/data/Run2016C/SingleElectron/NANOAOD/HIPM_UL2016_MiniAODv2_NanoAODv9-v2/2520000/47F26205-1E71-5148-A980-30676F8262D6.root
root://lyoeos.in2p3.fr//eos/lyoeos.in2p3.fr/grid/cms/store/data/Run2016C/SingleElectron/NANOAOD/HIPM_UL2016_MiniAODv2_NanoAODv9-v2/2520000/51C95A21-3DBA-2145-B06F-3EB33AF34CEF.root
root://lyoeos.in2p3.fr//eos/lyoeos.in2p3.fr/grid/cms/store/data/Run2016C/SingleElectron/NANOAOD/HIPM_UL2016_MiniAODv2_NanoAODv9-v2/2520000/555795A5-1818-AF43-8312-2FB955755C10.root
root://lyoeos.in2p3.fr//eos/lyoeos.in2p3.fr/grid/cms/store/data/Run2016C/SingleElectron/NANOAOD/HIPM_UL2016_MiniAODv2_NanoAODv9-v2/2520000/58DD3D03-9D86-A148-B687-96F93E565EF8.root
root://lyoeos.in2p3.fr//eos/lyoeos.in2p3.fr/grid/cms/store/data/Run2016C/SingleElectron/NANOAOD/HIPM_UL2016_MiniAODv2_NanoAODv9-v2/2520000/5DEE0130-AF03-464A-8126-0BC424304A44.root
root://lyoeos.in2p3.fr//eos/lyoeos.in2p3.fr/grid/cms/store/data/Run2016C/SingleElectron/NANOAOD/HIPM_UL2016_MiniAODv2_NanoAODv9-v2/2520000/5E612B33-E95F-354B-B902-F3DAD62FD2FC.root
root://lyoeos.in2p3.fr//eos/lyoeos.in2p3.fr/grid/cms/store/data/Run2016C/SingleElectron/NANOAOD/HIPM_UL2016_MiniAODv2_NanoAODv9-v2/2520000/66BFFAD1-61C6-094D-974E-D984985967B6.root
root://lyoeos.in2p3.fr//eos/lyoeos.in2p3.fr/grid/cms/store/data/Run2016C/SingleElectron/NANOAOD/HIPM_UL2016_MiniAODv2_NanoAODv9-v2/2520000/8B0AC3DF-B6A9-4147-B4EA-BE63E001F264.root
root://lyoeos.in2p3.fr//eos/lyoeos.in2p3.fr/grid/cms/store/data/Run2016C/SingleElectron/NANOAOD/HIPM_UL2016_MiniAODv2_NanoAODv9-v2/2520000/932B2BF1-08E2-3D46-A804-E988B75727A7.root
root://lyoeos.in2p3.fr//eos/lyoeos.in2p3.fr/grid/cms/store/data/Run2016C/SingleElectron/NANOAOD/HIPM_UL2016_MiniAODv2_NanoAODv9-v2/2520000/972B5785-CC28-8445-A0EB-5BD890AFC9C3.root
root://lyoeos.in2p3.fr//eos/lyoeos.in2p3.fr/grid/cms/store/data/Run2016C/SingleElectron/NANOAOD/HIPM_UL2016_MiniAODv2_NanoAODv9-v2/2520000/97753178-0AF4-A44A-9D81-CAC60AABAAFC.root
root://lyoeos.in2p3.fr//eos/lyoeos.in2p3.fr/grid/cms/store/data/Run2016C/SingleElectron/NANOAOD/HIPM_UL2016_MiniAODv2_NanoAODv9-v2/2520000/A29B6853-8D09-ED47-AE8A-6C775047382A.root
root://lyoeos.in2p3.fr//eos/lyoeos.in2p3.fr/grid/cms/store/data/Run2016C/SingleElectron/NANOAOD/HIPM_UL2016_MiniAODv2_NanoAODv9-v2/2520000/BA416FBA-E485-334C-86C2-05ECC297B048.root
root://lyoeos.in2p3.fr//eos/lyoeos.in2p3.fr/grid/cms/store/data/Run2016C/SingleElectron/NANOAOD/HIPM_UL2016_MiniAODv2_NanoAODv9-v2/2520000/BAEE8097-70DA-9345-8595-D70788142992.root
root://lyoeos.in2p3.fr//eos/lyoeos.in2p3.fr/grid/cms/store/data/Run2016C/SingleElectron/NANOAOD/HIPM_UL2016_MiniAODv2_NanoAODv9-v2/2520000/C735F6B6-A047-4E47-A98D-52780315D71D.root
root://lyoeos.in2p3.fr//eos/lyoeos.in2p3.fr/grid/cms/store/data/Run2016C/SingleElectron/NANOAOD/HIPM_UL2016_MiniAODv2_NanoAODv9-v2/2520000/D915B550-B341-2D48-A138-148EBC757BA8.root
root://lyoeos.in2p3.fr//eos/lyoeos.in2p3.fr/grid/cms/store/data/Run2016C/SingleElectron/NANOAOD/HIPM_UL2016_MiniAODv2_NanoAODv9-v2/2520000/E031FEFA-EAD3-BB40-960E-2172F21F1538.root
root://lyoeos.in2p3.fr//eos/lyoeos.in2p3.fr/grid/cms/store/data/Run2016C/SingleElectron/NANOAOD/HIPM_UL2016_MiniAODv2_NanoAODv9-v2/2520000/E1245C63-2CDE-3A45-9E22-D75219E0C2F1.root
root://lyoeos.in2p3.fr//eos/lyoeos.in2p3.fr/grid/cms/store/data/Run2016C/SingleElectron/NANOAOD/HIPM_UL2016_MiniAODv2_NanoAODv9-v2/2520000/EA2C2D06-8AEF-5647-B68F-13D16EED90F4.root
root://lyoeos.in2p3.fr//eos/lyoeos.in2p3.fr/grid/cms/store/data/Run2016C/SingleElectron/NANOAOD/HIPM_UL2016_MiniAODv2_NanoAODv9-v2/2520000/EBB3323C-6E79-3F41-AD16-47FED03A5A52.root
root://lyoeos.in2p3.fr//eos/lyoeos.in2p3.fr/grid/cms/store/data/Run2016C/SingleElectron/NANOAOD/HIPM_UL2016_MiniAODv2_NanoAODv9-v2/2520000/EEDDF1A7-4619-8E4F-8838-659FB2D11B8F.root
root://lyoeos.in2p3.fr//eos/lyoeos.in2p3.fr/grid/cms/store/data/Run2016C/SingleElectron/NANOAOD/HIPM_UL2016_MiniAODv2_NanoAODv9-v2/2520000/F2AAD57A-C847-3048-B711-DC0E1E7C4C84.root
root://lyoeos.in2p3.fr//eos/lyoeos.in2p3.fr/grid/cms/store/data/Run2016C/SingleElectron/NANOAOD/HIPM_UL2016_MiniAODv2_NanoAODv9-v2/2520000/FCDEE8E2-39EA-BB4C-8D2B-93BA8880C9F2.root
root://lyoeos.in2p3.fr//eos/lyoeos.in2p3.fr/grid/cms/store/data/Run2016C/SingleElectron/NANOAOD/HIPM_UL2016_MiniAODv2_NanoAODv9-v2/2520000/FEA553C1-A192-144B-A511-A26C47C6819F.root
root://lyoeos.in2p3.fr//eos/lyoeos.in2p3.fr/grid/cms/store/data/Run2016C/SingleElectron/NANOAOD/HIPM_UL2016_MiniAODv2_NanoAODv9-v2/2530000/19EC4157-1726-9C46-A42A-99998E351F0E.root
root://lyoeos.in2p3.fr//eos/lyoeos.in2p3.fr/grid/cms/store/data/Run2016C/SingleElectron/NANOAOD/HIPM_UL2016_MiniAODv2_NanoAODv9-v2/2530000/413C0866-CBEC-F54E-9FDB-0354CA4CEFA7.root
root://lyoeos.in2p3.fr//eos/lyoeos.in2p3.fr/grid/cms/store/data/Run2016C/SingleElectron/NANOAOD/HIPM_UL2016_MiniAODv2_NanoAODv9-v2/2530000/8573C4A9-BC25-DC4B-8D13-43AA8399AD73.root
root://lyoeos.in2p3.fr//eos/lyoeos.in2p3.fr/grid/cms/store/data/Run2016C/SingleElectron/NANOAOD/HIPM_UL2016_MiniAODv2_NanoAODv9-v2/2530000/B85B620A-E9F8-1948-93AE-9C53C9BCED12.root
root://lyoeos.in2p3.fr//eos/lyoeos.in2p3.fr/grid/cms/store/data/Run2016C/SingleElectron/NANOAOD/HIPM_UL2016_MiniAODv2_NanoAODv9-v2/2530000/E2CA8B95-45B6-9948-8100-DA6C48E987F2.root
root://lyoeos.in2p3.fr//eos/lyoeos.in2p3.fr/grid/cms/store/data/Run2016C/SingleElectron/NANOAOD/HIPM_UL2016_MiniAODv2_NanoAODv9-v2/2530000/E6F25115-16C0-A145-9433-494A98E742CC.root
root://lyoeos.in2p3.fr//eos/lyoeos.in2p3.fr/grid/cms/store/data/Run2016C/SingleElectron/NANOAOD/HIPM_UL2016_MiniAODv2_NanoAODv9-v2/2530000/EC2CD6DE-DE9B-1042-84DC-827D0E3759A9.root
root://lyoeos.in2p3.fr//eos/lyoeos.in2p3.fr/grid/cms/store/data/Run2016C/SingleElectron/NANOAOD/HIPM_UL2016_MiniAODv2_NanoAODv9-v2/40000/409714E7-0561-EE4F-8880-0D508A949EEF.root
root://lyoeos.in2p3.fr//eos/lyoeos.in2p3.fr/grid/cms/store/data/Run2016C/SingleElectron/NANOAOD/HIPM_UL2016_MiniAODv2_NanoAODv9-v2/40000/683DBA16-2537-E14E-9308-4BE6B0892781.root
root://lyoeos.in2p3.fr//eos/lyoeos.in2p3.fr/grid/cms/store/data/Run2016C/SingleElectron/NANOAOD/HIPM_UL2016_MiniAODv2_NanoAODv9-v2/40000/78C9AA75-CE75-5345-9511-6B399F5B350A.root
root://lyoeos.in2p3.fr//eos/lyoeos.in2p3.fr/grid/cms/store/data/Run2016C/SingleElectron/NANOAOD/HIPM_UL2016_MiniAODv2_NanoAODv9-v2/40000/874DAFB1-09D6-1B40-969F-8E6EA56BFFCC.root
root://lyoeos.in2p3.fr//eos/lyoeos.in2p3.fr/grid/cms/store/data/Run2016C/SingleElectron/NANOAOD/HIPM_UL2016_MiniAODv2_NanoAODv9-v2/40000/A46E5276-C8A0-7E42-9649-FAAC877077CA.root
root://lyoeos.in2p3.fr//eos/lyoeos.in2p3.fr/grid/cms/store/data/Run2016C/SingleElectron/NANOAOD/HIPM_UL2016_MiniAODv2_NanoAODv9-v2/40000/A64C6CC9-5A20-C54D-86A4-4F370EF10619.root
root://lyoeos.in2p3.fr//eos/lyoeos.in2p3.fr/grid/cms/store/data/Run2016C/SingleElectron/NANOAOD/HIPM_UL2016_MiniAODv2_NanoAODv9-v2/40000/CA8D5E15-D71D-2446-BB30-49B1147169A8.root
root://lyoeos.in2p3.fr//eos/lyoeos.in2p3.fr/grid/cms/store/data/Run2016C/SingleElectron/NANOAOD/HIPM_UL2016_MiniAODv2_NanoAODv9-v2/40000/F5324CC9-BC27-8442-A323-71CA62066A06.root
root://lyoeos.in2p3.fr//eos/lyoeos.in2p3.fr/grid/cms/store/data/Run2016C/SingleElectron/NANOAOD/HIPM_UL2016_MiniAODv2_NanoAODv9-v2/40000/FBDA2AD7-C77B-9B4F-9A7E-74FF5589D460.root