root://lyoeos.in2p3.fr//eos/lyoeos.in2p3.fr/grid/cms/store/data/Run2016D/MET/NANOAOD/HIPM_UL2016_MiniAODv2_NanoAODv9-v2/2430000/0D46BCA0-E86F-564A-A37E-BFD95F93D26E.root
root://lyoeos.in2p3.fr//eos/lyoeos.in2p3.fr/grid/cms/store/data/Run2016D/MET/NANOAOD/HIPM_UL2016_MiniAODv2_NanoAODv9-v2/2430000/0E851838-004A-F84A-ADED-C84B96D91288.root
root://lyoeos.in2p3.fr//eos/lyoeos.in2p3.fr/grid/cms/store/data/Run2016D/MET/NANOAOD/HIPM_UL2016_MiniAODv2_NanoAODv9-v2/2430000/16DDE865-46A3-0342-B2A0-79E36BC6B37A.root
root://lyoeos.in2p3.fr//eos/lyoeos.in2p3.fr/grid/cms/store/data/Run2016D/MET/NANOAOD/HIPM_UL2016_MiniAODv2_NanoAODv9-v2/2430000/2DFC0B49-8B66-2E4C-ABF7-055CBE6F94AC.root
root://lyoeos.in2p3.fr//eos/lyoeos.in2p3.fr/grid/cms/store/data/Run2016D/MET/NANOAOD/HIPM_UL2016_MiniAODv2_NanoAODv9-v2/2430000/314BC288-530A-2648-B2C2-D4A206CD2072.root
root://lyoeos.in2p3.fr//eos/lyoeos.in2p3.fr/grid/cms/store/data/Run2016D/MET/NANOAOD/HIPM_UL2016_MiniAODv2_NanoAODv9-v2/2430000/3467A457-5E30-0B43-BD26-4643E54B98D5.root
root://lyoeos.in2p3.fr//eos/lyoeos.in2p3.fr/grid/cms/store/data/Run2016D/MET/NANOAOD/HIPM_UL2016_MiniAODv2_NanoAODv9-v2/2430000/387FA12C-D62F-E945-A66C-E15189506CCF.root
root://lyoeos.in2p3.fr//eos/lyoeos.in2p3.fr/grid/cms/store/data/Run2016D/MET/NANOAOD/HIPM_UL2016_MiniAODv2_NanoAODv9-v2/2430000/4F2D12AE-C8B8-1C4E-86A2-4BFB868C5B92.root
root://lyoeos.in2p3.fr//eos/lyoeos.in2p3.fr/grid/cms/store/data/Run2016D/MET/NANOAOD/HIPM_UL2016_MiniAODv2_NanoAODv9-v2/2430000/59CB48CE-C61F-0942-B2D0-AA4752240993.root
root://lyoeos.in2p3.fr//eos/lyoeos.in2p3.fr/grid/cms/store/data/Run2016D/MET/NANOAOD/HIPM_UL2016_MiniAODv2_NanoAODv9-v2/2430000/5A362A7A-54F7-B647-A525-3BF3DE3C30EE.root
root://lyoeos.in2p3.fr//eos/lyoeos.in2p3.fr/grid/cms/store/data/Run2016D/MET/NANOAOD/HIPM_UL2016_MiniAODv2_NanoAODv9-v2/2430000/5E0E96E4-FEBF-4E41-ABD5-66772BF1A2BC.root
root://lyoeos.in2p3.fr//eos/lyoeos.in2p3.fr/grid/cms/store/data/Run2016D/MET/NANOAOD/HIPM_UL2016_MiniAODv2_NanoAODv9-v2/2430000/64C727A3-1429-3441-83DF-26CE3C813742.root
root://lyoeos.in2p3.fr//eos/lyoeos.in2p3.fr/grid/cms/store/data/Run2016D/MET/NANOAOD/HIPM_UL2016_MiniAODv2_NanoAODv9-v2/2430000/6DE8887B-4942-704A-B525-FDCBFFB88A36.root
root://lyoeos.in2p3.fr//eos/lyoeos.in2p3.fr/grid/cms/store/data/Run2016D/MET/NANOAOD/HIPM_UL2016_MiniAODv2_NanoAODv9-v2/2430000/6F7F8C26-64FF-384A-9FC8-8D6EAE7FC4D8.root
root://lyoeos.in2p3.fr//eos/lyoeos.in2p3.fr/grid/cms/store/data/Run2016D/MET/NANOAOD/HIPM_UL2016_MiniAODv2_NanoAODv9-v2/2430000/8196AA36-0DD0-E842-90FE-0414CDA97CCA.root
root://lyoeos.in2p3.fr//eos/lyoeos.in2p3.fr/grid/cms/store/data/Run2016D/MET/NANOAOD/HIPM_UL2016_MiniAODv2_NanoAODv9-v2/2430000/96BD2FC7-ACA2-3D45-BF34-7F245C431B2E.root
root://lyoeos.in2p3.fr//eos/lyoeos.in2p3.fr/grid/cms/store/data/Run2016D/MET/NANOAOD/HIPM_UL2016_MiniAODv2_NanoAODv9-v2/2430000/BD686085-FC24-6745-A159-B6F868168F33.root
root://lyoeos.in2p3.fr//eos/lyoeos.in2p3.fr/grid/cms/store/data/Run2016D/MET/NANOAOD/HIPM_UL2016_MiniAODv2_NanoAODv9-v2/2430000/C7541FD3-A836-064D-BC23-63A16C895F04.root
root://lyoeos.in2p3.fr//eos/lyoeos.in2p3.fr/grid/cms/store/data/Run2016D/MET/NANOAOD/HIPM_UL2016_MiniAODv2_NanoAODv9-v2/2430000/C9DBD05B-AC9F-1B46-8486-BE0FF97A29E5.root
root://lyoeos.in2p3.fr//eos/lyoeos.in2p3.fr/grid/cms/store/data/Run2016D/MET/NANOAOD/HIPM_UL2016_MiniAODv2_NanoAODv9-v2/2430000/D499FA7E-93EA-1142-9B66-91DF974AEAE5.root
root://lyoeos.in2p3.fr//eos/lyoeos.in2p3.fr/grid/cms/store/data/Run2016D/MET/NANOAOD/HIPM_UL2016_MiniAODv2_NanoAODv9-v2/2430000/E0F0C11D-85C1-3543-AEFA-86864B99F831.root
root://lyoeos.in2p3.fr//eos/lyoeos.in2p3.fr/grid/cms/store/data/Run2016D/MET/NANOAOD/HIPM_UL2016_MiniAODv2_NanoAODv9-v2/2430000/F13D2A76-F1FC-B54D-8995-EE675160A44E.root
root://lyoeos.in2p3.fr//eos/lyoeos.in2p3.fr/grid/cms/store/data/Run2016D/MET/NANOAOD/HIPM_UL2016_MiniAODv2_NanoAODv9-v2/2430000/F648BA13-E09A-2443-9D9A-3D2E6735AFF4.root
root://lyoeos.in2p3.fr//eos/lyoeos.in2p3.fr/grid/cms/store/data/Run2016D/MET/NANOAOD/HIPM_UL2016_MiniAODv2_NanoAODv9-v2/40000/C7EED332-880C-A349-B458-5CA93E4D5348.root