root://lyoeos.in2p3.fr//eos/lyoeos.in2p3.fr/grid/cms/store/data/Run2016C/MET/NANOAOD/HIPM_UL2016_MiniAODv2_NanoAODv9-v2/2430000/0CCF4CBF-078D-5345-8FBA-F29E3E3814C1.root
root://lyoeos.in2p3.fr//eos/lyoeos.in2p3.fr/grid/cms/store/data/Run2016C/MET/NANOAOD/HIPM_UL2016_MiniAODv2_NanoAODv9-v2/2430000/1EBCE6B3-21F4-E447-91BF-FD6CFC2E13CC.root
root://lyoeos.in2p3.fr//eos/lyoeos.in2p3.fr/grid/cms/store/data/Run2016C/MET/NANOAOD/HIPM_UL2016_MiniAODv2_NanoAODv9-v2/2430000/21D66B7D-DD5F-2A4E-8364-42E135D6EB5D.root
root://lyoeos.in2p3.fr//eos/lyoeos.in2p3.fr/grid/cms/store/data/Run2016C/MET/NANOAOD/HIPM_UL2016_MiniAODv2_NanoAODv9-v2/2430000/228B3E28-0B47-864E-9A5C-EF9E2215FA24.root
root://lyoeos.in2p3.fr//eos/lyoeos.in2p3.fr/grid/cms/store/data/Run2016C/MET/NANOAOD/HIPM_UL2016_MiniAODv2_NanoAODv9-v2/2430000/23128BC1-1E9E-5B4B-AAAE-BE4E2C8BFDB8.root
root://lyoeos.in2p3.fr//eos/lyoeos.in2p3.fr/grid/cms/store/data/Run2016C/MET/NANOAOD/HIPM_UL2016_MiniAODv2_NanoAODv9-v2/2430000/250108A0-A45B-814B-9474-E6DF2FA3965D.root
root://lyoeos.in2p3.fr//eos/lyoeos.in2p3.fr/grid/cms/store/data/Run2016C/MET/NANOAOD/HIPM_UL2016_MiniAODv2_NanoAODv9-v2/2430000/355DA7EF-E12B-5341-8CAB-A8944FAF82B7.root
root://lyoeos.in2p3.fr//eos/lyoeos.in2p3.fr/grid/cms/store/data/Run2016C/MET/NANOAOD/HIPM_UL2016_MiniAODv2_NanoAODv9-v2/2430000/3CC6F008-2922-F245-82EC-94799D1995D9.root
root://lyoeos.in2p3.fr//eos/lyoeos.in2p3.fr/grid/cms/store/data/Run2016C/MET/NANOAOD/HIPM_UL2016_MiniAODv2_NanoAODv9-v2/2430000/49138A99-5FB3-E14F-8B3A-963AAEAF8E49.root
root://lyoeos.in2p3.fr//eos/lyoeos.in2p3.fr/grid/cms/store/data/Run2016C/MET/NANOAOD/HIPM_UL2016_MiniAODv2_NanoAODv9-v2/2430000/6BDD9C7A-E92F-F646-B6F9-9F8C4DDD61B7.root
root://lyoeos.in2p3.fr//eos/lyoeos.in2p3.fr/grid/cms/store/data/Run2016C/MET/NANOAOD/HIPM_UL2016_MiniAODv2_NanoAODv9-v2/2430000/78C50562-5597-A348-91D7-6608917E1D1D.root
root://lyoeos.in2p3.fr//eos/lyoeos.in2p3.fr/grid/cms/store/data/Run2016C/MET/NANOAOD/HIPM_UL2016_MiniAODv2_NanoAODv9-v2/2430000/A3F240B9-A8C7-6246-AF7C-8D38BF537699.root
root://lyoeos.in2p3.fr//eos/lyoeos.in2p3.fr/grid/cms/store/data/Run2016C/MET/NANOAOD/HIPM_UL2016_MiniAODv2_NanoAODv9-v2/2430000/A72CFC75-A225-9D4C-9274-826E14482369.root
root://lyoeos.in2p3.fr//eos/lyoeos.in2p3.fr/grid/cms/store/data/Run2016C/MET/NANOAOD/HIPM_UL2016_MiniAODv2_NanoAODv9-v2/2430000/A97A5BAF-2394-CD49-A869-852192908318.root
root://lyoeos.in2p3.fr//eos/lyoeos.in2p3.fr/grid/cms/store/data/Run2016C/MET/NANOAOD/HIPM_UL2016_MiniAODv2_NanoAODv9-v2/2430000/B285C52D-E380-4649-9A82-70EB3E9FA134.root
root://lyoeos.in2p3.fr//eos/lyoeos.in2p3.fr/grid/cms/store/data/Run2016C/MET/NANOAOD/HIPM_UL2016_MiniAODv2_NanoAODv9-v2/2430000/C1AD156F-3EBB-1742-89AC-F39EDC367EA6.root
root://lyoeos.in2p3.fr//eos/lyoeos.in2p3.fr/grid/cms/store/data/Run2016C/MET/NANOAOD/HIPM_UL2016_MiniAODv2_NanoAODv9-v2/2430000/C337D3E1-69F9-BB40-82CE-69687E974A78.root
root://lyoeos.in2p3.fr//eos/lyoeos.in2p3.fr/grid/cms/store/data/Run2016C/MET/NANOAOD/HIPM_UL2016_MiniAODv2_NanoAODv9-v2/2430000/C53E0E28-00AC-8540-9E9F-67EE3E40DF63.root
root://lyoeos.in2p3.fr//eos/lyoeos.in2p3.fr/grid/cms/store/data/Run2016C/MET/NANOAOD/HIPM_UL2016_MiniAODv2_NanoAODv9-v2/2430000/D24A3CE3-CB3B-CE4C-9B6F-4E810D27409C.root
root://lyoeos.in2p3.fr//eos/lyoeos.in2p3.fr/grid/cms/store/data/Run2016C/MET/NANOAOD/HIPM_UL2016_MiniAODv2_NanoAODv9-v2/2430000/EAB3DB47-96F6-F542-9270-7939A3D99D83.root
root://lyoeos.in2p3.fr//eos/lyoeos.in2p3.fr/grid/cms/store/data/Run2016C/MET/NANOAOD/HIPM_UL2016_MiniAODv2_NanoAODv9-v2/2430000/EB046309-29A3-834A-8B91-EFED11C152C2.root
root://lyoeos.in2p3.fr//eos/lyoeos.in2p3.fr/grid/cms/store/data/Run2016C/MET/NANOAOD/HIPM_UL2016_MiniAODv2_NanoAODv9-v2/2430000/EDE40D7A-AC9D-2645-BD35-B31241E79BAC.root
root://lyoeos.in2p3.fr//eos/lyoeos.in2p3.fr/grid/cms/store/data/Run2016C/MET/NANOAOD/HIPM_UL2016_MiniAODv2_NanoAODv9-v2/2430000/EF7886B2-DE32-D143-B4FC-6B2FB5743C51.root
root://lyoeos.in2p3.fr//eos/lyoeos.in2p3.fr/grid/cms/store/data/Run2016C/MET/NANOAOD/HIPM_UL2016_MiniAODv2_NanoAODv9-v2/40000/4246695A-E33C-3A4C-8F30-D8D8326B440F.root