root://lyoeos.in2p3.fr//eos/lyoeos.in2p3.fr/grid/cms/store/data/Run2016F/DoubleEG/NANOAOD/HIPM_UL2016_MiniAODv2_NanoAODv9-v2/40000/0F790D11-1BD8-304D-9F60-0B17DEE8D6EF.root
root://lyoeos.in2p3.fr//eos/lyoeos.in2p3.fr/grid/cms/store/data/Run2016F/DoubleEG/NANOAOD/HIPM_UL2016_MiniAODv2_NanoAODv9-v2/40000/16A29374-ACC8-F448-82A6-9D1B5771EDF7.root
root://lyoeos.in2p3.fr//eos/lyoeos.in2p3.fr/grid/cms/store/data/Run2016F/DoubleEG/NANOAOD/HIPM_UL2016_MiniAODv2_NanoAODv9-v2/40000/2696243A-0E97-3149-A925-0945A84579F7.root
root://lyoeos.in2p3.fr//eos/lyoeos.in2p3.fr/grid/cms/store/data/Run2016F/DoubleEG/NANOAOD/HIPM_UL2016_MiniAODv2_NanoAODv9-v2/40000/2C9DAFF8-0912-5A4E-AFF2-C33534808DA9.root
root://lyoeos.in2p3.fr//eos/lyoeos.in2p3.fr/grid/cms/store/data/Run2016F/DoubleEG/NANOAOD/HIPM_UL2016_MiniAODv2_NanoAODv9-v2/40000/374954F7-B214-5D40-A817-C0945A7DAD48.root
root://lyoeos.in2p3.fr//eos/lyoeos.in2p3.fr/grid/cms/store/data/Run2016F/DoubleEG/NANOAOD/HIPM_UL2016_MiniAODv2_NanoAODv9-v2/40000/3C0E78EC-FCD4-8E4F-B693-572FBB81F838.root
root://lyoeos.in2p3.fr//eos/lyoeos.in2p3.fr/grid/cms/store/data/Run2016F/DoubleEG/NANOAOD/HIPM_UL2016_MiniAODv2_NanoAODv9-v2/40000/49AF2661-CE52-BF47-AB36-440945E7936F.root
root://lyoeos.in2p3.fr//eos/lyoeos.in2p3.fr/grid/cms/store/data/Run2016F/DoubleEG/NANOAOD/HIPM_UL2016_MiniAODv2_NanoAODv9-v2/40000/516428FB-6652-6045-8AE2-950C55BA13A3.root
root://lyoeos.in2p3.fr//eos/lyoeos.in2p3.fr/grid/cms/store/data/Run2016F/DoubleEG/NANOAOD/HIPM_UL2016_MiniAODv2_NanoAODv9-v2/40000/54166F0B-04B2-8345-8772-0F772F8A4CD1.root
root://lyoeos.in2p3.fr//eos/lyoeos.in2p3.fr/grid/cms/store/data/Run2016F/DoubleEG/NANOAOD/HIPM_UL2016_MiniAODv2_NanoAODv9-v2/40000/59A661B1-11AE-134B-BAE9-4ED21E53E2B1.root
root://lyoeos.in2p3.fr//eos/lyoeos.in2p3.fr/grid/cms/store/data/Run2016F/DoubleEG/NANOAOD/HIPM_UL2016_MiniAODv2_NanoAODv9-v2/40000/624C01C0-C1C6-214F-8CBD-F8B0755FABEC.root
root://lyoeos.in2p3.fr//eos/lyoeos.in2p3.fr/grid/cms/store/data/Run2016F/DoubleEG/NANOAOD/HIPM_UL2016_MiniAODv2_NanoAODv9-v2/40000/6A9664EC-34F0-7240-908D-D0FA2AA1C472.root
root://lyoeos.in2p3.fr//eos/lyoeos.in2p3.fr/grid/cms/store/data/Run2016F/DoubleEG/NANOAOD/HIPM_UL2016_MiniAODv2_NanoAODv9-v2/40000/6D4EAE49-4929-344F-8861-1753310AC503.root
root://lyoeos.in2p3.fr//eos/lyoeos.in2p3.fr/grid/cms/store/data/Run2016F/DoubleEG/NANOAOD/HIPM_UL2016_MiniAODv2_NanoAODv9-v2/40000/73EB4C09-96D5-EE4C-A7FF-22606DC480CB.root
root://lyoeos.in2p3.fr//eos/lyoeos.in2p3.fr/grid/cms/store/data/Run2016F/DoubleEG/NANOAOD/HIPM_UL2016_MiniAODv2_NanoAODv9-v2/40000/773DF3C3-C153-2243-A09B-A622D7157FA9.root
root://lyoeos.in2p3.fr//eos/lyoeos.in2p3.fr/grid/cms/store/data/Run2016F/DoubleEG/NANOAOD/HIPM_UL2016_MiniAODv2_NanoAODv9-v2/40000/8F23BE2E-134B-4B46-8679-DD8A087CB252.root
root://lyoeos.in2p3.fr//eos/lyoeos.in2p3.fr/grid/cms/store/data/Run2016F/DoubleEG/NANOAOD/HIPM_UL2016_MiniAODv2_NanoAODv9-v2/40000/92163C51-0A87-534B-8191-63D6B30D4D95.root
root://lyoeos.in2p3.fr//eos/lyoeos.in2p3.fr/grid/cms/store/data/Run2016F/DoubleEG/NANOAOD/HIPM_UL2016_MiniAODv2_NanoAODv9-v2/40000/92D094E6-1309-2A4A-8A18-4149C7D5E4CC.root
root://lyoeos.in2p3.fr//eos/lyoeos.in2p3.fr/grid/cms/store/data/Run2016F/DoubleEG/NANOAOD/HIPM_UL2016_MiniAODv2_NanoAODv9-v2/40000/96362B69-B9A0-A648-9429-9C39F3C396EF.root
root://lyoeos.in2p3.fr//eos/lyoeos.in2p3.fr/grid/cms/store/data/Run2016F/DoubleEG/NANOAOD/HIPM_UL2016_MiniAODv2_NanoAODv9-v2/40000/9713B953-DBA3-4F41-AC9D-17A7CC0ACFD8.root
root://lyoeos.in2p3.fr//eos/lyoeos.in2p3.fr/grid/cms/store/data/Run2016F/DoubleEG/NANOAOD/HIPM_UL2016_MiniAODv2_NanoAODv9-v2/40000/A0E14B0E-503B-0B4D-9E73-603D4AB913F4.root
root://lyoeos.in2p3.fr//eos/lyoeos.in2p3.fr/grid/cms/store/data/Run2016F/DoubleEG/NANOAOD/HIPM_UL2016_MiniAODv2_NanoAODv9-v2/40000/A5A3DFA8-02F8-784B-AB19-093399CF17F6.root
root://lyoeos.in2p3.fr//eos/lyoeos.in2p3.fr/grid/cms/store/data/Run2016F/DoubleEG/NANOAOD/HIPM_UL2016_MiniAODv2_NanoAODv9-v2/40000/B3B73052-5FD3-9A41-8503-DA5432AA83DA.root
root://lyoeos.in2p3.fr//eos/lyoeos.in2p3.fr/grid/cms/store/data/Run2016F/DoubleEG/NANOAOD/HIPM_UL2016_MiniAODv2_NanoAODv9-v2/40000/CCB42211-25EF-0A41-8CF7-96DED1232EBE.root
root://lyoeos.in2p3.fr//eos/lyoeos.in2p3.fr/grid/cms/store/data/Run2016F/DoubleEG/NANOAOD/HIPM_UL2016_MiniAODv2_NanoAODv9-v2/40000/D2CA7410-7AB9-2D4B-B7D5-802ABE7D647B.root
root://lyoeos.in2p3.fr//eos/lyoeos.in2p3.fr/grid/cms/store/data/Run2016F/DoubleEG/NANOAOD/HIPM_UL2016_MiniAODv2_NanoAODv9-v2/40000/E1EB7CE0-D419-7348-84D8-5188F8467CC1.root
root://lyoeos.in2p3.fr//eos/lyoeos.in2p3.fr/grid/cms/store/data/Run2016F/DoubleEG/NANOAOD/HIPM_UL2016_MiniAODv2_NanoAODv9-v2/40000/E1F2BE09-9C5D-3E45-A3E4-E5373E77327E.root
root://lyoeos.in2p3.fr//eos/lyoeos.in2p3.fr/grid/cms/store/data/Run2016F/DoubleEG/NANOAOD/HIPM_UL2016_MiniAODv2_NanoAODv9-v2/40000/EEB2441D-A51A-5B4E-B2FE-887D1F74BCFD.root
root://lyoeos.in2p3.fr//eos/lyoeos.in2p3.fr/grid/cms/store/data/Run2016F/DoubleEG/NANOAOD/HIPM_UL2016_MiniAODv2_NanoAODv9-v2/40000/F3480D2E-540E-C442-9D0D-2D697DA13CDF.root
root://lyoeos.in2p3.fr//eos/lyoeos.in2p3.fr/grid/cms/store/data/Run2016F/DoubleEG/NANOAOD/HIPM_UL2016_MiniAODv2_NanoAODv9-v2/40000/F64659A7-33C1-C043-B0A3-08BC04264D6F.root
root://lyoeos.in2p3.fr//eos/lyoeos.in2p3.fr/grid/cms/store/data/Run2016F/DoubleEG/NANOAOD/HIPM_UL2016_MiniAODv2_NanoAODv9-v2/40000/F6A834F9-1795-9943-ABF8-BD124B702E42.root
root://lyoeos.in2p3.fr//eos/lyoeos.in2p3.fr/grid/cms/store/data/Run2016F/DoubleEG/NANOAOD/HIPM_UL2016_MiniAODv2_NanoAODv9-v2/40000/F893485F-E9B7-3A47-86BA-999E484A765A.root
root://lyoeos.in2p3.fr//eos/lyoeos.in2p3.fr/grid/cms/store/data/Run2016F/DoubleEG/NANOAOD/HIPM_UL2016_MiniAODv2_NanoAODv9-v2/50000/7E824890-B317-3B49-B4D3-6C5CA9A98E62.root