root://lyoeos.in2p3.fr//eos/lyoeos.in2p3.fr/grid/cms/store/data/Run2016C/MuonEG/NANOAOD/HIPM_UL2016_MiniAODv2_NanoAODv9-v2/40000/0DD0A031-65E9-ED43-A03A-0CA1FA748120.root
root://lyoeos.in2p3.fr//eos/lyoeos.in2p3.fr/grid/cms/store/data/Run2016C/MuonEG/NANOAOD/HIPM_UL2016_MiniAODv2_NanoAODv9-v2/40000/270B363D-C0A2-2941-8A97-2B19A87AE6D3.root
root://lyoeos.in2p3.fr//eos/lyoeos.in2p3.fr/grid/cms/store/data/Run2016C/MuonEG/NANOAOD/HIPM_UL2016_MiniAODv2_NanoAODv9-v2/40000/4409C918-80FD-3A4F-B472-7DE6CE6464C5.root
root://lyoeos.in2p3.fr//eos/lyoeos.in2p3.fr/grid/cms/store/data/Run2016C/MuonEG/NANOAOD/HIPM_UL2016_MiniAODv2_NanoAODv9-v2/40000/5A88D7AD-E3B5-9A4B-B3CA-756EF022F0F0.root
root://lyoeos.in2p3.fr//eos/lyoeos.in2p3.fr/grid/cms/store/data/Run2016C/MuonEG/NANOAOD/HIPM_UL2016_MiniAODv2_NanoAODv9-v2/40000/5CE4640C-F5B4-BC43-9280-61F35C581D90.root
root://lyoeos.in2p3.fr//eos/lyoeos.in2p3.fr/grid/cms/store/data/Run2016C/MuonEG/NANOAOD/HIPM_UL2016_MiniAODv2_NanoAODv9-v2/40000/74F63477-322D-0147-B518-806B58A96FA5.root
root://lyoeos.in2p3.fr//eos/lyoeos.in2p3.fr/grid/cms/store/data/Run2016C/MuonEG/NANOAOD/HIPM_UL2016_MiniAODv2_NanoAODv9-v2/40000/9A05839B-DCC2-0145-904C-745570BAB5C4.root
root://lyoeos.in2p3.fr//eos/lyoeos.in2p3.fr/grid/cms/store/data/Run2016C/MuonEG/NANOAOD/HIPM_UL2016_MiniAODv2_NanoAODv9-v2/40000/A4D7ADBB-6CB3-6544-A513-8EB44FEE23FE.root
root://lyoeos.in2p3.fr//eos/lyoeos.in2p3.fr/grid/cms/store/data/Run2016C/MuonEG/NANOAOD/HIPM_UL2016_MiniAODv2_NanoAODv9-v2/40000/B83D6AA2-698C-1D44-833D-331E750AF24C.root
root://lyoeos.in2p3.fr//eos/lyoeos.in2p3.fr/grid/cms/store/data/Run2016C/MuonEG/NANOAOD/HIPM_UL2016_MiniAODv2_NanoAODv9-v2/40000/D51C3EAC-02C2-D046-A1BD-8080A9788171.root
root://lyoeos.in2p3.fr//eos/lyoeos.in2p3.fr/grid/cms/store/data/Run2016C/MuonEG/NANOAOD/HIPM_UL2016_MiniAODv2_NanoAODv9-v2/40000/DDF4565C-AB20-BA48-9719-0AA8D1B3B83A.root
root://lyoeos.in2p3.fr//eos/lyoeos.in2p3.fr/grid/cms/store/data/Run2016C/MuonEG/NANOAOD/HIPM_UL2016_MiniAODv2_NanoAODv9-v2/40000/EF083F06-A2FC-3B4C-9D83-E607BE3C8AB6.root
root://lyoeos.in2p3.fr//eos/lyoeos.in2p3.fr/grid/cms/store/data/Run2016C/MuonEG/NANOAOD/HIPM_UL2016_MiniAODv2_NanoAODv9-v2/40000/F8F1B74C-3C7B-5047-953D-CE54A7C1239F.root
root://lyoeos.in2p3.fr//eos/lyoeos.in2p3.fr/grid/cms/store/data/Run2016C/MuonEG/NANOAOD/HIPM_UL2016_MiniAODv2_NanoAODv9-v2/40000/FADE7E1D-24B8-204A-A7BC-29DFC7CA61B6.root