root://lyoeos.in2p3.fr//eos/lyoeos.in2p3.fr/grid/cms/store/data/Run2017D/MuonEG/NANOAOD/UL2017_MiniAODv2_NanoAODv9-v1/120000/0BC16A7C-3FC8-644A-B39B-023FCFCEAAD6.root
root://lyoeos.in2p3.fr//eos/lyoeos.in2p3.fr/grid/cms/store/data/Run2017D/MuonEG/NANOAOD/UL2017_MiniAODv2_NanoAODv9-v1/120000/A76AE0A2-C4AA-DD46-9FF8-9DBAF388C62A.root
root://lyoeos.in2p3.fr//eos/lyoeos.in2p3.fr/grid/cms/store/data/Run2017D/MuonEG/NANOAOD/UL2017_MiniAODv2_NanoAODv9-v1/120000/C863BA43-ACE4-F047-B220-6F3B98F6A996.root
root://lyoeos.in2p3.fr//eos/lyoeos.in2p3.fr/grid/cms/store/data/Run2017D/MuonEG/NANOAOD/UL2017_MiniAODv2_NanoAODv9-v1/130000/5AB41CF3-C329-BE4D-9339-FFE91CA72B3D.root
root://lyoeos.in2p3.fr//eos/lyoeos.in2p3.fr/grid/cms/store/data/Run2017D/MuonEG/NANOAOD/UL2017_MiniAODv2_NanoAODv9-v1/130000/BD93EDC3-0DE5-C645-9939-E9AE4B2915BB.root
root://lyoeos.in2p3.fr//eos/lyoeos.in2p3.fr/grid/cms/store/data/Run2017D/MuonEG/NANOAOD/UL2017_MiniAODv2_NanoAODv9-v1/130000/C278FF68-5093-F546-8621-654C73C32AFE.root
root://lyoeos.in2p3.fr//eos/lyoeos.in2p3.fr/grid/cms/store/data/Run2017D/MuonEG/NANOAOD/UL2017_MiniAODv2_NanoAODv9-v1/280000/11EB53CE-B742-5E43-9C2D-5D34AF91C46D.root
root://lyoeos.in2p3.fr//eos/lyoeos.in2p3.fr/grid/cms/store/data/Run2017D/MuonEG/NANOAOD/UL2017_MiniAODv2_NanoAODv9-v1/280000/1DB1EBDB-FEE6-AC43-B3A9-4A7203F89B96.root
root://lyoeos.in2p3.fr//eos/lyoeos.in2p3.fr/grid/cms/store/data/Run2017D/MuonEG/NANOAOD/UL2017_MiniAODv2_NanoAODv9-v1/280000/5A240D8A-295B-3F40-93B6-527F319570EA.root
root://lyoeos.in2p3.fr//eos/lyoeos.in2p3.fr/grid/cms/store/data/Run2017D/MuonEG/NANOAOD/UL2017_MiniAODv2_NanoAODv9-v1/280000/99B25387-85CD-6B42-B1EB-79A66C0F2ECE.root
root://lyoeos.in2p3.fr//eos/lyoeos.in2p3.fr/grid/cms/store/data/Run2017D/MuonEG/NANOAOD/UL2017_MiniAODv2_NanoAODv9-v1/280000/D6F7956E-3BD4-5F4C-B7F3-F924711F217F.root
root://lyoeos.in2p3.fr//eos/lyoeos.in2p3.fr/grid/cms/store/data/Run2017D/MuonEG/NANOAOD/UL2017_MiniAODv2_NanoAODv9-v1/280000/DF9B5882-99A5-B94B-B349-0A2B08E5D8CB.root
root://lyoeos.in2p3.fr//eos/lyoeos.in2p3.fr/grid/cms/store/data/Run2017D/MuonEG/NANOAOD/UL2017_MiniAODv2_NanoAODv9-v1/280000/F76773E5-7621-9544-BF40-D761CBE7B19E.root