root://lyoeos.in2p3.fr//eos/lyoeos.in2p3.fr/grid/cms/store/data/Run2017E/MuonEG/NANOAOD/UL2017_MiniAODv2_NanoAODv9-v1/2710000/867815B3-3F00-5640-9729-4C3CD353A16E.root
root://lyoeos.in2p3.fr//eos/lyoeos.in2p3.fr/grid/cms/store/data/Run2017E/MuonEG/NANOAOD/UL2017_MiniAODv2_NanoAODv9-v1/280000/0859C742-7018-7443-93C4-23FFA2704ECC.root
root://lyoeos.in2p3.fr//eos/lyoeos.in2p3.fr/grid/cms/store/data/Run2017E/MuonEG/NANOAOD/UL2017_MiniAODv2_NanoAODv9-v1/280000/0CCDEE1A-E09B-F245-91D9-04B091B8299A.root
root://lyoeos.in2p3.fr//eos/lyoeos.in2p3.fr/grid/cms/store/data/Run2017E/MuonEG/NANOAOD/UL2017_MiniAODv2_NanoAODv9-v1/280000/2C3A736D-2083-594B-B331-64B42DECC3AF.root
root://lyoeos.in2p3.fr//eos/lyoeos.in2p3.fr/grid/cms/store/data/Run2017E/MuonEG/NANOAOD/UL2017_MiniAODv2_NanoAODv9-v1/280000/3A1828C5-7E98-0C48-9B9E-8BE6E8BAE4C8.root
root://lyoeos.in2p3.fr//eos/lyoeos.in2p3.fr/grid/cms/store/data/Run2017E/MuonEG/NANOAOD/UL2017_MiniAODv2_NanoAODv9-v1/280000/4EF7A313-E4EB-9B44-935D-4F1C0544787F.root
root://lyoeos.in2p3.fr//eos/lyoeos.in2p3.fr/grid/cms/store/data/Run2017E/MuonEG/NANOAOD/UL2017_MiniAODv2_NanoAODv9-v1/280000/70FF5D15-48AB-CF49-B297-BE7D29F481D3.root
root://lyoeos.in2p3.fr//eos/lyoeos.in2p3.fr/grid/cms/store/data/Run2017E/MuonEG/NANOAOD/UL2017_MiniAODv2_NanoAODv9-v1/280000/7262F4F6-CF2D-044C-A6A0-8D7509D98321.root
root://lyoeos.in2p3.fr//eos/lyoeos.in2p3.fr/grid/cms/store/data/Run2017E/MuonEG/NANOAOD/UL2017_MiniAODv2_NanoAODv9-v1/280000/73F4B02F-06C2-E743-ADFC-1DDBA0D7930A.root
root://lyoeos.in2p3.fr//eos/lyoeos.in2p3.fr/grid/cms/store/data/Run2017E/MuonEG/NANOAOD/UL2017_MiniAODv2_NanoAODv9-v1/280000/B3518437-26E8-8B4C-8A16-B8CD41470057.root
root://lyoeos.in2p3.fr//eos/lyoeos.in2p3.fr/grid/cms/store/data/Run2017E/MuonEG/NANOAOD/UL2017_MiniAODv2_NanoAODv9-v1/280000/D8E8D325-6DE6-AA47-AD9F-E6AD3740836D.root
root://lyoeos.in2p3.fr//eos/lyoeos.in2p3.fr/grid/cms/store/data/Run2017E/MuonEG/NANOAOD/UL2017_MiniAODv2_NanoAODv9-v1/280000/DADF2452-1910-9646-A1BB-4C4C43395E67.root
root://lyoeos.in2p3.fr//eos/lyoeos.in2p3.fr/grid/cms/store/data/Run2017E/MuonEG/NANOAOD/UL2017_MiniAODv2_NanoAODv9-v1/280000/E0B8015F-2095-0C4E-9B38-5E747C191C7C.root
root://lyoeos.in2p3.fr//eos/lyoeos.in2p3.fr/grid/cms/store/data/Run2017E/MuonEG/NANOAOD/UL2017_MiniAODv2_NanoAODv9-v1/280000/E1B7163F-7656-9C44-8520-97C4171C5B8C.root
root://lyoeos.in2p3.fr//eos/lyoeos.in2p3.fr/grid/cms/store/data/Run2017E/MuonEG/NANOAOD/UL2017_MiniAODv2_NanoAODv9-v1/280000/E6EA7DCD-47BA-BC48-8ED4-1237523C16BE.root