root://lyoeos.in2p3.fr//eos/lyoeos.in2p3.fr/grid/cms/store/data/Run2017D/DoubleEG/NANOAOD/UL2017_MiniAODv2_NanoAODv9-v1/270000/1C103CF0-208E-034A-B127-76A648CBF011.root
root://lyoeos.in2p3.fr//eos/lyoeos.in2p3.fr/grid/cms/store/data/Run2017D/DoubleEG/NANOAOD/UL2017_MiniAODv2_NanoAODv9-v1/270000/22849BC8-9DC4-F443-9E56-9116647F26EC.root
root://lyoeos.in2p3.fr//eos/lyoeos.in2p3.fr/grid/cms/store/data/Run2017D/DoubleEG/NANOAOD/UL2017_MiniAODv2_NanoAODv9-v1/270000/24ACF135-65E9-4F44-8007-49EB55848B9C.root
root://lyoeos.in2p3.fr//eos/lyoeos.in2p3.fr/grid/cms/store/data/Run2017D/DoubleEG/NANOAOD/UL2017_MiniAODv2_NanoAODv9-v1/270000/34776E4A-8E49-7249-854E-3A694D58456F.root
root://lyoeos.in2p3.fr//eos/lyoeos.in2p3.fr/grid/cms/store/data/Run2017D/DoubleEG/NANOAOD/UL2017_MiniAODv2_NanoAODv9-v1/270000/48F712BC-1E99-EF48-A8BB-02AFC53A7FA8.root
root://lyoeos.in2p3.fr//eos/lyoeos.in2p3.fr/grid/cms/store/data/Run2017D/DoubleEG/NANOAOD/UL2017_MiniAODv2_NanoAODv9-v1/270000/5C84A912-6D3D-ED47-8AE4-FA12E910DEC5.root
root://lyoeos.in2p3.fr//eos/lyoeos.in2p3.fr/grid/cms/store/data/Run2017D/DoubleEG/NANOAOD/UL2017_MiniAODv2_NanoAODv9-v1/270000/699EE3F9-A06C-BB4B-B539-36D34F18880A.root
root://lyoeos.in2p3.fr//eos/lyoeos.in2p3.fr/grid/cms/store/data/Run2017D/DoubleEG/NANOAOD/UL2017_MiniAODv2_NanoAODv9-v1/270000/7062BC56-183E-EC40-A49E-9D22FA86CE92.root
root://lyoeos.in2p3.fr//eos/lyoeos.in2p3.fr/grid/cms/store/data/Run2017D/DoubleEG/NANOAOD/UL2017_MiniAODv2_NanoAODv9-v1/270000/741A593A-8124-6446-A113-E2EA45DE084E.root
root://lyoeos.in2p3.fr//eos/lyoeos.in2p3.fr/grid/cms/store/data/Run2017D/DoubleEG/NANOAOD/UL2017_MiniAODv2_NanoAODv9-v1/270000/8E2AFC79-EFE0-5840-B0A0-B06596C3F4B8.root
root://lyoeos.in2p3.fr//eos/lyoeos.in2p3.fr/grid/cms/store/data/Run2017D/DoubleEG/NANOAOD/UL2017_MiniAODv2_NanoAODv9-v1/270000/C021D27E-0036-924B-A537-2699EEDB4993.root
root://lyoeos.in2p3.fr//eos/lyoeos.in2p3.fr/grid/cms/store/data/Run2017D/DoubleEG/NANOAOD/UL2017_MiniAODv2_NanoAODv9-v1/270000/C1C57437-8EB5-354D-AF73-1C10723D430D.root
root://lyoeos.in2p3.fr//eos/lyoeos.in2p3.fr/grid/cms/store/data/Run2017D/DoubleEG/NANOAOD/UL2017_MiniAODv2_NanoAODv9-v1/270000/C4D9C76B-A2A8-EC4E-9EBE-3AAB6D153410.root
root://lyoeos.in2p3.fr//eos/lyoeos.in2p3.fr/grid/cms/store/data/Run2017D/DoubleEG/NANOAOD/UL2017_MiniAODv2_NanoAODv9-v1/270000/DB7FC99C-99EC-3845-8B18-65E2D38A8D19.root