root://lyoeos.in2p3.fr//eos/lyoeos.in2p3.fr/grid/cms/store/data/Run2017E/MET/NANOAOD/UL2017_MiniAODv2_NanoAODv9-v1/120000/12B80064-F884-414B-A94F-C35BD65777C5.root
root://lyoeos.in2p3.fr//eos/lyoeos.in2p3.fr/grid/cms/store/data/Run2017E/MET/NANOAOD/UL2017_MiniAODv2_NanoAODv9-v1/120000/158ADA51-8E91-B147-BE95-3F53AA370B96.root
root://lyoeos.in2p3.fr//eos/lyoeos.in2p3.fr/grid/cms/store/data/Run2017E/MET/NANOAOD/UL2017_MiniAODv2_NanoAODv9-v1/120000/1B0FB1BD-28CE-E549-9E92-9234590529ED.root
root://lyoeos.in2p3.fr//eos/lyoeos.in2p3.fr/grid/cms/store/data/Run2017E/MET/NANOAOD/UL2017_MiniAODv2_NanoAODv9-v1/120000/2E0A0AD7-5EE0-8445-A7B9-D5FC2DE35A43.root
root://lyoeos.in2p3.fr//eos/lyoeos.in2p3.fr/grid/cms/store/data/Run2017E/MET/NANOAOD/UL2017_MiniAODv2_NanoAODv9-v1/120000/413B43B9-16B7-EA42-8C98-0BABC62F4E0C.root
root://lyoeos.in2p3.fr//eos/lyoeos.in2p3.fr/grid/cms/store/data/Run2017E/MET/NANOAOD/UL2017_MiniAODv2_NanoAODv9-v1/120000/440C44BF-01D2-444C-A0C1-814A2B8DB129.root
root://lyoeos.in2p3.fr//eos/lyoeos.in2p3.fr/grid/cms/store/data/Run2017E/MET/NANOAOD/UL2017_MiniAODv2_NanoAODv9-v1/120000/458D36FD-5911-F14C-9230-6D70DFDB117A.root
root://lyoeos.in2p3.fr//eos/lyoeos.in2p3.fr/grid/cms/store/data/Run2017E/MET/NANOAOD/UL2017_MiniAODv2_NanoAODv9-v1/120000/65EF8D4F-06D0-D84A-BA0D-39252086BC83.root
root://lyoeos.in2p3.fr//eos/lyoeos.in2p3.fr/grid/cms/store/data/Run2017E/MET/NANOAOD/UL2017_MiniAODv2_NanoAODv9-v1/120000/6FCF8C3C-FBF0-8A49-A46C-4DC352859FBB.root
root://lyoeos.in2p3.fr//eos/lyoeos.in2p3.fr/grid/cms/store/data/Run2017E/MET/NANOAOD/UL2017_MiniAODv2_NanoAODv9-v1/120000/7C56B2A2-4D3D-604C-9A9E-C9860ACED0DB.root
root://lyoeos.in2p3.fr//eos/lyoeos.in2p3.fr/grid/cms/store/data/Run2017E/MET/NANOAOD/UL2017_MiniAODv2_NanoAODv9-v1/120000/890852B1-EC3D-5743-9AFA-AB81A3F8DB8D.root
root://lyoeos.in2p3.fr//eos/lyoeos.in2p3.fr/grid/cms/store/data/Run2017E/MET/NANOAOD/UL2017_MiniAODv2_NanoAODv9-v1/120000/9BAB68BC-648E-3049-95FB-88A615B7AF4C.root
root://lyoeos.in2p3.fr//eos/lyoeos.in2p3.fr/grid/cms/store/data/Run2017E/MET/NANOAOD/UL2017_MiniAODv2_NanoAODv9-v1/120000/F13A2094-D0C9-B44F-A9C3-350F3A50D671.root
root://lyoeos.in2p3.fr//eos/lyoeos.in2p3.fr/grid/cms/store/data/Run2017E/MET/NANOAOD/UL2017_MiniAODv2_NanoAODv9-v1/130000/67D26EC0-8C40-8B45-A35D-A3597C7DD10C.root
root://lyoeos.in2p3.fr//eos/lyoeos.in2p3.fr/grid/cms/store/data/Run2017E/MET/NANOAOD/UL2017_MiniAODv2_NanoAODv9-v1/260000/2EE82F7E-6F95-3C4C-AA62-51C830CF1B9C.root
root://lyoeos.in2p3.fr//eos/lyoeos.in2p3.fr/grid/cms/store/data/Run2017E/MET/NANOAOD/UL2017_MiniAODv2_NanoAODv9-v1/270000/0DCDF151-5735-D642-8892-1CF7C68BD179.root
root://lyoeos.in2p3.fr//eos/lyoeos.in2p3.fr/grid/cms/store/data/Run2017E/MET/NANOAOD/UL2017_MiniAODv2_NanoAODv9-v1/270000/14BCD7AC-55AE-4B40-8DC6-80B341430C31.root
root://lyoeos.in2p3.fr//eos/lyoeos.in2p3.fr/grid/cms/store/data/Run2017E/MET/NANOAOD/UL2017_MiniAODv2_NanoAODv9-v1/270000/1C9E86CD-8789-ED44-9A08-0F9E89562FBD.root
root://lyoeos.in2p3.fr//eos/lyoeos.in2p3.fr/grid/cms/store/data/Run2017E/MET/NANOAOD/UL2017_MiniAODv2_NanoAODv9-v1/270000/1E02DD7A-40AA-F24B-A7F2-EA7A493C02E9.root
root://lyoeos.in2p3.fr//eos/lyoeos.in2p3.fr/grid/cms/store/data/Run2017E/MET/NANOAOD/UL2017_MiniAODv2_NanoAODv9-v1/270000/1FFE9989-2295-FD46-8EDD-2594BD42BDC4.root
root://lyoeos.in2p3.fr//eos/lyoeos.in2p3.fr/grid/cms/store/data/Run2017E/MET/NANOAOD/UL2017_MiniAODv2_NanoAODv9-v1/270000/210F7A25-B1A3-DB4E-BBAC-8FFF2B710A89.root
root://lyoeos.in2p3.fr//eos/lyoeos.in2p3.fr/grid/cms/store/data/Run2017E/MET/NANOAOD/UL2017_MiniAODv2_NanoAODv9-v1/270000/2CB7AD0A-4B93-E446-8DB4-8E8CAB4BFA16.root
root://lyoeos.in2p3.fr//eos/lyoeos.in2p3.fr/grid/cms/store/data/Run2017E/MET/NANOAOD/UL2017_MiniAODv2_NanoAODv9-v1/270000/3468DE8D-CABD-4D46-804E-30D600822D03.root
root://lyoeos.in2p3.fr//eos/lyoeos.in2p3.fr/grid/cms/store/data/Run2017E/MET/NANOAOD/UL2017_MiniAODv2_NanoAODv9-v1/270000/351A665D-1D2F-F34A-81AD-8BF29C35C454.root
root://lyoeos.in2p3.fr//eos/lyoeos.in2p3.fr/grid/cms/store/data/Run2017E/MET/NANOAOD/UL2017_MiniAODv2_NanoAODv9-v1/270000/36324E6F-03D2-C44A-833C-46DCD8D8A172.root
root://lyoeos.in2p3.fr//eos/lyoeos.in2p3.fr/grid/cms/store/data/Run2017E/MET/NANOAOD/UL2017_MiniAODv2_NanoAODv9-v1/270000/3744FDBD-B64B-1B40-A2B7-4D2E1CBC4BA4.root
root://lyoeos.in2p3.fr//eos/lyoeos.in2p3.fr/grid/cms/store/data/Run2017E/MET/NANOAOD/UL2017_MiniAODv2_NanoAODv9-v1/270000/388B80C9-3D16-0F4E-84E3-0F41472D93B3.root
root://lyoeos.in2p3.fr//eos/lyoeos.in2p3.fr/grid/cms/store/data/Run2017E/MET/NANOAOD/UL2017_MiniAODv2_NanoAODv9-v1/270000/3907A8A3-FD01-534F-A9B0-B8AD74CED327.root
root://lyoeos.in2p3.fr//eos/lyoeos.in2p3.fr/grid/cms/store/data/Run2017E/MET/NANOAOD/UL2017_MiniAODv2_NanoAODv9-v1/270000/481B2289-2940-4D47-B467-715C0CE104F3.root
root://lyoeos.in2p3.fr//eos/lyoeos.in2p3.fr/grid/cms/store/data/Run2017E/MET/NANOAOD/UL2017_MiniAODv2_NanoAODv9-v1/270000/4F7A9725-B16F-9441-9D9D-36EB58F57EEB.root
root://lyoeos.in2p3.fr//eos/lyoeos.in2p3.fr/grid/cms/store/data/Run2017E/MET/NANOAOD/UL2017_MiniAODv2_NanoAODv9-v1/270000/5B98C9E4-D9A3-4449-8306-CD2A5CC29832.root
root://lyoeos.in2p3.fr//eos/lyoeos.in2p3.fr/grid/cms/store/data/Run2017E/MET/NANOAOD/UL2017_MiniAODv2_NanoAODv9-v1/270000/62F7A92F-615D-B848-8CB8-A4AF13DC10CD.root
root://lyoeos.in2p3.fr//eos/lyoeos.in2p3.fr/grid/cms/store/data/Run2017E/MET/NANOAOD/UL2017_MiniAODv2_NanoAODv9-v1/270000/754ABEDC-190F-7946-B560-09CB593C581A.root
root://lyoeos.in2p3.fr//eos/lyoeos.in2p3.fr/grid/cms/store/data/Run2017E/MET/NANOAOD/UL2017_MiniAODv2_NanoAODv9-v1/270000/78B8E819-6841-434E-A075-7F15F3B2915E.root
root://lyoeos.in2p3.fr//eos/lyoeos.in2p3.fr/grid/cms/store/data/Run2017E/MET/NANOAOD/UL2017_MiniAODv2_NanoAODv9-v1/270000/7F24EBE6-18D1-2E4C-8DA6-F2E67B9A8A43.root
root://lyoeos.in2p3.fr//eos/lyoeos.in2p3.fr/grid/cms/store/data/Run2017E/MET/NANOAOD/UL2017_MiniAODv2_NanoAODv9-v1/270000/968DE8EE-E2CD-A841-A298-4F16CA018FBB.root
root://lyoeos.in2p3.fr//eos/lyoeos.in2p3.fr/grid/cms/store/data/Run2017E/MET/NANOAOD/UL2017_MiniAODv2_NanoAODv9-v1/270000/9E6C4550-A94A-FC4A-8293-305E442096C8.root
root://lyoeos.in2p3.fr//eos/lyoeos.in2p3.fr/grid/cms/store/data/Run2017E/MET/NANOAOD/UL2017_MiniAODv2_NanoAODv9-v1/270000/B118984D-551A-4C4C-BA40-73EB8021092A.root
root://lyoeos.in2p3.fr//eos/lyoeos.in2p3.fr/grid/cms/store/data/Run2017E/MET/NANOAOD/UL2017_MiniAODv2_NanoAODv9-v1/270000/C07740EA-37BC-C242-A2C7-33B59A69186F.root
root://lyoeos.in2p3.fr//eos/lyoeos.in2p3.fr/grid/cms/store/data/Run2017E/MET/NANOAOD/UL2017_MiniAODv2_NanoAODv9-v1/270000/C1FE3044-9D30-974D-852C-ED78B1C1F87B.root
root://lyoeos.in2p3.fr//eos/lyoeos.in2p3.fr/grid/cms/store/data/Run2017E/MET/NANOAOD/UL2017_MiniAODv2_NanoAODv9-v1/270000/C4FD18B9-E758-F24E-9A0C-2165149A7F26.root
root://lyoeos.in2p3.fr//eos/lyoeos.in2p3.fr/grid/cms/store/data/Run2017E/MET/NANOAOD/UL2017_MiniAODv2_NanoAODv9-v1/270000/C8A9F514-D32D-9E40-9DD1-8D1709D28124.root
root://lyoeos.in2p3.fr//eos/lyoeos.in2p3.fr/grid/cms/store/data/Run2017E/MET/NANOAOD/UL2017_MiniAODv2_NanoAODv9-v1/270000/D0B9713E-B325-234D-A3B2-481CF0858CE4.root
root://lyoeos.in2p3.fr//eos/lyoeos.in2p3.fr/grid/cms/store/data/Run2017E/MET/NANOAOD/UL2017_MiniAODv2_NanoAODv9-v1/270000/D711E76C-054B-874A-8FD0-E6D0545AF6C0.root
root://lyoeos.in2p3.fr//eos/lyoeos.in2p3.fr/grid/cms/store/data/Run2017E/MET/NANOAOD/UL2017_MiniAODv2_NanoAODv9-v1/270000/DEEF8D47-03BD-5649-AE5C-6B1416E138CE.root
root://lyoeos.in2p3.fr//eos/lyoeos.in2p3.fr/grid/cms/store/data/Run2017E/MET/NANOAOD/UL2017_MiniAODv2_NanoAODv9-v1/270000/E3C11E46-A6FB-934A-B7CA-F9B558C4DA01.root
root://lyoeos.in2p3.fr//eos/lyoeos.in2p3.fr/grid/cms/store/data/Run2017E/MET/NANOAOD/UL2017_MiniAODv2_NanoAODv9-v1/270000/FB9CBE2A-62AB-4E49-8C8E-BE40FBF6B885.root
root://lyoeos.in2p3.fr//eos/lyoeos.in2p3.fr/grid/cms/store/data/Run2017E/MET/NANOAOD/UL2017_MiniAODv2_NanoAODv9-v1/280000/99FCD3E9-A7A8-0C41-92B4-D8837FB6F939.root