root://lyoeos.in2p3.fr//eos/lyoeos.in2p3.fr/grid/cms/store/data/Run2017C/DoubleMuon/NANOAOD/UL2017_MiniAODv2_NanoAODv9-v1/120000/0F1C718A-E474-E842-8D8F-602C40AF9414.root
root://lyoeos.in2p3.fr//eos/lyoeos.in2p3.fr/grid/cms/store/data/Run2017C/DoubleMuon/NANOAOD/UL2017_MiniAODv2_NanoAODv9-v1/120000/10EBCF91-5C2D-9E41-B68C-65A3ADA53092.root
root://lyoeos.in2p3.fr//eos/lyoeos.in2p3.fr/grid/cms/store/data/Run2017C/DoubleMuon/NANOAOD/UL2017_MiniAODv2_NanoAODv9-v1/120000/1A006C42-707B-5543-B649-C8179415726E.root
root://lyoeos.in2p3.fr//eos/lyoeos.in2p3.fr/grid/cms/store/data/Run2017C/DoubleMuon/NANOAOD/UL2017_MiniAODv2_NanoAODv9-v1/120000/1E67A22A-34C0-4D44-9E9D-E8409CA27E02.root
root://lyoeos.in2p3.fr//eos/lyoeos.in2p3.fr/grid/cms/store/data/Run2017C/DoubleMuon/NANOAOD/UL2017_MiniAODv2_NanoAODv9-v1/120000/3B572075-5F74-6F4B-824D-9237CAAB0E39.root
root://lyoeos.in2p3.fr//eos/lyoeos.in2p3.fr/grid/cms/store/data/Run2017C/DoubleMuon/NANOAOD/UL2017_MiniAODv2_NanoAODv9-v1/120000/56353672-E850-4240-8F2B-4187A6CFAEA4.root
root://lyoeos.in2p3.fr//eos/lyoeos.in2p3.fr/grid/cms/store/data/Run2017C/DoubleMuon/NANOAOD/UL2017_MiniAODv2_NanoAODv9-v1/120000/5841E91E-BB64-954D-9403-FE9AF8B3C0DB.root
root://lyoeos.in2p3.fr//eos/lyoeos.in2p3.fr/grid/cms/store/data/Run2017C/DoubleMuon/NANOAOD/UL2017_MiniAODv2_NanoAODv9-v1/120000/84AF89FC-3CCA-3A4F-8E7A-F6B7BF9C8ADD.root
root://lyoeos.in2p3.fr//eos/lyoeos.in2p3.fr/grid/cms/store/data/Run2017C/DoubleMuon/NANOAOD/UL2017_MiniAODv2_NanoAODv9-v1/120000/9298D38F-8630-0E46-8908-9B03BF2F7E11.root
root://lyoeos.in2p3.fr//eos/lyoeos.in2p3.fr/grid/cms/store/data/Run2017C/DoubleMuon/NANOAOD/UL2017_MiniAODv2_NanoAODv9-v1/120000/F466E883-C9E8-2B49-94C1-6D31C7685036.root
root://lyoeos.in2p3.fr//eos/lyoeos.in2p3.fr/grid/cms/store/data/Run2017C/DoubleMuon/NANOAOD/UL2017_MiniAODv2_NanoAODv9-v1/270000/0B8B6B88-9E9F-F44D-83B9-F36911118F0D.root
root://lyoeos.in2p3.fr//eos/lyoeos.in2p3.fr/grid/cms/store/data/Run2017C/DoubleMuon/NANOAOD/UL2017_MiniAODv2_NanoAODv9-v1/270000/0C7E7905-73DF-9842-B78C-24017C506F7E.root
root://lyoeos.in2p3.fr//eos/lyoeos.in2p3.fr/grid/cms/store/data/Run2017C/DoubleMuon/NANOAOD/UL2017_MiniAODv2_NanoAODv9-v1/270000/5A1A3A07-844C-384A-9803-87D16E63BCE4.root
root://lyoeos.in2p3.fr//eos/lyoeos.in2p3.fr/grid/cms/store/data/Run2017C/DoubleMuon/NANOAOD/UL2017_MiniAODv2_NanoAODv9-v1/270000/5AA533AB-1BB1-6E4A-8C99-8A19C65152DD.root
root://lyoeos.in2p3.fr//eos/lyoeos.in2p3.fr/grid/cms/store/data/Run2017C/DoubleMuon/NANOAOD/UL2017_MiniAODv2_NanoAODv9-v1/270000/6376ABBF-579B-8F4F-95EF-CD4ADB099956.root
root://lyoeos.in2p3.fr//eos/lyoeos.in2p3.fr/grid/cms/store/data/Run2017C/DoubleMuon/NANOAOD/UL2017_MiniAODv2_NanoAODv9-v1/270000/70FA49C6-6314-CF41-8A0A-4A8267F19ED7.root
root://lyoeos.in2p3.fr//eos/lyoeos.in2p3.fr/grid/cms/store/data/Run2017C/DoubleMuon/NANOAOD/UL2017_MiniAODv2_NanoAODv9-v1/270000/715971A1-865D-4148-A6DA-91EEE48EC54F.root
root://lyoeos.in2p3.fr//eos/lyoeos.in2p3.fr/grid/cms/store/data/Run2017C/DoubleMuon/NANOAOD/UL2017_MiniAODv2_NanoAODv9-v1/270000/757DA39E-01AB-2E4D-8170-A3AC3B8E09C0.root
root://lyoeos.in2p3.fr//eos/lyoeos.in2p3.fr/grid/cms/store/data/Run2017C/DoubleMuon/NANOAOD/UL2017_MiniAODv2_NanoAODv9-v1/270000/86AFA0CC-CFCE-A240-B1CA-26E7E8A2EC52.root
root://lyoeos.in2p3.fr//eos/lyoeos.in2p3.fr/grid/cms/store/data/Run2017C/DoubleMuon/NANOAOD/UL2017_MiniAODv2_NanoAODv9-v1/270000/8A0AB124-8506-1F4C-A637-3D6530A8308C.root
root://lyoeos.in2p3.fr//eos/lyoeos.in2p3.fr/grid/cms/store/data/Run2017C/DoubleMuon/NANOAOD/UL2017_MiniAODv2_NanoAODv9-v1/270000/B7FFD6B1-AD6C-7749-BCB2-FB6751469B88.root
root://lyoeos.in2p3.fr//eos/lyoeos.in2p3.fr/grid/cms/store/data/Run2017C/DoubleMuon/NANOAOD/UL2017_MiniAODv2_NanoAODv9-v1/270000/D370DD00-E8FA-3349-8D27-C4F040C16B85.root
root://lyoeos.in2p3.fr//eos/lyoeos.in2p3.fr/grid/cms/store/data/Run2017C/DoubleMuon/NANOAOD/UL2017_MiniAODv2_NanoAODv9-v1/270000/DC2691A7-C4AF-4844-999F-3FB43C8BDBF4.root
root://lyoeos.in2p3.fr//eos/lyoeos.in2p3.fr/grid/cms/store/data/Run2017C/DoubleMuon/NANOAOD/UL2017_MiniAODv2_NanoAODv9-v1/270000/E10772AA-661A-F140-AD7A-8C9080269DE4.root
root://lyoeos.in2p3.fr//eos/lyoeos.in2p3.fr/grid/cms/store/data/Run2017C/DoubleMuon/NANOAOD/UL2017_MiniAODv2_NanoAODv9-v1/270000/F84CFA67-484A-4447-8B8A-5CEC1B3AADD9.root
root://lyoeos.in2p3.fr//eos/lyoeos.in2p3.fr/grid/cms/store/data/Run2017C/DoubleMuon/NANOAOD/UL2017_MiniAODv2_NanoAODv9-v1/280000/0904CD04-613A-2842-919D-CB39B13E579B.root
root://lyoeos.in2p3.fr//eos/lyoeos.in2p3.fr/grid/cms/store/data/Run2017C/DoubleMuon/NANOAOD/UL2017_MiniAODv2_NanoAODv9-v1/280000/5F90F449-FADB-714D-B159-BB488F0AF720.root
root://lyoeos.in2p3.fr//eos/lyoeos.in2p3.fr/grid/cms/store/data/Run2017C/DoubleMuon/NANOAOD/UL2017_MiniAODv2_NanoAODv9-v1/280000/9FBF77DA-08FA-3B4F-887F-162848B6D5CA.root
root://lyoeos.in2p3.fr//eos/lyoeos.in2p3.fr/grid/cms/store/data/Run2017C/DoubleMuon/NANOAOD/UL2017_MiniAODv2_NanoAODv9-v1/280000/A35C7013-397D-CA43-8919-134EA5F489E1.root