root://lyoeos.in2p3.fr//eos/lyoeos.in2p3.fr/grid/cms/store/data/Run2017D/SingleMuon/NANOAOD/UL2017_MiniAODv2_NanoAODv9_GT36-v1/60000/0FC5B1FA-2479-624C-9CD1-436E7DE3E4C7.root
root://lyoeos.in2p3.fr//eos/lyoeos.in2p3.fr/grid/cms/store/data/Run2017D/SingleMuon/NANOAOD/UL2017_MiniAODv2_NanoAODv9_GT36-v1/60000/10EFFA7C-53F1-7D40-AE75-3927EE8611D6.root
root://lyoeos.in2p3.fr//eos/lyoeos.in2p3.fr/grid/cms/store/data/Run2017D/SingleMuon/NANOAOD/UL2017_MiniAODv2_NanoAODv9_GT36-v1/60000/12B9DB18-707B-B340-8D16-1E1EBF2CA686.root
root://lyoeos.in2p3.fr//eos/lyoeos.in2p3.fr/grid/cms/store/data/Run2017D/SingleMuon/NANOAOD/UL2017_MiniAODv2_NanoAODv9_GT36-v1/60000/14D37A71-CE04-6A46-9C48-3C7310C61D28.root
root://lyoeos.in2p3.fr//eos/lyoeos.in2p3.fr/grid/cms/store/data/Run2017D/SingleMuon/NANOAOD/UL2017_MiniAODv2_NanoAODv9_GT36-v1/60000/19D2564F-FF43-E740-B390-E1395213B4B3.root
root://lyoeos.in2p3.fr//eos/lyoeos.in2p3.fr/grid/cms/store/data/Run2017D/SingleMuon/NANOAOD/UL2017_MiniAODv2_NanoAODv9_GT36-v1/60000/1FBE3DF8-0EE9-6047-B207-948F0FC5C7E2.root
root://lyoeos.in2p3.fr//eos/lyoeos.in2p3.fr/grid/cms/store/data/Run2017D/SingleMuon/NANOAOD/UL2017_MiniAODv2_NanoAODv9_GT36-v1/60000/22790E3B-30FE-3842-9EC4-301112C8543F.root
root://lyoeos.in2p3.fr//eos/lyoeos.in2p3.fr/grid/cms/store/data/Run2017D/SingleMuon/NANOAOD/UL2017_MiniAODv2_NanoAODv9_GT36-v1/60000/2398D4CF-8178-3040-80A3-9FDD3E19636D.root
root://lyoeos.in2p3.fr//eos/lyoeos.in2p3.fr/grid/cms/store/data/Run2017D/SingleMuon/NANOAOD/UL2017_MiniAODv2_NanoAODv9_GT36-v1/60000/276E3BEB-8981-344B-9526-7B7B87048767.root
root://lyoeos.in2p3.fr//eos/lyoeos.in2p3.fr/grid/cms/store/data/Run2017D/SingleMuon/NANOAOD/UL2017_MiniAODv2_NanoAODv9_GT36-v1/60000/27C88002-772F-3241-8400-8AD33DA23E5C.root
root://lyoeos.in2p3.fr//eos/lyoeos.in2p3.fr/grid/cms/store/data/Run2017D/SingleMuon/NANOAOD/UL2017_MiniAODv2_NanoAODv9_GT36-v1/60000/45C0926A-84A1-354D-B301-910241A414B2.root
root://lyoeos.in2p3.fr//eos/lyoeos.in2p3.fr/grid/cms/store/data/Run2017D/SingleMuon/NANOAOD/UL2017_MiniAODv2_NanoAODv9_GT36-v1/60000/4CB5BAF4-8024-5845-851A-EFC74BCBF71B.root
root://lyoeos.in2p3.fr//eos/lyoeos.in2p3.fr/grid/cms/store/data/Run2017D/SingleMuon/NANOAOD/UL2017_MiniAODv2_NanoAODv9_GT36-v1/60000/50B547BB-1A10-2847-9CE1-97B4D9B9D477.root
root://lyoeos.in2p3.fr//eos/lyoeos.in2p3.fr/grid/cms/store/data/Run2017D/SingleMuon/NANOAOD/UL2017_MiniAODv2_NanoAODv9_GT36-v1/60000/53A05470-6561-4A4D-B238-5D967813B122.root
root://lyoeos.in2p3.fr//eos/lyoeos.in2p3.fr/grid/cms/store/data/Run2017D/SingleMuon/NANOAOD/UL2017_MiniAODv2_NanoAODv9_GT36-v1/60000/5C16E7D4-B0FE-214D-BE3A-666286771AEC.root
root://lyoeos.in2p3.fr//eos/lyoeos.in2p3.fr/grid/cms/store/data/Run2017D/SingleMuon/NANOAOD/UL2017_MiniAODv2_NanoAODv9_GT36-v1/60000/5D7FEE8D-8B44-304B-AA9E-36D55045E337.root
root://lyoeos.in2p3.fr//eos/lyoeos.in2p3.fr/grid/cms/store/data/Run2017D/SingleMuon/NANOAOD/UL2017_MiniAODv2_NanoAODv9_GT36-v1/60000/66DE66B3-8C94-EF40-B422-AAEE8392AFC3.root
root://lyoeos.in2p3.fr//eos/lyoeos.in2p3.fr/grid/cms/store/data/Run2017D/SingleMuon/NANOAOD/UL2017_MiniAODv2_NanoAODv9_GT36-v1/60000/68580240-986C-574E-B959-59CCC1B3B868.root
root://lyoeos.in2p3.fr//eos/lyoeos.in2p3.fr/grid/cms/store/data/Run2017D/SingleMuon/NANOAOD/UL2017_MiniAODv2_NanoAODv9_GT36-v1/60000/6CC29776-FEBC-DC4B-912C-84DC2A628258.root
root://lyoeos.in2p3.fr//eos/lyoeos.in2p3.fr/grid/cms/store/data/Run2017D/SingleMuon/NANOAOD/UL2017_MiniAODv2_NanoAODv9_GT36-v1/60000/70A325CE-DF3C-6044-B769-C930F6D33BA3.root
root://lyoeos.in2p3.fr//eos/lyoeos.in2p3.fr/grid/cms/store/data/Run2017D/SingleMuon/NANOAOD/UL2017_MiniAODv2_NanoAODv9_GT36-v1/60000/76A75C0C-2437-4048-9DF8-651BCE144778.root
root://lyoeos.in2p3.fr//eos/lyoeos.in2p3.fr/grid/cms/store/data/Run2017D/SingleMuon/NANOAOD/UL2017_MiniAODv2_NanoAODv9_GT36-v1/60000/7BAF59EE-5EC7-F241-81B9-25BF5B962C55.root
root://lyoeos.in2p3.fr//eos/lyoeos.in2p3.fr/grid/cms/store/data/Run2017D/SingleMuon/NANOAOD/UL2017_MiniAODv2_NanoAODv9_GT36-v1/60000/7D263C8D-08D7-F942-A533-4E3D828BB965.root
root://lyoeos.in2p3.fr//eos/lyoeos.in2p3.fr/grid/cms/store/data/Run2017D/SingleMuon/NANOAOD/UL2017_MiniAODv2_NanoAODv9_GT36-v1/60000/8314A773-E363-4D48-A959-BCC2FD029828.root
root://lyoeos.in2p3.fr//eos/lyoeos.in2p3.fr/grid/cms/store/data/Run2017D/SingleMuon/NANOAOD/UL2017_MiniAODv2_NanoAODv9_GT36-v1/60000/889263AC-6F25-2B44-A082-C7A1D5E7BD70.root
root://lyoeos.in2p3.fr//eos/lyoeos.in2p3.fr/grid/cms/store/data/Run2017D/SingleMuon/NANOAOD/UL2017_MiniAODv2_NanoAODv9_GT36-v1/60000/8A6DB8D5-92F2-384D-A4D6-4906A2CEABF5.root
root://lyoeos.in2p3.fr//eos/lyoeos.in2p3.fr/grid/cms/store/data/Run2017D/SingleMuon/NANOAOD/UL2017_MiniAODv2_NanoAODv9_GT36-v1/60000/8C0DFD66-EF59-7B44-A886-A77E34BA1AD1.root
root://lyoeos.in2p3.fr//eos/lyoeos.in2p3.fr/grid/cms/store/data/Run2017D/SingleMuon/NANOAOD/UL2017_MiniAODv2_NanoAODv9_GT36-v1/60000/9C38FA4D-F3AC-9D4D-B253-3C2EE8043B00.root
root://lyoeos.in2p3.fr//eos/lyoeos.in2p3.fr/grid/cms/store/data/Run2017D/SingleMuon/NANOAOD/UL2017_MiniAODv2_NanoAODv9_GT36-v1/60000/9F57C32F-CEDF-0642-8099-190CA6658BD0.root
root://lyoeos.in2p3.fr//eos/lyoeos.in2p3.fr/grid/cms/store/data/Run2017D/SingleMuon/NANOAOD/UL2017_MiniAODv2_NanoAODv9_GT36-v1/60000/A7133E2F-222D-E645-A065-B2D20381B59D.root
root://lyoeos.in2p3.fr//eos/lyoeos.in2p3.fr/grid/cms/store/data/Run2017D/SingleMuon/NANOAOD/UL2017_MiniAODv2_NanoAODv9_GT36-v1/60000/B18EE186-84EF-3A4E-AEB2-0FADFEFFB0EC.root
root://lyoeos.in2p3.fr//eos/lyoeos.in2p3.fr/grid/cms/store/data/Run2017D/SingleMuon/NANOAOD/UL2017_MiniAODv2_NanoAODv9_GT36-v1/60000/C0216F58-7911-474B-8666-0D710A0D0B02.root
root://lyoeos.in2p3.fr//eos/lyoeos.in2p3.fr/grid/cms/store/data/Run2017D/SingleMuon/NANOAOD/UL2017_MiniAODv2_NanoAODv9_GT36-v1/60000/DF2D06C7-FB08-2F42-9A2C-65E3B3B6174C.root
root://lyoeos.in2p3.fr//eos/lyoeos.in2p3.fr/grid/cms/store/data/Run2017D/SingleMuon/NANOAOD/UL2017_MiniAODv2_NanoAODv9_GT36-v1/60000/DFB3AF33-761C-5444-915E-EE780E2AACE3.root
root://lyoeos.in2p3.fr//eos/lyoeos.in2p3.fr/grid/cms/store/data/Run2017D/SingleMuon/NANOAOD/UL2017_MiniAODv2_NanoAODv9_GT36-v1/60000/E04F3D4C-3B85-5343-9ABD-CFC267230ADC.root
root://lyoeos.in2p3.fr//eos/lyoeos.in2p3.fr/grid/cms/store/data/Run2017D/SingleMuon/NANOAOD/UL2017_MiniAODv2_NanoAODv9_GT36-v1/60000/E570CBD3-D876-EF42-8509-0296C4833099.root
root://lyoeos.in2p3.fr//eos/lyoeos.in2p3.fr/grid/cms/store/data/Run2017D/SingleMuon/NANOAOD/UL2017_MiniAODv2_NanoAODv9_GT36-v1/60000/ED01B907-1ADE-F940-BA22-5204FD172F3D.root
root://lyoeos.in2p3.fr//eos/lyoeos.in2p3.fr/grid/cms/store/data/Run2017D/SingleMuon/NANOAOD/UL2017_MiniAODv2_NanoAODv9_GT36-v1/60000/EF03AFFA-80CB-C54F-B9DA-ACD4B496CA5A.root
root://lyoeos.in2p3.fr//eos/lyoeos.in2p3.fr/grid/cms/store/data/Run2017D/SingleMuon/NANOAOD/UL2017_MiniAODv2_NanoAODv9_GT36-v1/60000/F9D9E08C-5C72-2449-BB59-F1A18C1B0A12.root
root://lyoeos.in2p3.fr//eos/lyoeos.in2p3.fr/grid/cms/store/data/Run2017D/SingleMuon/NANOAOD/UL2017_MiniAODv2_NanoAODv9_GT36-v1/60000/FFED1030-A071-6444-80B6-A0F6409E97E7.root