root://lyoeos.in2p3.fr//eos/lyoeos.in2p3.fr/grid/cms/store/data/Run2016H/DoubleEG/NANOAOD/UL2016_MiniAODv2_NanoAODv9-v1/100000/2AD46B56-E1CA-CD44-B30D-C57FE1C35D15.root
root://lyoeos.in2p3.fr//eos/lyoeos.in2p3.fr/grid/cms/store/data/Run2016H/DoubleEG/NANOAOD/UL2016_MiniAODv2_NanoAODv9-v1/100000/61906161-574B-F749-859E-EF41556352AF.root
root://lyoeos.in2p3.fr//eos/lyoeos.in2p3.fr/grid/cms/store/data/Run2016H/DoubleEG/NANOAOD/UL2016_MiniAODv2_NanoAODv9-v1/100000/B7CFAE74-1E82-C943-AF64-1C905145E477.root
root://lyoeos.in2p3.fr//eos/lyoeos.in2p3.fr/grid/cms/store/data/Run2016H/DoubleEG/NANOAOD/UL2016_MiniAODv2_NanoAODv9-v1/100000/BA5BE5BB-A290-9749-9702-89E4A4A21F8F.root
root://lyoeos.in2p3.fr//eos/lyoeos.in2p3.fr/grid/cms/store/data/Run2016H/DoubleEG/NANOAOD/UL2016_MiniAODv2_NanoAODv9-v1/100000/E0464771-1987-AF4F-9B88-A80064D90B18.root
root://lyoeos.in2p3.fr//eos/lyoeos.in2p3.fr/grid/cms/store/data/Run2016H/DoubleEG/NANOAOD/UL2016_MiniAODv2_NanoAODv9-v1/2500000/FB3ADF2F-FE4D-0944-A100-FA1D03041D4F.root
root://lyoeos.in2p3.fr//eos/lyoeos.in2p3.fr/grid/cms/store/data/Run2016H/DoubleEG/NANOAOD/UL2016_MiniAODv2_NanoAODv9-v1/260000/03134293-A338-1B48-B693-08C3F6B6CEE8.root
root://lyoeos.in2p3.fr//eos/lyoeos.in2p3.fr/grid/cms/store/data/Run2016H/DoubleEG/NANOAOD/UL2016_MiniAODv2_NanoAODv9-v1/260000/091425B5-2AE7-9D43-8907-58EC395CF26E.root
root://lyoeos.in2p3.fr//eos/lyoeos.in2p3.fr/grid/cms/store/data/Run2016H/DoubleEG/NANOAOD/UL2016_MiniAODv2_NanoAODv9-v1/260000/0BA9ABF2-82B3-0747-8894-27BB26C52398.root
root://lyoeos.in2p3.fr//eos/lyoeos.in2p3.fr/grid/cms/store/data/Run2016H/DoubleEG/NANOAOD/UL2016_MiniAODv2_NanoAODv9-v1/260000/1207F9D9-B3D3-E84F-9106-AC37F6BF6136.root
root://lyoeos.in2p3.fr//eos/lyoeos.in2p3.fr/grid/cms/store/data/Run2016H/DoubleEG/NANOAOD/UL2016_MiniAODv2_NanoAODv9-v1/260000/1253AC11-244C-AC4B-870A-3D54638F3A24.root
root://lyoeos.in2p3.fr//eos/lyoeos.in2p3.fr/grid/cms/store/data/Run2016H/DoubleEG/NANOAOD/UL2016_MiniAODv2_NanoAODv9-v1/260000/197483E5-4BDC-6546-AD0D-209C10A4A425.root
root://lyoeos.in2p3.fr//eos/lyoeos.in2p3.fr/grid/cms/store/data/Run2016H/DoubleEG/NANOAOD/UL2016_MiniAODv2_NanoAODv9-v1/260000/1B16C3FD-2AE0-1540-BEBF-5D610C482274.root
root://lyoeos.in2p3.fr//eos/lyoeos.in2p3.fr/grid/cms/store/data/Run2016H/DoubleEG/NANOAOD/UL2016_MiniAODv2_NanoAODv9-v1/260000/1CA16DEC-7DD8-0A45-A814-DE3116EC004E.root
root://lyoeos.in2p3.fr//eos/lyoeos.in2p3.fr/grid/cms/store/data/Run2016H/DoubleEG/NANOAOD/UL2016_MiniAODv2_NanoAODv9-v1/260000/20CB5877-71E3-F24C-A53F-AF712B756738.root
root://lyoeos.in2p3.fr//eos/lyoeos.in2p3.fr/grid/cms/store/data/Run2016H/DoubleEG/NANOAOD/UL2016_MiniAODv2_NanoAODv9-v1/260000/22AB6926-0BDC-F24D-9FF6-FCB08197F175.root
root://lyoeos.in2p3.fr//eos/lyoeos.in2p3.fr/grid/cms/store/data/Run2016H/DoubleEG/NANOAOD/UL2016_MiniAODv2_NanoAODv9-v1/260000/274C8ACF-9CCB-B345-A005-4ECA019C5C37.root
root://lyoeos.in2p3.fr//eos/lyoeos.in2p3.fr/grid/cms/store/data/Run2016H/DoubleEG/NANOAOD/UL2016_MiniAODv2_NanoAODv9-v1/260000/2A8A8DFD-EB54-6645-AA37-DB6D0D58B9CE.root
root://lyoeos.in2p3.fr//eos/lyoeos.in2p3.fr/grid/cms/store/data/Run2016H/DoubleEG/NANOAOD/UL2016_MiniAODv2_NanoAODv9-v1/260000/2AC65A06-8B93-644C-9EA7-A8A33CA0BBD7.root
root://lyoeos.in2p3.fr//eos/lyoeos.in2p3.fr/grid/cms/store/data/Run2016H/DoubleEG/NANOAOD/UL2016_MiniAODv2_NanoAODv9-v1/260000/2BA31D30-041A-4B48-BA82-3491D9D19412.root
root://lyoeos.in2p3.fr//eos/lyoeos.in2p3.fr/grid/cms/store/data/Run2016H/DoubleEG/NANOAOD/UL2016_MiniAODv2_NanoAODv9-v1/260000/2E42C859-5584-1C44-B2A8-6ABD1613BCD3.root
root://lyoeos.in2p3.fr//eos/lyoeos.in2p3.fr/grid/cms/store/data/Run2016H/DoubleEG/NANOAOD/UL2016_MiniAODv2_NanoAODv9-v1/260000/34C65FBE-1620-3D4D-A5CD-32D8AA561CC6.root
root://lyoeos.in2p3.fr//eos/lyoeos.in2p3.fr/grid/cms/store/data/Run2016H/DoubleEG/NANOAOD/UL2016_MiniAODv2_NanoAODv9-v1/260000/36BF0197-B7E2-FA4F-A7AA-4E716999C1E0.root
root://lyoeos.in2p3.fr//eos/lyoeos.in2p3.fr/grid/cms/store/data/Run2016H/DoubleEG/NANOAOD/UL2016_MiniAODv2_NanoAODv9-v1/260000/3CA5D3AB-CE88-3D43-BA47-947F852FF759.root
root://lyoeos.in2p3.fr//eos/lyoeos.in2p3.fr/grid/cms/store/data/Run2016H/DoubleEG/NANOAOD/UL2016_MiniAODv2_NanoAODv9-v1/260000/3F4052DF-90F4-8D41-9104-01C91A380DDB.root
root://lyoeos.in2p3.fr//eos/lyoeos.in2p3.fr/grid/cms/store/data/Run2016H/DoubleEG/NANOAOD/UL2016_MiniAODv2_NanoAODv9-v1/260000/464377C5-C578-AB45-BD22-08DADED57D65.root
root://lyoeos.in2p3.fr//eos/lyoeos.in2p3.fr/grid/cms/store/data/Run2016H/DoubleEG/NANOAOD/UL2016_MiniAODv2_NanoAODv9-v1/260000/4AEA76E0-B550-AB4C-A3D7-E419FDEC3713.root
root://lyoeos.in2p3.fr//eos/lyoeos.in2p3.fr/grid/cms/store/data/Run2016H/DoubleEG/NANOAOD/UL2016_MiniAODv2_NanoAODv9-v1/260000/4FC6ADAD-3B25-E94F-92EB-466019F88C5C.root
root://lyoeos.in2p3.fr//eos/lyoeos.in2p3.fr/grid/cms/store/data/Run2016H/DoubleEG/NANOAOD/UL2016_MiniAODv2_NanoAODv9-v1/260000/524CE9AC-AA8F-6E4F-BC68-EBD64BDC213D.root
root://lyoeos.in2p3.fr//eos/lyoeos.in2p3.fr/grid/cms/store/data/Run2016H/DoubleEG/NANOAOD/UL2016_MiniAODv2_NanoAODv9-v1/260000/532C728D-2F25-1049-9B42-049FA2D78B85.root
root://lyoeos.in2p3.fr//eos/lyoeos.in2p3.fr/grid/cms/store/data/Run2016H/DoubleEG/NANOAOD/UL2016_MiniAODv2_NanoAODv9-v1/260000/5392AB43-8FA8-EF4D-B509-EA2402D55598.root
root://lyoeos.in2p3.fr//eos/lyoeos.in2p3.fr/grid/cms/store/data/Run2016H/DoubleEG/NANOAOD/UL2016_MiniAODv2_NanoAODv9-v1/260000/539EB6DF-A954-D44B-9F33-1A74AAA9ED11.root
root://lyoeos.in2p3.fr//eos/lyoeos.in2p3.fr/grid/cms/store/data/Run2016H/DoubleEG/NANOAOD/UL2016_MiniAODv2_NanoAODv9-v1/260000/556A7416-0814-964D-B29B-92F3CDA8EFBD.root
root://lyoeos.in2p3.fr//eos/lyoeos.in2p3.fr/grid/cms/store/data/Run2016H/DoubleEG/NANOAOD/UL2016_MiniAODv2_NanoAODv9-v1/260000/5EF232DF-7390-4B4B-A417-4F2DE5EFCB33.root
root://lyoeos.in2p3.fr//eos/lyoeos.in2p3.fr/grid/cms/store/data/Run2016H/DoubleEG/NANOAOD/UL2016_MiniAODv2_NanoAODv9-v1/260000/60EB4CE5-4BA9-8246-B211-54EFE4521BFA.root
root://lyoeos.in2p3.fr//eos/lyoeos.in2p3.fr/grid/cms/store/data/Run2016H/DoubleEG/NANOAOD/UL2016_MiniAODv2_NanoAODv9-v1/260000/69896AA3-7B9E-E246-AB20-228F36E2028C.root
root://lyoeos.in2p3.fr//eos/lyoeos.in2p3.fr/grid/cms/store/data/Run2016H/DoubleEG/NANOAOD/UL2016_MiniAODv2_NanoAODv9-v1/260000/6AE039C7-1BB2-024F-8B57-DEA918959576.root
root://lyoeos.in2p3.fr//eos/lyoeos.in2p3.fr/grid/cms/store/data/Run2016H/DoubleEG/NANOAOD/UL2016_MiniAODv2_NanoAODv9-v1/260000/6E5D09F0-2406-9144-8BAD-A6B047A5FD55.root
root://lyoeos.in2p3.fr//eos/lyoeos.in2p3.fr/grid/cms/store/data/Run2016H/DoubleEG/NANOAOD/UL2016_MiniAODv2_NanoAODv9-v1/260000/715655C7-F48B-E841-8424-A6F123DADF99.root
root://lyoeos.in2p3.fr//eos/lyoeos.in2p3.fr/grid/cms/store/data/Run2016H/DoubleEG/NANOAOD/UL2016_MiniAODv2_NanoAODv9-v1/260000/74756D89-62C1-8F4E-AD73-5BCA471F6B01.root
root://lyoeos.in2p3.fr//eos/lyoeos.in2p3.fr/grid/cms/store/data/Run2016H/DoubleEG/NANOAOD/UL2016_MiniAODv2_NanoAODv9-v1/260000/7565F4F2-1113-5E4C-832F-6951A974D01D.root
root://lyoeos.in2p3.fr//eos/lyoeos.in2p3.fr/grid/cms/store/data/Run2016H/DoubleEG/NANOAOD/UL2016_MiniAODv2_NanoAODv9-v1/260000/7B0EB031-59EA-6041-9549-24860B8E70BA.root
root://lyoeos.in2p3.fr//eos/lyoeos.in2p3.fr/grid/cms/store/data/Run2016H/DoubleEG/NANOAOD/UL2016_MiniAODv2_NanoAODv9-v1/260000/81CA9C9F-4404-9B41-A86B-642B51E132D8.root
root://lyoeos.in2p3.fr//eos/lyoeos.in2p3.fr/grid/cms/store/data/Run2016H/DoubleEG/NANOAOD/UL2016_MiniAODv2_NanoAODv9-v1/260000/825CA3B0-5F61-514C-A5CE-5F6097441178.root
root://lyoeos.in2p3.fr//eos/lyoeos.in2p3.fr/grid/cms/store/data/Run2016H/DoubleEG/NANOAOD/UL2016_MiniAODv2_NanoAODv9-v1/260000/861921D8-5DE9-1249-9264-3E265EBFE8E5.root
root://lyoeos.in2p3.fr//eos/lyoeos.in2p3.fr/grid/cms/store/data/Run2016H/DoubleEG/NANOAOD/UL2016_MiniAODv2_NanoAODv9-v1/260000/8847DDCB-0990-F544-930A-A9874B948FD7.root
root://lyoeos.in2p3.fr//eos/lyoeos.in2p3.fr/grid/cms/store/data/Run2016H/DoubleEG/NANOAOD/UL2016_MiniAODv2_NanoAODv9-v1/260000/8BB07849-1DFA-D546-B636-326BED34F37B.root
root://lyoeos.in2p3.fr//eos/lyoeos.in2p3.fr/grid/cms/store/data/Run2016H/DoubleEG/NANOAOD/UL2016_MiniAODv2_NanoAODv9-v1/260000/8CC76A5B-F0DE-C14A-8166-E1E29F9262D4.root
root://lyoeos.in2p3.fr//eos/lyoeos.in2p3.fr/grid/cms/store/data/Run2016H/DoubleEG/NANOAOD/UL2016_MiniAODv2_NanoAODv9-v1/260000/8EF19DBD-C5C9-CD42-90CE-1BDE377C4331.root
root://lyoeos.in2p3.fr//eos/lyoeos.in2p3.fr/grid/cms/store/data/Run2016H/DoubleEG/NANOAOD/UL2016_MiniAODv2_NanoAODv9-v1/260000/94F6C50F-6CE1-EA44-91AA-DF899FA310FE.root
root://lyoeos.in2p3.fr//eos/lyoeos.in2p3.fr/grid/cms/store/data/Run2016H/DoubleEG/NANOAOD/UL2016_MiniAODv2_NanoAODv9-v1/260000/96510D8E-B569-F948-8DF3-2E91E7B460AF.root
root://lyoeos.in2p3.fr//eos/lyoeos.in2p3.fr/grid/cms/store/data/Run2016H/DoubleEG/NANOAOD/UL2016_MiniAODv2_NanoAODv9-v1/260000/9C11C9E6-D6EB-934E-82FF-DE6FDA09CC04.root
root://lyoeos.in2p3.fr//eos/lyoeos.in2p3.fr/grid/cms/store/data/Run2016H/DoubleEG/NANOAOD/UL2016_MiniAODv2_NanoAODv9-v1/260000/9EC67AA0-1117-8B44-824C-94A9908D27FA.root
root://lyoeos.in2p3.fr//eos/lyoeos.in2p3.fr/grid/cms/store/data/Run2016H/DoubleEG/NANOAOD/UL2016_MiniAODv2_NanoAODv9-v1/260000/A4C83FB5-2B17-5E42-99E3-A175B72A1845.root
root://lyoeos.in2p3.fr//eos/lyoeos.in2p3.fr/grid/cms/store/data/Run2016H/DoubleEG/NANOAOD/UL2016_MiniAODv2_NanoAODv9-v1/260000/A78958A8-3566-874D-8002-DB605BF446E3.root
root://lyoeos.in2p3.fr//eos/lyoeos.in2p3.fr/grid/cms/store/data/Run2016H/DoubleEG/NANOAOD/UL2016_MiniAODv2_NanoAODv9-v1/260000/AA537C4F-62AC-7E4A-B086-18533E5EA31D.root
root://lyoeos.in2p3.fr//eos/lyoeos.in2p3.fr/grid/cms/store/data/Run2016H/DoubleEG/NANOAOD/UL2016_MiniAODv2_NanoAODv9-v1/260000/ACC98C3C-DCA8-3A4A-8184-6B9330E62DF5.root
root://lyoeos.in2p3.fr//eos/lyoeos.in2p3.fr/grid/cms/store/data/Run2016H/DoubleEG/NANOAOD/UL2016_MiniAODv2_NanoAODv9-v1/260000/B0648DBF-FD35-DE46-A578-905B19D6D4F3.root
root://lyoeos.in2p3.fr//eos/lyoeos.in2p3.fr/grid/cms/store/data/Run2016H/DoubleEG/NANOAOD/UL2016_MiniAODv2_NanoAODv9-v1/260000/B072C293-D9B7-CD4C-BE6C-7180DB4D9DE8.root
root://lyoeos.in2p3.fr//eos/lyoeos.in2p3.fr/grid/cms/store/data/Run2016H/DoubleEG/NANOAOD/UL2016_MiniAODv2_NanoAODv9-v1/260000/B2A32F98-440F-124B-B879-621109750134.root
root://lyoeos.in2p3.fr//eos/lyoeos.in2p3.fr/grid/cms/store/data/Run2016H/DoubleEG/NANOAOD/UL2016_MiniAODv2_NanoAODv9-v1/260000/B52317A6-8B3C-A04A-AAB4-15A3B2508F33.root
root://lyoeos.in2p3.fr//eos/lyoeos.in2p3.fr/grid/cms/store/data/Run2016H/DoubleEG/NANOAOD/UL2016_MiniAODv2_NanoAODv9-v1/260000/B79E99BF-8A86-1C4B-B5B7-9AB650EC48CF.root
root://lyoeos.in2p3.fr//eos/lyoeos.in2p3.fr/grid/cms/store/data/Run2016H/DoubleEG/NANOAOD/UL2016_MiniAODv2_NanoAODv9-v1/260000/BAE97A8C-5393-5A48-812D-52B6EEE8F874.root
root://lyoeos.in2p3.fr//eos/lyoeos.in2p3.fr/grid/cms/store/data/Run2016H/DoubleEG/NANOAOD/UL2016_MiniAODv2_NanoAODv9-v1/260000/BE577677-C67A-B14E-AE3D-41EB1836759B.root
root://lyoeos.in2p3.fr//eos/lyoeos.in2p3.fr/grid/cms/store/data/Run2016H/DoubleEG/NANOAOD/UL2016_MiniAODv2_NanoAODv9-v1/260000/BEA85521-63EC-8A4D-B477-0E5971972B56.root
root://lyoeos.in2p3.fr//eos/lyoeos.in2p3.fr/grid/cms/store/data/Run2016H/DoubleEG/NANOAOD/UL2016_MiniAODv2_NanoAODv9-v1/260000/BF26F9D1-3851-F34D-8E41-C96B5262544D.root
root://lyoeos.in2p3.fr//eos/lyoeos.in2p3.fr/grid/cms/store/data/Run2016H/DoubleEG/NANOAOD/UL2016_MiniAODv2_NanoAODv9-v1/260000/C68DE75F-C740-DE42-A360-69FA58BA4E78.root
root://lyoeos.in2p3.fr//eos/lyoeos.in2p3.fr/grid/cms/store/data/Run2016H/DoubleEG/NANOAOD/UL2016_MiniAODv2_NanoAODv9-v1/260000/C90A133D-32C8-F54D-821E-5E765071FCD3.root
root://lyoeos.in2p3.fr//eos/lyoeos.in2p3.fr/grid/cms/store/data/Run2016H/DoubleEG/NANOAOD/UL2016_MiniAODv2_NanoAODv9-v1/260000/CDCAEE18-B7C2-8A46-8E0F-389F95E37136.root
root://lyoeos.in2p3.fr//eos/lyoeos.in2p3.fr/grid/cms/store/data/Run2016H/DoubleEG/NANOAOD/UL2016_MiniAODv2_NanoAODv9-v1/260000/D3C50125-6D18-904F-A42B-634DBB5451DC.root
root://lyoeos.in2p3.fr//eos/lyoeos.in2p3.fr/grid/cms/store/data/Run2016H/DoubleEG/NANOAOD/UL2016_MiniAODv2_NanoAODv9-v1/260000/D5CA8B47-FB14-8E41-A2B2-8070A798BED5.root
root://lyoeos.in2p3.fr//eos/lyoeos.in2p3.fr/grid/cms/store/data/Run2016H/DoubleEG/NANOAOD/UL2016_MiniAODv2_NanoAODv9-v1/260000/D6747948-E431-EB4D-BF33-B12A19AE97A5.root
root://lyoeos.in2p3.fr//eos/lyoeos.in2p3.fr/grid/cms/store/data/Run2016H/DoubleEG/NANOAOD/UL2016_MiniAODv2_NanoAODv9-v1/260000/DC85FE2E-6A09-6441-BA92-2AB2F3DB0F27.root
root://lyoeos.in2p3.fr//eos/lyoeos.in2p3.fr/grid/cms/store/data/Run2016H/DoubleEG/NANOAOD/UL2016_MiniAODv2_NanoAODv9-v1/260000/DFFBA709-ADB3-704A-B86A-49A45B9D4456.root
root://lyoeos.in2p3.fr//eos/lyoeos.in2p3.fr/grid/cms/store/data/Run2016H/DoubleEG/NANOAOD/UL2016_MiniAODv2_NanoAODv9-v1/260000/E37C54EB-E6EC-5F4F-8793-7DC8CC38DF1D.root
root://lyoeos.in2p3.fr//eos/lyoeos.in2p3.fr/grid/cms/store/data/Run2016H/DoubleEG/NANOAOD/UL2016_MiniAODv2_NanoAODv9-v1/260000/E9EA8DF4-AEB2-6B4A-A51C-FBA39D3D26E0.root
root://lyoeos.in2p3.fr//eos/lyoeos.in2p3.fr/grid/cms/store/data/Run2016H/DoubleEG/NANOAOD/UL2016_MiniAODv2_NanoAODv9-v1/260000/EBC144E3-CF70-D741-9277-2E17CC627B2B.root
root://lyoeos.in2p3.fr//eos/lyoeos.in2p3.fr/grid/cms/store/data/Run2016H/DoubleEG/NANOAOD/UL2016_MiniAODv2_NanoAODv9-v1/260000/EC2419A5-E1CA-2742-855E-7B96BB439B84.root
root://lyoeos.in2p3.fr//eos/lyoeos.in2p3.fr/grid/cms/store/data/Run2016H/DoubleEG/NANOAOD/UL2016_MiniAODv2_NanoAODv9-v1/260000/EFEB5061-0A14-3C44-AD87-06650911AC61.root
root://lyoeos.in2p3.fr//eos/lyoeos.in2p3.fr/grid/cms/store/data/Run2016H/DoubleEG/NANOAOD/UL2016_MiniAODv2_NanoAODv9-v1/260000/F2698981-F4DD-0E41-AD47-972C0F572994.root
root://lyoeos.in2p3.fr//eos/lyoeos.in2p3.fr/grid/cms/store/data/Run2016H/DoubleEG/NANOAOD/UL2016_MiniAODv2_NanoAODv9-v1/260000/F2CFB1BB-7485-D245-8F55-1DEB102734FD.root
root://lyoeos.in2p3.fr//eos/lyoeos.in2p3.fr/grid/cms/store/data/Run2016H/DoubleEG/NANOAOD/UL2016_MiniAODv2_NanoAODv9-v1/260000/F2D58D98-B87F-9F4D-AB81-B33356606487.root
root://lyoeos.in2p3.fr//eos/lyoeos.in2p3.fr/grid/cms/store/data/Run2016H/DoubleEG/NANOAOD/UL2016_MiniAODv2_NanoAODv9-v1/260000/F55DF94A-6134-6245-A9C4-89056D871E61.root
root://lyoeos.in2p3.fr//eos/lyoeos.in2p3.fr/grid/cms/store/data/Run2016H/DoubleEG/NANOAOD/UL2016_MiniAODv2_NanoAODv9-v1/260000/F6B9F374-69AB-EE4F-8C61-D4E474F511A8.root
root://lyoeos.in2p3.fr//eos/lyoeos.in2p3.fr/grid/cms/store/data/Run2016H/DoubleEG/NANOAOD/UL2016_MiniAODv2_NanoAODv9-v1/260000/FC154FFB-F26D-5F4A-AAF5-045CF105D974.root
root://lyoeos.in2p3.fr//eos/lyoeos.in2p3.fr/grid/cms/store/data/Run2016H/DoubleEG/NANOAOD/UL2016_MiniAODv2_NanoAODv9-v1/260000/FC1ECF3C-83C1-394B-A69B-9BFB47A1BA61.root